,Probability to get depression by age group,,,,,,
Iteration,<5,"""5-15",16-24,25-44,45-64,65-74,>=75
1,0,0.000546471,0.003103529,0.005198319,0.00381162,0.00345752,0.003025002
2,0,0.000576483,0.003481451,0.0048013,0.004776543,0.00270854,0.002626072
3,0,0.000518671,0.003318552,0.005193357,0.004438096,0.003108154,0.00363777
4,0,0.000554914,0.003328622,0.005312627,0.004092158,0.003919695,0.00380498
5,0,0.000582431,0.003234468,0.0049177,0.004523989,0.002661062,0.003826063
6,0,0.000495037,0.003505814,0.004762587,0.005015246,0.003178458,0.004021992
7,0,0.000591374,0.003379854,0.005359539,0.005073179,0.002881865,0.00337022
8,0,0.000535045,0.003516427,0.005054387,0.004275995,0.002810108,0.003970371
9,0,0.000554744,0.003264351,0.00525862,0.003846029,0.003039802,0.003559379
10,0,0.000574189,0.003097613,0.004885905,0.004465774,0.002954872,0.003507692
11,0,0.000573815,0.003843149,0.005343173,0.004763366,0.003138566,0.003788952
12,0,0.000515727,0.003252981,0.005296601,0.004563683,0.002878826,0.003856611
13,0,0.000561869,0.003470976,0.004887802,0.004398214,0.002995303,0.00296894
14,0,0.000538809,0.003501119,0.00534811,0.004200969,0.002824427,0.003361693
15,0,0.000524051,0.003520169,0.004662232,0.004223285,0.00284488,0.00328523
16,0,0.000534634,0.003308329,0.005318915,0.004266395,0.002886364,0.00332747
17,0,0.00062302,0.003686755,0.005034512,0.004605127,0.003309875,0.003516043
18,0,0.000647609,0.003206587,0.005342383,0.004301229,0.003093162,0.003685509
19,0,0.000575091,0.00296816,0.005276649,0.004410066,0.002970175,0.003832952
20,0,0.000550771,0.003900331,0.004872609,0.004743554,0.003268645,0.003351355
21,0,0.000534191,0.003267365,0.005119829,0.005408944,0.002950359,0.003590961
22,0,0.000557487,0.003654061,0.005225363,0.00439065,0.003196267,0.003428077
23,0,0.000541476,0.003152158,0.005519466,0.004214475,0.00311126,0.003329282
24,0,0.000566936,0.003342731,0.005540471,0.00418362,0.00297028,0.003718781
25,0,0.000605889,0.003047846,0.004976363,0.004680214,0.002740813,0.003411538
26,0,0.000517492,0.00314213,0.005395143,0.005010254,0.00357276,0.003984964
27,0,0.000591121,0.00283322,0.00471058,0.004452263,0.002953615,0.003331437
28,0,0.00055022,0.003269175,0.005202595,0.004653887,0.003399647,0.003750379
29,0,0.000535807,0.003807797,0.004993361,0.004115312,0.00300408,0.003679319
30,0,0.000579907,0.003073884,0.005147946,0.004079747,0.003118046,0.003407027
31,0,0.000548888,0.003037477,0.004939279,0.004717983,0.002871841,0.003764768
32,0,0.000569942,0.002962237,0.004870943,0.00478229,0.002811709,0.003388069
33,0,0.000499219,0.003481006,0.004757733,0.003958288,0.003050933,0.003601337
34,0,0.000559356,0.003439618,0.004821698,0.005193123,0.002752392,0.003368341
35,0,0.000575489,0.003710813,0.004890309,0.005253444,0.003403122,0.003317039
36,0,0.000561739,0.003287721,0.005440906,0.004037093,0.003222193,0.003185634
37,0,0.00055378,0.003434428,0.005094228,0.004516616,0.002576028,0.003219846
38,0,0.000574268,0.003449675,0.005071346,0.004182292,0.002984722,0.003311394
39,0,0.000568751,0.003006349,0.005234406,0.004735343,0.003912399,0.00350001
40,0,0.00052225,0.003100071,0.005284978,0.004224704,0.003381557,0.00350075
41,0,0.000559982,0.003384198,0.005236522,0.004358948,0.003080461,0.003767103
42,0,0.000561772,0.003785713,0.005192377,0.004991845,0.003588942,0.003857833
43,0,0.000537488,0.003258954,0.005268963,0.004121343,0.002638233,0.003745303
44,0,0.000584689,0.003557041,0.005151325,0.005068991,0.003479456,0.003431671
45,0,0.000523911,0.00354164,0.005161209,0.004482635,0.002911941,0.003430643
46,0,0.000525351,0.00348032,0.005316996,0.004459474,0.003063755,0.003892527
47,0,0.00050838,0.003340048,0.005118678,0.004801187,0.003754236,0.003446521
48,0,0.000583904,0.003637145,0.005444824,0.004859667,0.002878934,0.003841975
49,0,0.000546108,0.003450846,0.005069476,0.004754882,0.003486696,0.00426026
50,0,0.00054305,0.003201386,0.005161871,0.005448568,0.003356719,0.003942767
51,0,0.000565187,0.003444053,0.005024995,0.004980594,0.002789803,0.003495246
52,0,0.000524954,0.00327709,0.004950924,0.004638838,0.002912917,0.003490521
53,0,0.000549854,0.003462854,0.005587581,0.004453643,0.003005192,0.003553683
54,0,0.000582376,0.003307938,0.005182402,0.004454922,0.00333434,0.003474501
55,0,0.000582289,0.003274084,0.005541478,0.004133278,0.002525262,0.003772289
56,0,0.000504596,0.003442764,0.005307684,0.004513862,0.002878224,0.003112154
57,0,0.000559174,0.003267912,0.005124343,0.004676388,0.003605964,0.003195796
58,0,0.000510973,0.003682004,0.005310514,0.004221246,0.002863079,0.003624727
59,0,0.000613586,0.002974807,0.004899002,0.003901019,0.003250083,0.003180342
60,0,0.000562715,0.003786737,0.00499714,0.004315631,0.003073923,0.003302667
61,0,0.000510384,0.002996259,0.00488731,0.004352624,0.003496627,0.004063821
62,0,0.00058171,0.003613835,0.005482821,0.004739783,0.003254572,0.003500688
63,0,0.000560693,0.003830448,0.004956093,0.004036378,0.003538064,0.004073589
64,0,0.00053136,0.003937721,0.005348092,0.004402752,0.003112615,0.003728754
65,0,0.000578072,0.002956775,0.00551204,0.00453562,0.003203479,0.003694986
66,0,0.000545711,0.003216862,0.005692401,0.004680401,0.003011491,0.003918609
67,0,0.000548737,0.003255062,0.005449776,0.004401332,0.003542854,0.003802521
68,0,0.000569929,0.003462932,0.005664232,0.003933424,0.003279771,0.003332861
69,0,0.000533356,0.003108693,0.005062948,0.004566076,0.003238571,0.003285662
70,0,0.000569269,0.003720401,0.005117418,0.004619586,0.003015598,0.003393156
71,0,0.000504256,0.00355111,0.005047895,0.004383012,0.002436324,0.004351399
72,0,0.000574396,0.003692828,0.005249581,0.004266652,0.002856012,0.003400768
73,0,0.000621087,0.00373959,0.005515705,0.004028246,0.002592792,0.003441231
74,0,0.000503325,0.003382013,0.005017615,0.00446698,0.003499954,0.003015565
75,0,0.000585866,0.003245715,0.005827042,0.003974872,0.0033822,0.003881196
76,0,0.000563237,0.003148607,0.004689508,0.004066421,0.00246863,0.00389908
77,0,0.000571926,0.003527158,0.004790127,0.005273206,0.003541636,0.003799217
78,0,0.00055643,0.003713079,0.0053237,0.004949397,0.003401065,0.003573201
79,0,0.000534928,0.003784413,0.005244047,0.004442638,0.003431685,0.003494875
80,0,0.000498588,0.003219587,0.005012477,0.004130021,0.003418703,0.003953298
81,0,0.000492302,0.003722423,0.004747409,0.004250331,0.002783583,0.003710556
82,0,0.000552993,0.003981243,0.0052641,0.004911722,0.002653157,0.003694076
83,0,0.000546252,0.003359101,0.004596488,0.004760868,0.003210686,0.003223715
84,0,0.000508541,0.003476513,0.005617783,0.004855696,0.002952903,0.003591519
85,0,0.000543876,0.003056112,0.005345627,0.004927113,0.003293037,0.003203623
86,0,0.00053611,0.003004132,0.004802517,0.003657617,0.003268675,0.003664288
87,0,0.00057476,0.003425637,0.005254555,0.004450785,0.003035883,0.003171493
88,0,0.00058432,0.003331363,0.00499238,0.004793549,0.0033485,0.003726724
89,0,0.000488234,0.003246012,0.005595948,0.004150284,0.00271557,0.003768333
90,0,0.000533057,0.003634092,0.005405743,0.005566813,0.003395044,0.003394524
91,0,0.000557845,0.003218248,0.004822038,0.004674414,0.003513669,0.003690542
92,0,0.000592067,0.004200765,0.005227252,0.004024746,0.003076459,0.003693602
93,0,0.000512859,0.00324374,0.005500799,0.004414124,0.002574349,0.0037388
94,0,0.000571176,0.003225356,0.00509827,0.00514327,0.002492219,0.003657334
95,0,0.000563472,0.003320517,0.005582619,0.005191574,0.003274248,0.004366084
96,0,0.000536381,0.003025897,0.005423381,0.004274812,0.003551809,0.003075908
97,0,0.000499215,0.003252019,0.005628146,0.004857767,0.002872801,0.002972724
98,0,0.000575065,0.00366803,0.00547865,0.004361391,0.002438625,0.003464806
99,0,0.00051429,0.003114476,0.005245725,0.00410883,0.0026326,0.003747338
100,0,0.000551241,0.002767499,0.005619362,0.004275956,0.002429897,0.003800369
101,0,0.000546471,0.003103529,0.005198319,0.00381162,0.00345752,0.003025002
102,0,0.000576483,0.003481451,0.0048013,0.004776543,0.00270854,0.002626072
103,0,0.000518671,0.003318552,0.005193357,0.004438096,0.003108154,0.00363777
104,0,0.000554914,0.003328622,0.005312627,0.004092158,0.003919695,0.00380498
105,0,0.000582431,0.003234468,0.0049177,0.004523989,0.002661062,0.003826063
106,0,0.000495037,0.003505814,0.004762587,0.005015246,0.003178458,0.004021992
107,0,0.000591374,0.003379854,0.005359539,0.005073179,0.002881865,0.00337022
108,0,0.000535045,0.003516427,0.005054387,0.004275995,0.002810108,0.003970371
109,0,0.000554744,0.003264351,0.00525862,0.003846029,0.003039802,0.003559379
110,0,0.000574189,0.003097613,0.004885905,0.004465774,0.002954872,0.003507692
111,0,0.000573815,0.003843149,0.005343173,0.004763366,0.003138566,0.003788952
112,0,0.000515727,0.003252981,0.005296601,0.004563683,0.002878826,0.003856611
113,0,0.000561869,0.003470976,0.004887802,0.004398214,0.002995303,0.00296894
114,0,0.000538809,0.003501119,0.00534811,0.004200969,0.002824427,0.003361693
115,0,0.000524051,0.003520169,0.004662232,0.004223285,0.00284488,0.00328523
116,0,0.000534634,0.003308329,0.005318915,0.004266395,0.002886364,0.00332747
117,0,0.00062302,0.003686755,0.005034512,0.004605127,0.003309875,0.003516043
118,0,0.000647609,0.003206587,0.005342383,0.004301229,0.003093162,0.003685509
119,0,0.000575091,0.00296816,0.005276649,0.004410066,0.002970175,0.003832952
120,0,0.000550771,0.003900331,0.004872609,0.004743554,0.003268645,0.003351355
121,0,0.000534191,0.003267365,0.005119829,0.005408944,0.002950359,0.003590961
122,0,0.000557487,0.003654061,0.005225363,0.00439065,0.003196267,0.003428077
123,0,0.000541476,0.003152158,0.005519466,0.004214475,0.00311126,0.003329282
124,0,0.000566936,0.003342731,0.005540471,0.00418362,0.00297028,0.003718781
125,0,0.000605889,0.003047846,0.004976363,0.004680214,0.002740813,0.003411538
126,0,0.000517492,0.00314213,0.005395143,0.005010254,0.00357276,0.003984964
127,0,0.000591121,0.00283322,0.00471058,0.004452263,0.002953615,0.003331437
128,0,0.00055022,0.003269175,0.005202595,0.004653887,0.003399647,0.003750379
129,0,0.000535807,0.003807797,0.004993361,0.004115312,0.00300408,0.003679319
130,0,0.000579907,0.003073884,0.005147946,0.004079747,0.003118046,0.003407027
131,0,0.000548888,0.003037477,0.004939279,0.004717983,0.002871841,0.003764768
132,0,0.000569942,0.002962237,0.004870943,0.00478229,0.002811709,0.003388069
133,0,0.000499219,0.003481006,0.004757733,0.003958288,0.003050933,0.003601337
134,0,0.000559356,0.003439618,0.004821698,0.005193123,0.002752392,0.003368341
135,0,0.000575489,0.003710813,0.004890309,0.005253444,0.003403122,0.003317039
136,0,0.000561739,0.003287721,0.005440906,0.004037093,0.003222193,0.003185634
137,0,0.00055378,0.003434428,0.005094228,0.004516616,0.002576028,0.003219846
138,0,0.000574268,0.003449675,0.005071346,0.004182292,0.002984722,0.003311394
139,0,0.000568751,0.003006349,0.005234406,0.004735343,0.003912399,0.00350001
140,0,0.00052225,0.003100071,0.005284978,0.004224704,0.003381557,0.00350075
141,0,0.000559982,0.003384198,0.005236522,0.004358948,0.003080461,0.003767103
142,0,0.000561772,0.003785713,0.005192377,0.004991845,0.003588942,0.003857833
143,0,0.000537488,0.003258954,0.005268963,0.004121343,0.002638233,0.003745303
144,0,0.000584689,0.003557041,0.005151325,0.005068991,0.003479456,0.003431671
145,0,0.000523911,0.00354164,0.005161209,0.004482635,0.002911941,0.003430643
146,0,0.000525351,0.00348032,0.005316996,0.004459474,0.003063755,0.003892527
147,0,0.00050838,0.003340048,0.005118678,0.004801187,0.003754236,0.003446521
148,0,0.000583904,0.003637145,0.005444824,0.004859667,0.002878934,0.003841975
149,0,0.000546108,0.003450846,0.005069476,0.004754882,0.003486696,0.00426026
150,0,0.00054305,0.003201386,0.005161871,0.005448568,0.003356719,0.003942767
151,0,0.000565187,0.003444053,0.005024995,0.004980594,0.002789803,0.003495246
152,0,0.000524954,0.00327709,0.004950924,0.004638838,0.002912917,0.003490521
153,0,0.000549854,0.003462854,0.005587581,0.004453643,0.003005192,0.003553683
154,0,0.000582376,0.003307938,0.005182402,0.004454922,0.00333434,0.003474501
155,0,0.000582289,0.003274084,0.005541478,0.004133278,0.002525262,0.003772289
156,0,0.000504596,0.003442764,0.005307684,0.004513862,0.002878224,0.003112154
157,0,0.000559174,0.003267912,0.005124343,0.004676388,0.003605964,0.003195796
158,0,0.000510973,0.003682004,0.005310514,0.004221246,0.002863079,0.003624727
159,0,0.000613586,0.002974807,0.004899002,0.003901019,0.003250083,0.003180342
160,0,0.000562715,0.003786737,0.00499714,0.004315631,0.003073923,0.003302667
161,0,0.000510384,0.002996259,0.00488731,0.004352624,0.003496627,0.004063821
162,0,0.00058171,0.003613835,0.005482821,0.004739783,0.003254572,0.003500688
163,0,0.000560693,0.003830448,0.004956093,0.004036378,0.003538064,0.004073589
164,0,0.00053136,0.003937721,0.005348092,0.004402752,0.003112615,0.003728754
165,0,0.000578072,0.002956775,0.00551204,0.00453562,0.003203479,0.003694986
166,0,0.000545711,0.003216862,0.005692401,0.004680401,0.003011491,0.003918609
167,0,0.000548737,0.003255062,0.005449776,0.004401332,0.003542854,0.003802521
168,0,0.000569929,0.003462932,0.005664232,0.003933424,0.003279771,0.003332861
169,0,0.000533356,0.003108693,0.005062948,0.004566076,0.003238571,0.003285662
170,0,0.000569269,0.003720401,0.005117418,0.004619586,0.003015598,0.003393156
171,0,0.000504256,0.00355111,0.005047895,0.004383012,0.002436324,0.004351399
172,0,0.000574396,0.003692828,0.005249581,0.004266652,0.002856012,0.003400768
173,0,0.000621087,0.00373959,0.005515705,0.004028246,0.002592792,0.003441231
174,0,0.000503325,0.003382013,0.005017615,0.00446698,0.003499954,0.003015565
175,0,0.000585866,0.003245715,0.005827042,0.003974872,0.0033822,0.003881196
176,0,0.000563237,0.003148607,0.004689508,0.004066421,0.00246863,0.00389908
177,0,0.000571926,0.003527158,0.004790127,0.005273206,0.003541636,0.003799217
178,0,0.00055643,0.003713079,0.0053237,0.004949397,0.003401065,0.003573201
179,0,0.000534928,0.003784413,0.005244047,0.004442638,0.003431685,0.003494875
180,0,0.000498588,0.003219587,0.005012477,0.004130021,0.003418703,0.003953298
181,0,0.000492302,0.003722423,0.004747409,0.004250331,0.002783583,0.003710556
182,0,0.000552993,0.003981243,0.0052641,0.004911722,0.002653157,0.003694076
183,0,0.000546252,0.003359101,0.004596488,0.004760868,0.003210686,0.003223715
184,0,0.000508541,0.003476513,0.005617783,0.004855696,0.002952903,0.003591519
185,0,0.000543876,0.003056112,0.005345627,0.004927113,0.003293037,0.003203623
186,0,0.00053611,0.003004132,0.004802517,0.003657617,0.003268675,0.003664288
187,0,0.00057476,0.003425637,0.005254555,0.004450785,0.003035883,0.003171493
188,0,0.00058432,0.003331363,0.00499238,0.004793549,0.0033485,0.003726724
189,0,0.000488234,0.003246012,0.005595948,0.004150284,0.00271557,0.003768333
190,0,0.000533057,0.003634092,0.005405743,0.005566813,0.003395044,0.003394524
191,0,0.000557845,0.003218248,0.004822038,0.004674414,0.003513669,0.003690542
192,0,0.000592067,0.004200765,0.005227252,0.004024746,0.003076459,0.003693602
193,0,0.000512859,0.00324374,0.005500799,0.004414124,0.002574349,0.0037388
194,0,0.000571176,0.003225356,0.00509827,0.00514327,0.002492219,0.003657334
195,0,0.000563472,0.003320517,0.005582619,0.005191574,0.003274248,0.004366084
196,0,0.000536381,0.003025897,0.005423381,0.004274812,0.003551809,0.003075908
197,0,0.000499215,0.003252019,0.005628146,0.004857767,0.002872801,0.002972724
198,0,0.000575065,0.00366803,0.00547865,0.004361391,0.002438625,0.003464806
199,0,0.00051429,0.003114476,0.005245725,0.00410883,0.0026326,0.003747338
200,0,0.000551241,0.002767499,0.005619362,0.004275956,0.002429897,0.003800369
201,0,0.000546471,0.003103529,0.005198319,0.00381162,0.00345752,0.003025002
202,0,0.000576483,0.003481451,0.0048013,0.004776543,0.00270854,0.002626072
203,0,0.000518671,0.003318552,0.005193357,0.004438096,0.003108154,0.00363777
204,0,0.000554914,0.003328622,0.005312627,0.004092158,0.003919695,0.00380498
205,0,0.000582431,0.003234468,0.0049177,0.004523989,0.002661062,0.003826063
206,0,0.000495037,0.003505814,0.004762587,0.005015246,0.003178458,0.004021992
207,0,0.000591374,0.003379854,0.005359539,0.005073179,0.002881865,0.00337022
208,0,0.000535045,0.003516427,0.005054387,0.004275995,0.002810108,0.003970371
209,0,0.000554744,0.003264351,0.00525862,0.003846029,0.003039802,0.003559379
210,0,0.000574189,0.003097613,0.004885905,0.004465774,0.002954872,0.003507692
211,0,0.000573815,0.003843149,0.005343173,0.004763366,0.003138566,0.003788952
212,0,0.000515727,0.003252981,0.005296601,0.004563683,0.002878826,0.003856611
213,0,0.000561869,0.003470976,0.004887802,0.004398214,0.002995303,0.00296894
214,0,0.000538809,0.003501119,0.00534811,0.004200969,0.002824427,0.003361693
215,0,0.000524051,0.003520169,0.004662232,0.004223285,0.00284488,0.00328523
216,0,0.000534634,0.003308329,0.005318915,0.004266395,0.002886364,0.00332747
217,0,0.00062302,0.003686755,0.005034512,0.004605127,0.003309875,0.003516043
218,0,0.000647609,0.003206587,0.005342383,0.004301229,0.003093162,0.003685509
219,0,0.000575091,0.00296816,0.005276649,0.004410066,0.002970175,0.003832952
220,0,0.000550771,0.003900331,0.004872609,0.004743554,0.003268645,0.003351355
221,0,0.000534191,0.003267365,0.005119829,0.005408944,0.002950359,0.003590961
222,0,0.000557487,0.003654061,0.005225363,0.00439065,0.003196267,0.003428077
223,0,0.000541476,0.003152158,0.005519466,0.004214475,0.00311126,0.003329282
224,0,0.000566936,0.003342731,0.005540471,0.00418362,0.00297028,0.003718781
225,0,0.000605889,0.003047846,0.004976363,0.004680214,0.002740813,0.003411538
226,0,0.000517492,0.00314213,0.005395143,0.005010254,0.00357276,0.003984964
227,0,0.000591121,0.00283322,0.00471058,0.004452263,0.002953615,0.003331437
228,0,0.00055022,0.003269175,0.005202595,0.004653887,0.003399647,0.003750379
229,0,0.000535807,0.003807797,0.004993361,0.004115312,0.00300408,0.003679319
230,0,0.000579907,0.003073884,0.005147946,0.004079747,0.003118046,0.003407027
231,0,0.000548888,0.003037477,0.004939279,0.004717983,0.002871841,0.003764768
232,0,0.000569942,0.002962237,0.004870943,0.00478229,0.002811709,0.003388069
233,0,0.000499219,0.003481006,0.004757733,0.003958288,0.003050933,0.003601337
234,0,0.000559356,0.003439618,0.004821698,0.005193123,0.002752392,0.003368341
235,0,0.000575489,0.003710813,0.004890309,0.005253444,0.003403122,0.003317039
236,0,0.000561739,0.003287721,0.005440906,0.004037093,0.003222193,0.003185634
237,0,0.00055378,0.003434428,0.005094228,0.004516616,0.002576028,0.003219846
238,0,0.000574268,0.003449675,0.005071346,0.004182292,0.002984722,0.003311394
239,0,0.000568751,0.003006349,0.005234406,0.004735343,0.003912399,0.00350001
240,0,0.00052225,0.003100071,0.005284978,0.004224704,0.003381557,0.00350075
241,0,0.000559982,0.003384198,0.005236522,0.004358948,0.003080461,0.003767103
242,0,0.000561772,0.003785713,0.005192377,0.004991845,0.003588942,0.003857833
243,0,0.000537488,0.003258954,0.005268963,0.004121343,0.002638233,0.003745303
244,0,0.000584689,0.003557041,0.005151325,0.005068991,0.003479456,0.003431671
245,0,0.000523911,0.00354164,0.005161209,0.004482635,0.002911941,0.003430643
246,0,0.000525351,0.00348032,0.005316996,0.004459474,0.003063755,0.003892527
247,0,0.00050838,0.003340048,0.005118678,0.004801187,0.003754236,0.003446521
248,0,0.000583904,0.003637145,0.005444824,0.004859667,0.002878934,0.003841975
249,0,0.000546108,0.003450846,0.005069476,0.004754882,0.003486696,0.00426026
250,0,0.00054305,0.003201386,0.005161871,0.005448568,0.003356719,0.003942767
251,0,0.000565187,0.003444053,0.005024995,0.004980594,0.002789803,0.003495246
252,0,0.000524954,0.00327709,0.004950924,0.004638838,0.002912917,0.003490521
253,0,0.000549854,0.003462854,0.005587581,0.004453643,0.003005192,0.003553683
254,0,0.000582376,0.003307938,0.005182402,0.004454922,0.00333434,0.003474501
255,0,0.000582289,0.003274084,0.005541478,0.004133278,0.002525262,0.003772289
256,0,0.000504596,0.003442764,0.005307684,0.004513862,0.002878224,0.003112154
257,0,0.000559174,0.003267912,0.005124343,0.004676388,0.003605964,0.003195796
258,0,0.000510973,0.003682004,0.005310514,0.004221246,0.002863079,0.003624727
259,0,0.000613586,0.002974807,0.004899002,0.003901019,0.003250083,0.003180342
260,0,0.000562715,0.003786737,0.00499714,0.004315631,0.003073923,0.003302667
261,0,0.000510384,0.002996259,0.00488731,0.004352624,0.003496627,0.004063821
262,0,0.00058171,0.003613835,0.005482821,0.004739783,0.003254572,0.003500688
263,0,0.000560693,0.003830448,0.004956093,0.004036378,0.003538064,0.004073589
264,0,0.00053136,0.003937721,0.005348092,0.004402752,0.003112615,0.003728754
265,0,0.000578072,0.002956775,0.00551204,0.00453562,0.003203479,0.003694986
266,0,0.000545711,0.003216862,0.005692401,0.004680401,0.003011491,0.003918609
267,0,0.000548737,0.003255062,0.005449776,0.004401332,0.003542854,0.003802521
268,0,0.000569929,0.003462932,0.005664232,0.003933424,0.003279771,0.003332861
269,0,0.000533356,0.003108693,0.005062948,0.004566076,0.003238571,0.003285662
270,0,0.000569269,0.003720401,0.005117418,0.004619586,0.003015598,0.003393156
271,0,0.000504256,0.00355111,0.005047895,0.004383012,0.002436324,0.004351399
272,0,0.000574396,0.003692828,0.005249581,0.004266652,0.002856012,0.003400768
273,0,0.000621087,0.00373959,0.005515705,0.004028246,0.002592792,0.003441231
274,0,0.000503325,0.003382013,0.005017615,0.00446698,0.003499954,0.003015565
275,0,0.000585866,0.003245715,0.005827042,0.003974872,0.0033822,0.003881196
276,0,0.000563237,0.003148607,0.004689508,0.004066421,0.00246863,0.00389908
277,0,0.000571926,0.003527158,0.004790127,0.005273206,0.003541636,0.003799217
278,0,0.00055643,0.003713079,0.0053237,0.004949397,0.003401065,0.003573201
279,0,0.000534928,0.003784413,0.005244047,0.004442638,0.003431685,0.003494875
280,0,0.000498588,0.003219587,0.005012477,0.004130021,0.003418703,0.003953298
281,0,0.000492302,0.003722423,0.004747409,0.004250331,0.002783583,0.003710556
282,0,0.000552993,0.003981243,0.0052641,0.004911722,0.002653157,0.003694076
283,0,0.000546252,0.003359101,0.004596488,0.004760868,0.003210686,0.003223715
284,0,0.000508541,0.003476513,0.005617783,0.004855696,0.002952903,0.003591519
285,0,0.000543876,0.003056112,0.005345627,0.004927113,0.003293037,0.003203623
286,0,0.00053611,0.003004132,0.004802517,0.003657617,0.003268675,0.003664288
287,0,0.00057476,0.003425637,0.005254555,0.004450785,0.003035883,0.003171493
288,0,0.00058432,0.003331363,0.00499238,0.004793549,0.0033485,0.003726724
289,0,0.000488234,0.003246012,0.005595948,0.004150284,0.00271557,0.003768333
290,0,0.000533057,0.003634092,0.005405743,0.005566813,0.003395044,0.003394524
291,0,0.000557845,0.003218248,0.004822038,0.004674414,0.003513669,0.003690542
292,0,0.000592067,0.004200765,0.005227252,0.004024746,0.003076459,0.003693602
293,0,0.000512859,0.00324374,0.005500799,0.004414124,0.002574349,0.0037388
294,0,0.000571176,0.003225356,0.00509827,0.00514327,0.002492219,0.003657334
295,0,0.000563472,0.003320517,0.005582619,0.005191574,0.003274248,0.004366084
296,0,0.000536381,0.003025897,0.005423381,0.004274812,0.003551809,0.003075908
297,0,0.000499215,0.003252019,0.005628146,0.004857767,0.002872801,0.002972724
298,0,0.000575065,0.00366803,0.00547865,0.004361391,0.002438625,0.003464806
299,0,0.00051429,0.003114476,0.005245725,0.00410883,0.0026326,0.003747338
300,0,0.000551241,0.002767499,0.005619362,0.004275956,0.002429897,0.003800369
301,0,0.000546471,0.003103529,0.005198319,0.00381162,0.00345752,0.003025002
302,0,0.000576483,0.003481451,0.0048013,0.004776543,0.00270854,0.002626072
303,0,0.000518671,0.003318552,0.005193357,0.004438096,0.003108154,0.00363777
304,0,0.000554914,0.003328622,0.005312627,0.004092158,0.003919695,0.00380498
305,0,0.000582431,0.003234468,0.0049177,0.004523989,0.002661062,0.003826063
306,0,0.000495037,0.003505814,0.004762587,0.005015246,0.003178458,0.004021992
307,0,0.000591374,0.003379854,0.005359539,0.005073179,0.002881865,0.00337022
308,0,0.000535045,0.003516427,0.005054387,0.004275995,0.002810108,0.003970371
309,0,0.000554744,0.003264351,0.00525862,0.003846029,0.003039802,0.003559379
310,0,0.000574189,0.003097613,0.004885905,0.004465774,0.002954872,0.003507692
311,0,0.000573815,0.003843149,0.005343173,0.004763366,0.003138566,0.003788952
312,0,0.000515727,0.003252981,0.005296601,0.004563683,0.002878826,0.003856611
313,0,0.000561869,0.003470976,0.004887802,0.004398214,0.002995303,0.00296894
314,0,0.000538809,0.003501119,0.00534811,0.004200969,0.002824427,0.003361693
315,0,0.000524051,0.003520169,0.004662232,0.004223285,0.00284488,0.00328523
316,0,0.000534634,0.003308329,0.005318915,0.004266395,0.002886364,0.00332747
317,0,0.00062302,0.003686755,0.005034512,0.004605127,0.003309875,0.003516043
318,0,0.000647609,0.003206587,0.005342383,0.004301229,0.003093162,0.003685509
319,0,0.000575091,0.00296816,0.005276649,0.004410066,0.002970175,0.003832952
320,0,0.000550771,0.003900331,0.004872609,0.004743554,0.003268645,0.003351355
321,0,0.000534191,0.003267365,0.005119829,0.005408944,0.002950359,0.003590961
322,0,0.000557487,0.003654061,0.005225363,0.00439065,0.003196267,0.003428077
323,0,0.000541476,0.003152158,0.005519466,0.004214475,0.00311126,0.003329282
324,0,0.000566936,0.003342731,0.005540471,0.00418362,0.00297028,0.003718781
325,0,0.000605889,0.003047846,0.004976363,0.004680214,0.002740813,0.003411538
326,0,0.000517492,0.00314213,0.005395143,0.005010254,0.00357276,0.003984964
327,0,0.000591121,0.00283322,0.00471058,0.004452263,0.002953615,0.003331437
328,0,0.00055022,0.003269175,0.005202595,0.004653887,0.003399647,0.003750379
329,0,0.000535807,0.003807797,0.004993361,0.004115312,0.00300408,0.003679319
330,0,0.000579907,0.003073884,0.005147946,0.004079747,0.003118046,0.003407027
331,0,0.000548888,0.003037477,0.004939279,0.004717983,0.002871841,0.003764768
332,0,0.000569942,0.002962237,0.004870943,0.00478229,0.002811709,0.003388069
333,0,0.000499219,0.003481006,0.004757733,0.003958288,0.003050933,0.003601337
334,0,0.000559356,0.003439618,0.004821698,0.005193123,0.002752392,0.003368341
335,0,0.000575489,0.003710813,0.004890309,0.005253444,0.003403122,0.003317039
336,0,0.000561739,0.003287721,0.005440906,0.004037093,0.003222193,0.003185634
337,0,0.00055378,0.003434428,0.005094228,0.004516616,0.002576028,0.003219846
338,0,0.000574268,0.003449675,0.005071346,0.004182292,0.002984722,0.003311394
339,0,0.000568751,0.003006349,0.005234406,0.004735343,0.003912399,0.00350001
340,0,0.00052225,0.003100071,0.005284978,0.004224704,0.003381557,0.00350075
341,0,0.000559982,0.003384198,0.005236522,0.004358948,0.003080461,0.003767103
342,0,0.000561772,0.003785713,0.005192377,0.004991845,0.003588942,0.003857833
343,0,0.000537488,0.003258954,0.005268963,0.004121343,0.002638233,0.003745303
344,0,0.000584689,0.003557041,0.005151325,0.005068991,0.003479456,0.003431671
345,0,0.000523911,0.00354164,0.005161209,0.004482635,0.002911941,0.003430643
346,0,0.000525351,0.00348032,0.005316996,0.004459474,0.003063755,0.003892527
347,0,0.00050838,0.003340048,0.005118678,0.004801187,0.003754236,0.003446521
348,0,0.000583904,0.003637145,0.005444824,0.004859667,0.002878934,0.003841975
349,0,0.000546108,0.003450846,0.005069476,0.004754882,0.003486696,0.00426026
350,0,0.00054305,0.003201386,0.005161871,0.005448568,0.003356719,0.003942767
351,0,0.000565187,0.003444053,0.005024995,0.004980594,0.002789803,0.003495246
352,0,0.000524954,0.00327709,0.004950924,0.004638838,0.002912917,0.003490521
353,0,0.000549854,0.003462854,0.005587581,0.004453643,0.003005192,0.003553683
354,0,0.000582376,0.003307938,0.005182402,0.004454922,0.00333434,0.003474501
355,0,0.000582289,0.003274084,0.005541478,0.004133278,0.002525262,0.003772289
356,0,0.000504596,0.003442764,0.005307684,0.004513862,0.002878224,0.003112154
357,0,0.000559174,0.003267912,0.005124343,0.004676388,0.003605964,0.003195796
358,0,0.000510973,0.003682004,0.005310514,0.004221246,0.002863079,0.003624727
359,0,0.000613586,0.002974807,0.004899002,0.003901019,0.003250083,0.003180342
360,0,0.000562715,0.003786737,0.00499714,0.004315631,0.003073923,0.003302667
361,0,0.000510384,0.002996259,0.00488731,0.004352624,0.003496627,0.004063821
362,0,0.00058171,0.003613835,0.005482821,0.004739783,0.003254572,0.003500688
363,0,0.000560693,0.003830448,0.004956093,0.004036378,0.003538064,0.004073589
364,0,0.00053136,0.003937721,0.005348092,0.004402752,0.003112615,0.003728754
365,0,0.000578072,0.002956775,0.00551204,0.00453562,0.003203479,0.003694986
366,0,0.000545711,0.003216862,0.005692401,0.004680401,0.003011491,0.003918609
367,0,0.000548737,0.003255062,0.005449776,0.004401332,0.003542854,0.003802521
368,0,0.000569929,0.003462932,0.005664232,0.003933424,0.003279771,0.003332861
369,0,0.000533356,0.003108693,0.005062948,0.004566076,0.003238571,0.003285662
370,0,0.000569269,0.003720401,0.005117418,0.004619586,0.003015598,0.003393156
371,0,0.000504256,0.00355111,0.005047895,0.004383012,0.002436324,0.004351399
372,0,0.000574396,0.003692828,0.005249581,0.004266652,0.002856012,0.003400768
373,0,0.000621087,0.00373959,0.005515705,0.004028246,0.002592792,0.003441231
374,0,0.000503325,0.003382013,0.005017615,0.00446698,0.003499954,0.003015565
375,0,0.000585866,0.003245715,0.005827042,0.003974872,0.0033822,0.003881196
376,0,0.000563237,0.003148607,0.004689508,0.004066421,0.00246863,0.00389908
377,0,0.000571926,0.003527158,0.004790127,0.005273206,0.003541636,0.003799217
378,0,0.00055643,0.003713079,0.0053237,0.004949397,0.003401065,0.003573201
379,0,0.000534928,0.003784413,0.005244047,0.004442638,0.003431685,0.003494875
380,0,0.000498588,0.003219587,0.005012477,0.004130021,0.003418703,0.003953298
381,0,0.000492302,0.003722423,0.004747409,0.004250331,0.002783583,0.003710556
382,0,0.000552993,0.003981243,0.0052641,0.004911722,0.002653157,0.003694076
383,0,0.000546252,0.003359101,0.004596488,0.004760868,0.003210686,0.003223715
384,0,0.000508541,0.003476513,0.005617783,0.004855696,0.002952903,0.003591519
385,0,0.000543876,0.003056112,0.005345627,0.004927113,0.003293037,0.003203623
386,0,0.00053611,0.003004132,0.004802517,0.003657617,0.003268675,0.003664288
387,0,0.00057476,0.003425637,0.005254555,0.004450785,0.003035883,0.003171493
388,0,0.00058432,0.003331363,0.00499238,0.004793549,0.0033485,0.003726724
389,0,0.000488234,0.003246012,0.005595948,0.004150284,0.00271557,0.003768333
390,0,0.000533057,0.003634092,0.005405743,0.005566813,0.003395044,0.003394524
391,0,0.000557845,0.003218248,0.004822038,0.004674414,0.003513669,0.003690542
392,0,0.000592067,0.004200765,0.005227252,0.004024746,0.003076459,0.003693602
393,0,0.000512859,0.00324374,0.005500799,0.004414124,0.002574349,0.0037388
394,0,0.000571176,0.003225356,0.00509827,0.00514327,0.002492219,0.003657334
395,0,0.000563472,0.003320517,0.005582619,0.005191574,0.003274248,0.004366084
396,0,0.000536381,0.003025897,0.005423381,0.004274812,0.003551809,0.003075908
397,0,0.000499215,0.003252019,0.005628146,0.004857767,0.002872801,0.002972724
398,0,0.000575065,0.00366803,0.00547865,0.004361391,0.002438625,0.003464806
399,0,0.00051429,0.003114476,0.005245725,0.00410883,0.0026326,0.003747338
400,0,0.000551241,0.002767499,0.005619362,0.004275956,0.002429897,0.003800369
401,0,0.000546471,0.003103529,0.005198319,0.00381162,0.00345752,0.003025002
402,0,0.000576483,0.003481451,0.0048013,0.004776543,0.00270854,0.002626072
403,0,0.000518671,0.003318552,0.005193357,0.004438096,0.003108154,0.00363777
404,0,0.000554914,0.003328622,0.005312627,0.004092158,0.003919695,0.00380498
405,0,0.000582431,0.003234468,0.0049177,0.004523989,0.002661062,0.003826063
406,0,0.000495037,0.003505814,0.004762587,0.005015246,0.003178458,0.004021992
407,0,0.000591374,0.003379854,0.005359539,0.005073179,0.002881865,0.00337022
408,0,0.000535045,0.003516427,0.005054387,0.004275995,0.002810108,0.003970371
409,0,0.000554744,0.003264351,0.00525862,0.003846029,0.003039802,0.003559379
410,0,0.000574189,0.003097613,0.004885905,0.004465774,0.002954872,0.003507692
411,0,0.000573815,0.003843149,0.005343173,0.004763366,0.003138566,0.003788952
412,0,0.000515727,0.003252981,0.005296601,0.004563683,0.002878826,0.003856611
413,0,0.000561869,0.003470976,0.004887802,0.004398214,0.002995303,0.00296894
414,0,0.000538809,0.003501119,0.00534811,0.004200969,0.002824427,0.003361693
415,0,0.000524051,0.003520169,0.004662232,0.004223285,0.00284488,0.00328523
416,0,0.000534634,0.003308329,0.005318915,0.004266395,0.002886364,0.00332747
417,0,0.00062302,0.003686755,0.005034512,0.004605127,0.003309875,0.003516043
418,0,0.000647609,0.003206587,0.005342383,0.004301229,0.003093162,0.003685509
419,0,0.000575091,0.00296816,0.005276649,0.004410066,0.002970175,0.003832952
420,0,0.000550771,0.003900331,0.004872609,0.004743554,0.003268645,0.003351355
421,0,0.000534191,0.003267365,0.005119829,0.005408944,0.002950359,0.003590961
422,0,0.000557487,0.003654061,0.005225363,0.00439065,0.003196267,0.003428077
423,0,0.000541476,0.003152158,0.005519466,0.004214475,0.00311126,0.003329282
424,0,0.000566936,0.003342731,0.005540471,0.00418362,0.00297028,0.003718781
425,0,0.000605889,0.003047846,0.004976363,0.004680214,0.002740813,0.003411538
426,0,0.000517492,0.00314213,0.005395143,0.005010254,0.00357276,0.003984964
427,0,0.000591121,0.00283322,0.00471058,0.004452263,0.002953615,0.003331437
428,0,0.00055022,0.003269175,0.005202595,0.004653887,0.003399647,0.003750379
429,0,0.000535807,0.003807797,0.004993361,0.004115312,0.00300408,0.003679319
430,0,0.000579907,0.003073884,0.005147946,0.004079747,0.003118046,0.003407027
431,0,0.000548888,0.003037477,0.004939279,0.004717983,0.002871841,0.003764768
432,0,0.000569942,0.002962237,0.004870943,0.00478229,0.002811709,0.003388069
433,0,0.000499219,0.003481006,0.004757733,0.003958288,0.003050933,0.003601337
434,0,0.000559356,0.003439618,0.004821698,0.005193123,0.002752392,0.003368341
435,0,0.000575489,0.003710813,0.004890309,0.005253444,0.003403122,0.003317039
436,0,0.000561739,0.003287721,0.005440906,0.004037093,0.003222193,0.003185634
437,0,0.00055378,0.003434428,0.005094228,0.004516616,0.002576028,0.003219846
438,0,0.000574268,0.003449675,0.005071346,0.004182292,0.002984722,0.003311394
439,0,0.000568751,0.003006349,0.005234406,0.004735343,0.003912399,0.00350001
440,0,0.00052225,0.003100071,0.005284978,0.004224704,0.003381557,0.00350075
441,0,0.000559982,0.003384198,0.005236522,0.004358948,0.003080461,0.003767103
442,0,0.000561772,0.003785713,0.005192377,0.004991845,0.003588942,0.003857833
443,0,0.000537488,0.003258954,0.005268963,0.004121343,0.002638233,0.003745303
444,0,0.000584689,0.003557041,0.005151325,0.005068991,0.003479456,0.003431671
445,0,0.000523911,0.00354164,0.005161209,0.004482635,0.002911941,0.003430643
446,0,0.000525351,0.00348032,0.005316996,0.004459474,0.003063755,0.003892527
447,0,0.00050838,0.003340048,0.005118678,0.004801187,0.003754236,0.003446521
448,0,0.000583904,0.003637145,0.005444824,0.004859667,0.002878934,0.003841975
449,0,0.000546108,0.003450846,0.005069476,0.004754882,0.003486696,0.00426026
450,0,0.00054305,0.003201386,0.005161871,0.005448568,0.003356719,0.003942767
451,0,0.000565187,0.003444053,0.005024995,0.004980594,0.002789803,0.003495246
452,0,0.000524954,0.00327709,0.004950924,0.004638838,0.002912917,0.003490521
453,0,0.000549854,0.003462854,0.005587581,0.004453643,0.003005192,0.003553683
454,0,0.000582376,0.003307938,0.005182402,0.004454922,0.00333434,0.003474501
455,0,0.000582289,0.003274084,0.005541478,0.004133278,0.002525262,0.003772289
456,0,0.000504596,0.003442764,0.005307684,0.004513862,0.002878224,0.003112154
457,0,0.000559174,0.003267912,0.005124343,0.004676388,0.003605964,0.003195796
458,0,0.000510973,0.003682004,0.005310514,0.004221246,0.002863079,0.003624727
459,0,0.000613586,0.002974807,0.004899002,0.003901019,0.003250083,0.003180342
460,0,0.000562715,0.003786737,0.00499714,0.004315631,0.003073923,0.003302667
461,0,0.000510384,0.002996259,0.00488731,0.004352624,0.003496627,0.004063821
462,0,0.00058171,0.003613835,0.005482821,0.004739783,0.003254572,0.003500688
463,0,0.000560693,0.003830448,0.004956093,0.004036378,0.003538064,0.004073589
464,0,0.00053136,0.003937721,0.005348092,0.004402752,0.003112615,0.003728754
465,0,0.000578072,0.002956775,0.00551204,0.00453562,0.003203479,0.003694986
466,0,0.000545711,0.003216862,0.005692401,0.004680401,0.003011491,0.003918609
467,0,0.000548737,0.003255062,0.005449776,0.004401332,0.003542854,0.003802521
468,0,0.000569929,0.003462932,0.005664232,0.003933424,0.003279771,0.003332861
469,0,0.000533356,0.003108693,0.005062948,0.004566076,0.003238571,0.003285662
470,0,0.000569269,0.003720401,0.005117418,0.004619586,0.003015598,0.003393156
471,0,0.000504256,0.00355111,0.005047895,0.004383012,0.002436324,0.004351399
472,0,0.000574396,0.003692828,0.005249581,0.004266652,0.002856012,0.003400768
473,0,0.000621087,0.00373959,0.005515705,0.004028246,0.002592792,0.003441231
474,0,0.000503325,0.003382013,0.005017615,0.00446698,0.003499954,0.003015565
475,0,0.000585866,0.003245715,0.005827042,0.003974872,0.0033822,0.003881196
476,0,0.000563237,0.003148607,0.004689508,0.004066421,0.00246863,0.00389908
477,0,0.000571926,0.003527158,0.004790127,0.005273206,0.003541636,0.003799217
478,0,0.00055643,0.003713079,0.0053237,0.004949397,0.003401065,0.003573201
479,0,0.000534928,0.003784413,0.005244047,0.004442638,0.003431685,0.003494875
480,0,0.000498588,0.003219587,0.005012477,0.004130021,0.003418703,0.003953298
481,0,0.000492302,0.003722423,0.004747409,0.004250331,0.002783583,0.003710556
482,0,0.000552993,0.003981243,0.0052641,0.004911722,0.002653157,0.003694076
483,0,0.000546252,0.003359101,0.004596488,0.004760868,0.003210686,0.003223715
484,0,0.000508541,0.003476513,0.005617783,0.004855696,0.002952903,0.003591519
485,0,0.000543876,0.003056112,0.005345627,0.004927113,0.003293037,0.003203623
486,0,0.00053611,0.003004132,0.004802517,0.003657617,0.003268675,0.003664288
487,0,0.00057476,0.003425637,0.005254555,0.004450785,0.003035883,0.003171493
488,0,0.00058432,0.003331363,0.00499238,0.004793549,0.0033485,0.003726724
489,0,0.000488234,0.003246012,0.005595948,0.004150284,0.00271557,0.003768333
490,0,0.000533057,0.003634092,0.005405743,0.005566813,0.003395044,0.003394524
491,0,0.000557845,0.003218248,0.004822038,0.004674414,0.003513669,0.003690542
492,0,0.000592067,0.004200765,0.005227252,0.004024746,0.003076459,0.003693602
493,0,0.000512859,0.00324374,0.005500799,0.004414124,0.002574349,0.0037388
494,0,0.000571176,0.003225356,0.00509827,0.00514327,0.002492219,0.003657334
495,0,0.000563472,0.003320517,0.005582619,0.005191574,0.003274248,0.004366084
496,0,0.000536381,0.003025897,0.005423381,0.004274812,0.003551809,0.003075908
497,0,0.000499215,0.003252019,0.005628146,0.004857767,0.002872801,0.002972724
498,0,0.000575065,0.00366803,0.00547865,0.004361391,0.002438625,0.003464806
499,0,0.00051429,0.003114476,0.005245725,0.00410883,0.0026326,0.003747338
500,0,0.000551241,0.002767499,0.005619362,0.004275956,0.002429897,0.003800369
