,1,2,3,4,5,6,7,8,9,10,11,12,13,14,15,16,17,18,19
Iteration,Name,AcuteDuration(months),AcuteCost(month),AcuteUtilityMultiplier,AcutePA,PostAcuteCost(month),PostAcuteUtilityMultiplier,PostAcutePA(inactive)Mmean,PostAcutePA(inactive)Msd,PostAcutePA(moderatelyActive)Mmean,PostAcutePA(moderatelyActive)Msd,PostAcutePA(veryActive)Mmean,PostAcutePA(veryActive)Msd,PostAcutePA(inactive)Fmean,PostAcutePA(inactive)Fsd,PostAcutePA(moderatelyActive)Fmean,PostAcutePA(moderatelyActive)Fsd,PostAcutePA(veryActive)Fmean,PostAcutePA(veryActive)Fsd
1,CHD,6,569,0.76,0,67,0.88,-4.988,61.43,7.566,490.56,5.412,3170.58,-2.267,68.49,-12.414,431.76,-5.277,3377.51
2,CHD,6,569,0.76,0,67,0.88,-4.988,61.43,7.566,490.56,5.412,3170.58,-2.267,68.49,-12.414,431.76,-5.277,3377.51
3,CHD,6,569,0.76,0,67,0.88,-4.988,61.43,7.566,490.56,5.412,3170.58,-2.267,68.49,-12.414,431.76,-5.277,3377.51
4,CHD,6,569,0.76,0,67,0.88,-4.988,61.43,7.566,490.56,5.412,3170.58,-2.267,68.49,-12.414,431.76,-5.277,3377.51
5,CHD,6,569,0.76,0,67,0.88,-4.988,61.43,7.566,490.56,5.412,3170.58,-2.267,68.49,-12.414,431.76,-5.277,3377.51
6,CHD,6,569,0.76,0,67,0.88,-4.988,61.43,7.566,490.56,5.412,3170.58,-2.267,68.49,-12.414,431.76,-5.277,3377.51
7,CHD,6,569,0.76,0,67,0.88,-4.988,61.43,7.566,490.56,5.412,3170.58,-2.267,68.49,-12.414,431.76,-5.277,3377.51
8,CHD,6,569,0.76,0,67,0.88,-4.988,61.43,7.566,490.56,5.412,3170.58,-2.267,68.49,-12.414,431.76,-5.277,3377.51
9,CHD,6,569,0.76,0,67,0.88,-4.988,61.43,7.566,490.56,5.412,3170.58,-2.267,68.49,-12.414,431.76,-5.277,3377.51
10,CHD,6,569,0.76,0,67,0.88,-4.988,61.43,7.566,490.56,5.412,3170.58,-2.267,68.49,-12.414,431.76,-5.277,3377.51
11,CHD,6,569,0.76,0,67,0.88,-4.988,61.43,7.566,490.56,5.412,3170.58,-2.267,68.49,-12.414,431.76,-5.277,3377.51
12,CHD,6,569,0.76,0,67,0.88,-4.988,61.43,7.566,490.56,5.412,3170.58,-2.267,68.49,-12.414,431.76,-5.277,3377.51
13,CHD,6,569,0.76,0,67,0.88,-4.988,61.43,7.566,490.56,5.412,3170.58,-2.267,68.49,-12.414,431.76,-5.277,3377.51
14,CHD,6,569,0.76,0,67,0.88,-4.988,61.43,7.566,490.56,5.412,3170.58,-2.267,68.49,-12.414,431.76,-5.277,3377.51
15,CHD,6,569,0.76,0,67,0.88,-4.988,61.43,7.566,490.56,5.412,3170.58,-2.267,68.49,-12.414,431.76,-5.277,3377.51
16,CHD,6,569,0.76,0,67,0.88,-4.988,61.43,7.566,490.56,5.412,3170.58,-2.267,68.49,-12.414,431.76,-5.277,3377.51
17,CHD,6,569,0.76,0,67,0.88,-4.988,61.43,7.566,490.56,5.412,3170.58,-2.267,68.49,-12.414,431.76,-5.277,3377.51
18,CHD,6,569,0.76,0,67,0.88,-4.988,61.43,7.566,490.56,5.412,3170.58,-2.267,68.49,-12.414,431.76,-5.277,3377.51
19,CHD,6,569,0.76,0,67,0.88,-4.988,61.43,7.566,490.56,5.412,3170.58,-2.267,68.49,-12.414,431.76,-5.277,3377.51
20,CHD,6,569,0.76,0,67,0.88,-4.988,61.43,7.566,490.56,5.412,3170.58,-2.267,68.49,-12.414,431.76,-5.277,3377.51
21,CHD,6,569,0.76,0,67,0.88,-4.988,61.43,7.566,490.56,5.412,3170.58,-2.267,68.49,-12.414,431.76,-5.277,3377.51
22,CHD,6,569,0.76,0,67,0.88,-4.988,61.43,7.566,490.56,5.412,3170.58,-2.267,68.49,-12.414,431.76,-5.277,3377.51
23,CHD,6,569,0.76,0,67,0.88,-4.988,61.43,7.566,490.56,5.412,3170.58,-2.267,68.49,-12.414,431.76,-5.277,3377.51
24,CHD,6,569,0.76,0,67,0.88,-4.988,61.43,7.566,490.56,5.412,3170.58,-2.267,68.49,-12.414,431.76,-5.277,3377.51
25,CHD,6,569,0.76,0,67,0.88,-4.988,61.43,7.566,490.56,5.412,3170.58,-2.267,68.49,-12.414,431.76,-5.277,3377.51
26,CHD,6,569,0.76,0,67,0.88,-4.988,61.43,7.566,490.56,5.412,3170.58,-2.267,68.49,-12.414,431.76,-5.277,3377.51
27,CHD,6,569,0.76,0,67,0.88,-4.988,61.43,7.566,490.56,5.412,3170.58,-2.267,68.49,-12.414,431.76,-5.277,3377.51
28,CHD,6,569,0.76,0,67,0.88,-4.988,61.43,7.566,490.56,5.412,3170.58,-2.267,68.49,-12.414,431.76,-5.277,3377.51
29,CHD,6,569,0.76,0,67,0.88,-4.988,61.43,7.566,490.56,5.412,3170.58,-2.267,68.49,-12.414,431.76,-5.277,3377.51
30,CHD,6,569,0.76,0,67,0.88,-4.988,61.43,7.566,490.56,5.412,3170.58,-2.267,68.49,-12.414,431.76,-5.277,3377.51
31,CHD,6,569,0.76,0,67,0.88,-4.988,61.43,7.566,490.56,5.412,3170.58,-2.267,68.49,-12.414,431.76,-5.277,3377.51
32,CHD,6,569,0.76,0,67,0.88,-4.988,61.43,7.566,490.56,5.412,3170.58,-2.267,68.49,-12.414,431.76,-5.277,3377.51
33,CHD,6,569,0.76,0,67,0.88,-4.988,61.43,7.566,490.56,5.412,3170.58,-2.267,68.49,-12.414,431.76,-5.277,3377.51
34,CHD,6,569,0.76,0,67,0.88,-4.988,61.43,7.566,490.56,5.412,3170.58,-2.267,68.49,-12.414,431.76,-5.277,3377.51
35,CHD,6,569,0.76,0,67,0.88,-4.988,61.43,7.566,490.56,5.412,3170.58,-2.267,68.49,-12.414,431.76,-5.277,3377.51
36,CHD,6,569,0.76,0,67,0.88,-4.988,61.43,7.566,490.56,5.412,3170.58,-2.267,68.49,-12.414,431.76,-5.277,3377.51
37,CHD,6,569,0.76,0,67,0.88,-4.988,61.43,7.566,490.56,5.412,3170.58,-2.267,68.49,-12.414,431.76,-5.277,3377.51
38,CHD,6,569,0.76,0,67,0.88,-4.988,61.43,7.566,490.56,5.412,3170.58,-2.267,68.49,-12.414,431.76,-5.277,3377.51
39,CHD,6,569,0.76,0,67,0.88,-4.988,61.43,7.566,490.56,5.412,3170.58,-2.267,68.49,-12.414,431.76,-5.277,3377.51
40,CHD,6,569,0.76,0,67,0.88,-4.988,61.43,7.566,490.56,5.412,3170.58,-2.267,68.49,-12.414,431.76,-5.277,3377.51
41,CHD,6,569,0.76,0,67,0.88,-4.988,61.43,7.566,490.56,5.412,3170.58,-2.267,68.49,-12.414,431.76,-5.277,3377.51
42,CHD,6,569,0.76,0,67,0.88,-4.988,61.43,7.566,490.56,5.412,3170.58,-2.267,68.49,-12.414,431.76,-5.277,3377.51
43,CHD,6,569,0.76,0,67,0.88,-4.988,61.43,7.566,490.56,5.412,3170.58,-2.267,68.49,-12.414,431.76,-5.277,3377.51
44,CHD,6,569,0.76,0,67,0.88,-4.988,61.43,7.566,490.56,5.412,3170.58,-2.267,68.49,-12.414,431.76,-5.277,3377.51
45,CHD,6,569,0.76,0,67,0.88,-4.988,61.43,7.566,490.56,5.412,3170.58,-2.267,68.49,-12.414,431.76,-5.277,3377.51
46,CHD,6,569,0.76,0,67,0.88,-4.988,61.43,7.566,490.56,5.412,3170.58,-2.267,68.49,-12.414,431.76,-5.277,3377.51
47,CHD,6,569,0.76,0,67,0.88,-4.988,61.43,7.566,490.56,5.412,3170.58,-2.267,68.49,-12.414,431.76,-5.277,3377.51
48,CHD,6,569,0.76,0,67,0.88,-4.988,61.43,7.566,490.56,5.412,3170.58,-2.267,68.49,-12.414,431.76,-5.277,3377.51
49,CHD,6,569,0.76,0,67,0.88,-4.988,61.43,7.566,490.56,5.412,3170.58,-2.267,68.49,-12.414,431.76,-5.277,3377.51
50,CHD,6,569,0.76,0,67,0.88,-4.988,61.43,7.566,490.56,5.412,3170.58,-2.267,68.49,-12.414,431.76,-5.277,3377.51
51,CHD,6,569,0.76,0,67,0.88,-4.988,61.43,7.566,490.56,5.412,3170.58,-2.267,68.49,-12.414,431.76,-5.277,3377.51
52,CHD,6,569,0.76,0,67,0.88,-4.988,61.43,7.566,490.56,5.412,3170.58,-2.267,68.49,-12.414,431.76,-5.277,3377.51
53,CHD,6,569,0.76,0,67,0.88,-4.988,61.43,7.566,490.56,5.412,3170.58,-2.267,68.49,-12.414,431.76,-5.277,3377.51
54,CHD,6,569,0.76,0,67,0.88,-4.988,61.43,7.566,490.56,5.412,3170.58,-2.267,68.49,-12.414,431.76,-5.277,3377.51
55,CHD,6,569,0.76,0,67,0.88,-4.988,61.43,7.566,490.56,5.412,3170.58,-2.267,68.49,-12.414,431.76,-5.277,3377.51
56,CHD,6,569,0.76,0,67,0.88,-4.988,61.43,7.566,490.56,5.412,3170.58,-2.267,68.49,-12.414,431.76,-5.277,3377.51
57,CHD,6,569,0.76,0,67,0.88,-4.988,61.43,7.566,490.56,5.412,3170.58,-2.267,68.49,-12.414,431.76,-5.277,3377.51
58,CHD,6,569,0.76,0,67,0.88,-4.988,61.43,7.566,490.56,5.412,3170.58,-2.267,68.49,-12.414,431.76,-5.277,3377.51
59,CHD,6,569,0.76,0,67,0.88,-4.988,61.43,7.566,490.56,5.412,3170.58,-2.267,68.49,-12.414,431.76,-5.277,3377.51
60,CHD,6,569,0.76,0,67,0.88,-4.988,61.43,7.566,490.56,5.412,3170.58,-2.267,68.49,-12.414,431.76,-5.277,3377.51
61,CHD,6,569,0.76,0,67,0.88,-4.988,61.43,7.566,490.56,5.412,3170.58,-2.267,68.49,-12.414,431.76,-5.277,3377.51
62,CHD,6,569,0.76,0,67,0.88,-4.988,61.43,7.566,490.56,5.412,3170.58,-2.267,68.49,-12.414,431.76,-5.277,3377.51
63,CHD,6,569,0.76,0,67,0.88,-4.988,61.43,7.566,490.56,5.412,3170.58,-2.267,68.49,-12.414,431.76,-5.277,3377.51
64,CHD,6,569,0.76,0,67,0.88,-4.988,61.43,7.566,490.56,5.412,3170.58,-2.267,68.49,-12.414,431.76,-5.277,3377.51
65,CHD,6,569,0.76,0,67,0.88,-4.988,61.43,7.566,490.56,5.412,3170.58,-2.267,68.49,-12.414,431.76,-5.277,3377.51
66,CHD,6,569,0.76,0,67,0.88,-4.988,61.43,7.566,490.56,5.412,3170.58,-2.267,68.49,-12.414,431.76,-5.277,3377.51
67,CHD,6,569,0.76,0,67,0.88,-4.988,61.43,7.566,490.56,5.412,3170.58,-2.267,68.49,-12.414,431.76,-5.277,3377.51
68,CHD,6,569,0.76,0,67,0.88,-4.988,61.43,7.566,490.56,5.412,3170.58,-2.267,68.49,-12.414,431.76,-5.277,3377.51
69,CHD,6,569,0.76,0,67,0.88,-4.988,61.43,7.566,490.56,5.412,3170.58,-2.267,68.49,-12.414,431.76,-5.277,3377.51
70,CHD,6,569,0.76,0,67,0.88,-4.988,61.43,7.566,490.56,5.412,3170.58,-2.267,68.49,-12.414,431.76,-5.277,3377.51
71,CHD,6,569,0.76,0,67,0.88,-4.988,61.43,7.566,490.56,5.412,3170.58,-2.267,68.49,-12.414,431.76,-5.277,3377.51
72,CHD,6,569,0.76,0,67,0.88,-4.988,61.43,7.566,490.56,5.412,3170.58,-2.267,68.49,-12.414,431.76,-5.277,3377.51
73,CHD,6,569,0.76,0,67,0.88,-4.988,61.43,7.566,490.56,5.412,3170.58,-2.267,68.49,-12.414,431.76,-5.277,3377.51
74,CHD,6,569,0.76,0,67,0.88,-4.988,61.43,7.566,490.56,5.412,3170.58,-2.267,68.49,-12.414,431.76,-5.277,3377.51
75,CHD,6,569,0.76,0,67,0.88,-4.988,61.43,7.566,490.56,5.412,3170.58,-2.267,68.49,-12.414,431.76,-5.277,3377.51
76,CHD,6,569,0.76,0,67,0.88,-4.988,61.43,7.566,490.56,5.412,3170.58,-2.267,68.49,-12.414,431.76,-5.277,3377.51
77,CHD,6,569,0.76,0,67,0.88,-4.988,61.43,7.566,490.56,5.412,3170.58,-2.267,68.49,-12.414,431.76,-5.277,3377.51
78,CHD,6,569,0.76,0,67,0.88,-4.988,61.43,7.566,490.56,5.412,3170.58,-2.267,68.49,-12.414,431.76,-5.277,3377.51
79,CHD,6,569,0.76,0,67,0.88,-4.988,61.43,7.566,490.56,5.412,3170.58,-2.267,68.49,-12.414,431.76,-5.277,3377.51
80,CHD,6,569,0.76,0,67,0.88,-4.988,61.43,7.566,490.56,5.412,3170.58,-2.267,68.49,-12.414,431.76,-5.277,3377.51
81,CHD,6,569,0.76,0,67,0.88,-4.988,61.43,7.566,490.56,5.412,3170.58,-2.267,68.49,-12.414,431.76,-5.277,3377.51
82,CHD,6,569,0.76,0,67,0.88,-4.988,61.43,7.566,490.56,5.412,3170.58,-2.267,68.49,-12.414,431.76,-5.277,3377.51
83,CHD,6,569,0.76,0,67,0.88,-4.988,61.43,7.566,490.56,5.412,3170.58,-2.267,68.49,-12.414,431.76,-5.277,3377.51
84,CHD,6,569,0.76,0,67,0.88,-4.988,61.43,7.566,490.56,5.412,3170.58,-2.267,68.49,-12.414,431.76,-5.277,3377.51
85,CHD,6,569,0.76,0,67,0.88,-4.988,61.43,7.566,490.56,5.412,3170.58,-2.267,68.49,-12.414,431.76,-5.277,3377.51
86,CHD,6,569,0.76,0,67,0.88,-4.988,61.43,7.566,490.56,5.412,3170.58,-2.267,68.49,-12.414,431.76,-5.277,3377.51
87,CHD,6,569,0.76,0,67,0.88,-4.988,61.43,7.566,490.56,5.412,3170.58,-2.267,68.49,-12.414,431.76,-5.277,3377.51
88,CHD,6,569,0.76,0,67,0.88,-4.988,61.43,7.566,490.56,5.412,3170.58,-2.267,68.49,-12.414,431.76,-5.277,3377.51
89,CHD,6,569,0.76,0,67,0.88,-4.988,61.43,7.566,490.56,5.412,3170.58,-2.267,68.49,-12.414,431.76,-5.277,3377.51
90,CHD,6,569,0.76,0,67,0.88,-4.988,61.43,7.566,490.56,5.412,3170.58,-2.267,68.49,-12.414,431.76,-5.277,3377.51
91,CHD,6,569,0.76,0,67,0.88,-4.988,61.43,7.566,490.56,5.412,3170.58,-2.267,68.49,-12.414,431.76,-5.277,3377.51
92,CHD,6,569,0.76,0,67,0.88,-4.988,61.43,7.566,490.56,5.412,3170.58,-2.267,68.49,-12.414,431.76,-5.277,3377.51
93,CHD,6,569,0.76,0,67,0.88,-4.988,61.43,7.566,490.56,5.412,3170.58,-2.267,68.49,-12.414,431.76,-5.277,3377.51
94,CHD,6,569,0.76,0,67,0.88,-4.988,61.43,7.566,490.56,5.412,3170.58,-2.267,68.49,-12.414,431.76,-5.277,3377.51
95,CHD,6,569,0.76,0,67,0.88,-4.988,61.43,7.566,490.56,5.412,3170.58,-2.267,68.49,-12.414,431.76,-5.277,3377.51
96,CHD,6,569,0.76,0,67,0.88,-4.988,61.43,7.566,490.56,5.412,3170.58,-2.267,68.49,-12.414,431.76,-5.277,3377.51
97,CHD,6,569,0.76,0,67,0.88,-4.988,61.43,7.566,490.56,5.412,3170.58,-2.267,68.49,-12.414,431.76,-5.277,3377.51
98,CHD,6,569,0.76,0,67,0.88,-4.988,61.43,7.566,490.56,5.412,3170.58,-2.267,68.49,-12.414,431.76,-5.277,3377.51
99,CHD,6,569,0.76,0,67,0.88,-4.988,61.43,7.566,490.56,5.412,3170.58,-2.267,68.49,-12.414,431.76,-5.277,3377.51
100,CHD,6,569,0.76,0,67,0.88,-4.988,61.43,7.566,490.56,5.412,3170.58,-2.267,68.49,-12.414,431.76,-5.277,3377.51
101,CHD,6,569,0.76,0,67,0.88,-4.988,61.43,7.566,490.56,5.412,3170.58,-2.267,68.49,-12.414,431.76,-5.277,3377.51
102,CHD,6,569,0.76,0,67,0.88,-4.988,61.43,7.566,490.56,5.412,3170.58,-2.267,68.49,-12.414,431.76,-5.277,3377.51
103,CHD,6,569,0.76,0,67,0.88,-4.988,61.43,7.566,490.56,5.412,3170.58,-2.267,68.49,-12.414,431.76,-5.277,3377.51
104,CHD,6,569,0.76,0,67,0.88,-4.988,61.43,7.566,490.56,5.412,3170.58,-2.267,68.49,-12.414,431.76,-5.277,3377.51
105,CHD,6,569,0.76,0,67,0.88,-4.988,61.43,7.566,490.56,5.412,3170.58,-2.267,68.49,-12.414,431.76,-5.277,3377.51
106,CHD,6,569,0.76,0,67,0.88,-4.988,61.43,7.566,490.56,5.412,3170.58,-2.267,68.49,-12.414,431.76,-5.277,3377.51
107,CHD,6,569,0.76,0,67,0.88,-4.988,61.43,7.566,490.56,5.412,3170.58,-2.267,68.49,-12.414,431.76,-5.277,3377.51
108,CHD,6,569,0.76,0,67,0.88,-4.988,61.43,7.566,490.56,5.412,3170.58,-2.267,68.49,-12.414,431.76,-5.277,3377.51
109,CHD,6,569,0.76,0,67,0.88,-4.988,61.43,7.566,490.56,5.412,3170.58,-2.267,68.49,-12.414,431.76,-5.277,3377.51
110,CHD,6,569,0.76,0,67,0.88,-4.988,61.43,7.566,490.56,5.412,3170.58,-2.267,68.49,-12.414,431.76,-5.277,3377.51
111,CHD,6,569,0.76,0,67,0.88,-4.988,61.43,7.566,490.56,5.412,3170.58,-2.267,68.49,-12.414,431.76,-5.277,3377.51
112,CHD,6,569,0.76,0,67,0.88,-4.988,61.43,7.566,490.56,5.412,3170.58,-2.267,68.49,-12.414,431.76,-5.277,3377.51
113,CHD,6,569,0.76,0,67,0.88,-4.988,61.43,7.566,490.56,5.412,3170.58,-2.267,68.49,-12.414,431.76,-5.277,3377.51
114,CHD,6,569,0.76,0,67,0.88,-4.988,61.43,7.566,490.56,5.412,3170.58,-2.267,68.49,-12.414,431.76,-5.277,3377.51
115,CHD,6,569,0.76,0,67,0.88,-4.988,61.43,7.566,490.56,5.412,3170.58,-2.267,68.49,-12.414,431.76,-5.277,3377.51
116,CHD,6,569,0.76,0,67,0.88,-4.988,61.43,7.566,490.56,5.412,3170.58,-2.267,68.49,-12.414,431.76,-5.277,3377.51
117,CHD,6,569,0.76,0,67,0.88,-4.988,61.43,7.566,490.56,5.412,3170.58,-2.267,68.49,-12.414,431.76,-5.277,3377.51
118,CHD,6,569,0.76,0,67,0.88,-4.988,61.43,7.566,490.56,5.412,3170.58,-2.267,68.49,-12.414,431.76,-5.277,3377.51
119,CHD,6,569,0.76,0,67,0.88,-4.988,61.43,7.566,490.56,5.412,3170.58,-2.267,68.49,-12.414,431.76,-5.277,3377.51
120,CHD,6,569,0.76,0,67,0.88,-4.988,61.43,7.566,490.56,5.412,3170.58,-2.267,68.49,-12.414,431.76,-5.277,3377.51
121,CHD,6,569,0.76,0,67,0.88,-4.988,61.43,7.566,490.56,5.412,3170.58,-2.267,68.49,-12.414,431.76,-5.277,3377.51
122,CHD,6,569,0.76,0,67,0.88,-4.988,61.43,7.566,490.56,5.412,3170.58,-2.267,68.49,-12.414,431.76,-5.277,3377.51
123,CHD,6,569,0.76,0,67,0.88,-4.988,61.43,7.566,490.56,5.412,3170.58,-2.267,68.49,-12.414,431.76,-5.277,3377.51
124,CHD,6,569,0.76,0,67,0.88,-4.988,61.43,7.566,490.56,5.412,3170.58,-2.267,68.49,-12.414,431.76,-5.277,3377.51
125,CHD,6,569,0.76,0,67,0.88,-4.988,61.43,7.566,490.56,5.412,3170.58,-2.267,68.49,-12.414,431.76,-5.277,3377.51
126,CHD,6,569,0.76,0,67,0.88,-4.988,61.43,7.566,490.56,5.412,3170.58,-2.267,68.49,-12.414,431.76,-5.277,3377.51
127,CHD,6,569,0.76,0,67,0.88,-4.988,61.43,7.566,490.56,5.412,3170.58,-2.267,68.49,-12.414,431.76,-5.277,3377.51
128,CHD,6,569,0.76,0,67,0.88,-4.988,61.43,7.566,490.56,5.412,3170.58,-2.267,68.49,-12.414,431.76,-5.277,3377.51
129,CHD,6,569,0.76,0,67,0.88,-4.988,61.43,7.566,490.56,5.412,3170.58,-2.267,68.49,-12.414,431.76,-5.277,3377.51
130,CHD,6,569,0.76,0,67,0.88,-4.988,61.43,7.566,490.56,5.412,3170.58,-2.267,68.49,-12.414,431.76,-5.277,3377.51
131,CHD,6,569,0.76,0,67,0.88,-4.988,61.43,7.566,490.56,5.412,3170.58,-2.267,68.49,-12.414,431.76,-5.277,3377.51
132,CHD,6,569,0.76,0,67,0.88,-4.988,61.43,7.566,490.56,5.412,3170.58,-2.267,68.49,-12.414,431.76,-5.277,3377.51
133,CHD,6,569,0.76,0,67,0.88,-4.988,61.43,7.566,490.56,5.412,3170.58,-2.267,68.49,-12.414,431.76,-5.277,3377.51
134,CHD,6,569,0.76,0,67,0.88,-4.988,61.43,7.566,490.56,5.412,3170.58,-2.267,68.49,-12.414,431.76,-5.277,3377.51
135,CHD,6,569,0.76,0,67,0.88,-4.988,61.43,7.566,490.56,5.412,3170.58,-2.267,68.49,-12.414,431.76,-5.277,3377.51
136,CHD,6,569,0.76,0,67,0.88,-4.988,61.43,7.566,490.56,5.412,3170.58,-2.267,68.49,-12.414,431.76,-5.277,3377.51
137,CHD,6,569,0.76,0,67,0.88,-4.988,61.43,7.566,490.56,5.412,3170.58,-2.267,68.49,-12.414,431.76,-5.277,3377.51
138,CHD,6,569,0.76,0,67,0.88,-4.988,61.43,7.566,490.56,5.412,3170.58,-2.267,68.49,-12.414,431.76,-5.277,3377.51
139,CHD,6,569,0.76,0,67,0.88,-4.988,61.43,7.566,490.56,5.412,3170.58,-2.267,68.49,-12.414,431.76,-5.277,3377.51
140,CHD,6,569,0.76,0,67,0.88,-4.988,61.43,7.566,490.56,5.412,3170.58,-2.267,68.49,-12.414,431.76,-5.277,3377.51
141,CHD,6,569,0.76,0,67,0.88,-4.988,61.43,7.566,490.56,5.412,3170.58,-2.267,68.49,-12.414,431.76,-5.277,3377.51
142,CHD,6,569,0.76,0,67,0.88,-4.988,61.43,7.566,490.56,5.412,3170.58,-2.267,68.49,-12.414,431.76,-5.277,3377.51
143,CHD,6,569,0.76,0,67,0.88,-4.988,61.43,7.566,490.56,5.412,3170.58,-2.267,68.49,-12.414,431.76,-5.277,3377.51
144,CHD,6,569,0.76,0,67,0.88,-4.988,61.43,7.566,490.56,5.412,3170.58,-2.267,68.49,-12.414,431.76,-5.277,3377.51
145,CHD,6,569,0.76,0,67,0.88,-4.988,61.43,7.566,490.56,5.412,3170.58,-2.267,68.49,-12.414,431.76,-5.277,3377.51
146,CHD,6,569,0.76,0,67,0.88,-4.988,61.43,7.566,490.56,5.412,3170.58,-2.267,68.49,-12.414,431.76,-5.277,3377.51
147,CHD,6,569,0.76,0,67,0.88,-4.988,61.43,7.566,490.56,5.412,3170.58,-2.267,68.49,-12.414,431.76,-5.277,3377.51
148,CHD,6,569,0.76,0,67,0.88,-4.988,61.43,7.566,490.56,5.412,3170.58,-2.267,68.49,-12.414,431.76,-5.277,3377.51
149,CHD,6,569,0.76,0,67,0.88,-4.988,61.43,7.566,490.56,5.412,3170.58,-2.267,68.49,-12.414,431.76,-5.277,3377.51
150,CHD,6,569,0.76,0,67,0.88,-4.988,61.43,7.566,490.56,5.412,3170.58,-2.267,68.49,-12.414,431.76,-5.277,3377.51
151,CHD,6,569,0.76,0,67,0.88,-4.988,61.43,7.566,490.56,5.412,3170.58,-2.267,68.49,-12.414,431.76,-5.277,3377.51
152,CHD,6,569,0.76,0,67,0.88,-4.988,61.43,7.566,490.56,5.412,3170.58,-2.267,68.49,-12.414,431.76,-5.277,3377.51
153,CHD,6,569,0.76,0,67,0.88,-4.988,61.43,7.566,490.56,5.412,3170.58,-2.267,68.49,-12.414,431.76,-5.277,3377.51
154,CHD,6,569,0.76,0,67,0.88,-4.988,61.43,7.566,490.56,5.412,3170.58,-2.267,68.49,-12.414,431.76,-5.277,3377.51
155,CHD,6,569,0.76,0,67,0.88,-4.988,61.43,7.566,490.56,5.412,3170.58,-2.267,68.49,-12.414,431.76,-5.277,3377.51
156,CHD,6,569,0.76,0,67,0.88,-4.988,61.43,7.566,490.56,5.412,3170.58,-2.267,68.49,-12.414,431.76,-5.277,3377.51
157,CHD,6,569,0.76,0,67,0.88,-4.988,61.43,7.566,490.56,5.412,3170.58,-2.267,68.49,-12.414,431.76,-5.277,3377.51
158,CHD,6,569,0.76,0,67,0.88,-4.988,61.43,7.566,490.56,5.412,3170.58,-2.267,68.49,-12.414,431.76,-5.277,3377.51
159,CHD,6,569,0.76,0,67,0.88,-4.988,61.43,7.566,490.56,5.412,3170.58,-2.267,68.49,-12.414,431.76,-5.277,3377.51
160,CHD,6,569,0.76,0,67,0.88,-4.988,61.43,7.566,490.56,5.412,3170.58,-2.267,68.49,-12.414,431.76,-5.277,3377.51
161,CHD,6,569,0.76,0,67,0.88,-4.988,61.43,7.566,490.56,5.412,3170.58,-2.267,68.49,-12.414,431.76,-5.277,3377.51
162,CHD,6,569,0.76,0,67,0.88,-4.988,61.43,7.566,490.56,5.412,3170.58,-2.267,68.49,-12.414,431.76,-5.277,3377.51
163,CHD,6,569,0.76,0,67,0.88,-4.988,61.43,7.566,490.56,5.412,3170.58,-2.267,68.49,-12.414,431.76,-5.277,3377.51
164,CHD,6,569,0.76,0,67,0.88,-4.988,61.43,7.566,490.56,5.412,3170.58,-2.267,68.49,-12.414,431.76,-5.277,3377.51
165,CHD,6,569,0.76,0,67,0.88,-4.988,61.43,7.566,490.56,5.412,3170.58,-2.267,68.49,-12.414,431.76,-5.277,3377.51
166,CHD,6,569,0.76,0,67,0.88,-4.988,61.43,7.566,490.56,5.412,3170.58,-2.267,68.49,-12.414,431.76,-5.277,3377.51
167,CHD,6,569,0.76,0,67,0.88,-4.988,61.43,7.566,490.56,5.412,3170.58,-2.267,68.49,-12.414,431.76,-5.277,3377.51
168,CHD,6,569,0.76,0,67,0.88,-4.988,61.43,7.566,490.56,5.412,3170.58,-2.267,68.49,-12.414,431.76,-5.277,3377.51
169,CHD,6,569,0.76,0,67,0.88,-4.988,61.43,7.566,490.56,5.412,3170.58,-2.267,68.49,-12.414,431.76,-5.277,3377.51
170,CHD,6,569,0.76,0,67,0.88,-4.988,61.43,7.566,490.56,5.412,3170.58,-2.267,68.49,-12.414,431.76,-5.277,3377.51
171,CHD,6,569,0.76,0,67,0.88,-4.988,61.43,7.566,490.56,5.412,3170.58,-2.267,68.49,-12.414,431.76,-5.277,3377.51
172,CHD,6,569,0.76,0,67,0.88,-4.988,61.43,7.566,490.56,5.412,3170.58,-2.267,68.49,-12.414,431.76,-5.277,3377.51
173,CHD,6,569,0.76,0,67,0.88,-4.988,61.43,7.566,490.56,5.412,3170.58,-2.267,68.49,-12.414,431.76,-5.277,3377.51
174,CHD,6,569,0.76,0,67,0.88,-4.988,61.43,7.566,490.56,5.412,3170.58,-2.267,68.49,-12.414,431.76,-5.277,3377.51
175,CHD,6,569,0.76,0,67,0.88,-4.988,61.43,7.566,490.56,5.412,3170.58,-2.267,68.49,-12.414,431.76,-5.277,3377.51
176,CHD,6,569,0.76,0,67,0.88,-4.988,61.43,7.566,490.56,5.412,3170.58,-2.267,68.49,-12.414,431.76,-5.277,3377.51
177,CHD,6,569,0.76,0,67,0.88,-4.988,61.43,7.566,490.56,5.412,3170.58,-2.267,68.49,-12.414,431.76,-5.277,3377.51
178,CHD,6,569,0.76,0,67,0.88,-4.988,61.43,7.566,490.56,5.412,3170.58,-2.267,68.49,-12.414,431.76,-5.277,3377.51
179,CHD,6,569,0.76,0,67,0.88,-4.988,61.43,7.566,490.56,5.412,3170.58,-2.267,68.49,-12.414,431.76,-5.277,3377.51
180,CHD,6,569,0.76,0,67,0.88,-4.988,61.43,7.566,490.56,5.412,3170.58,-2.267,68.49,-12.414,431.76,-5.277,3377.51
181,CHD,6,569,0.76,0,67,0.88,-4.988,61.43,7.566,490.56,5.412,3170.58,-2.267,68.49,-12.414,431.76,-5.277,3377.51
182,CHD,6,569,0.76,0,67,0.88,-4.988,61.43,7.566,490.56,5.412,3170.58,-2.267,68.49,-12.414,431.76,-5.277,3377.51
183,CHD,6,569,0.76,0,67,0.88,-4.988,61.43,7.566,490.56,5.412,3170.58,-2.267,68.49,-12.414,431.76,-5.277,3377.51
184,CHD,6,569,0.76,0,67,0.88,-4.988,61.43,7.566,490.56,5.412,3170.58,-2.267,68.49,-12.414,431.76,-5.277,3377.51
185,CHD,6,569,0.76,0,67,0.88,-4.988,61.43,7.566,490.56,5.412,3170.58,-2.267,68.49,-12.414,431.76,-5.277,3377.51
186,CHD,6,569,0.76,0,67,0.88,-4.988,61.43,7.566,490.56,5.412,3170.58,-2.267,68.49,-12.414,431.76,-5.277,3377.51
187,CHD,6,569,0.76,0,67,0.88,-4.988,61.43,7.566,490.56,5.412,3170.58,-2.267,68.49,-12.414,431.76,-5.277,3377.51
188,CHD,6,569,0.76,0,67,0.88,-4.988,61.43,7.566,490.56,5.412,3170.58,-2.267,68.49,-12.414,431.76,-5.277,3377.51
189,CHD,6,569,0.76,0,67,0.88,-4.988,61.43,7.566,490.56,5.412,3170.58,-2.267,68.49,-12.414,431.76,-5.277,3377.51
190,CHD,6,569,0.76,0,67,0.88,-4.988,61.43,7.566,490.56,5.412,3170.58,-2.267,68.49,-12.414,431.76,-5.277,3377.51
191,CHD,6,569,0.76,0,67,0.88,-4.988,61.43,7.566,490.56,5.412,3170.58,-2.267,68.49,-12.414,431.76,-5.277,3377.51
192,CHD,6,569,0.76,0,67,0.88,-4.988,61.43,7.566,490.56,5.412,3170.58,-2.267,68.49,-12.414,431.76,-5.277,3377.51
193,CHD,6,569,0.76,0,67,0.88,-4.988,61.43,7.566,490.56,5.412,3170.58,-2.267,68.49,-12.414,431.76,-5.277,3377.51
194,CHD,6,569,0.76,0,67,0.88,-4.988,61.43,7.566,490.56,5.412,3170.58,-2.267,68.49,-12.414,431.76,-5.277,3377.51
195,CHD,6,569,0.76,0,67,0.88,-4.988,61.43,7.566,490.56,5.412,3170.58,-2.267,68.49,-12.414,431.76,-5.277,3377.51
196,CHD,6,569,0.76,0,67,0.88,-4.988,61.43,7.566,490.56,5.412,3170.58,-2.267,68.49,-12.414,431.76,-5.277,3377.51
197,CHD,6,569,0.76,0,67,0.88,-4.988,61.43,7.566,490.56,5.412,3170.58,-2.267,68.49,-12.414,431.76,-5.277,3377.51
198,CHD,6,569,0.76,0,67,0.88,-4.988,61.43,7.566,490.56,5.412,3170.58,-2.267,68.49,-12.414,431.76,-5.277,3377.51
199,CHD,6,569,0.76,0,67,0.88,-4.988,61.43,7.566,490.56,5.412,3170.58,-2.267,68.49,-12.414,431.76,-5.277,3377.51
200,CHD,6,569,0.76,0,67,0.88,-4.988,61.43,7.566,490.56,5.412,3170.58,-2.267,68.49,-12.414,431.76,-5.277,3377.51
201,CHD,6,569,0.76,0,67,0.88,-4.988,61.43,7.566,490.56,5.412,3170.58,-2.267,68.49,-12.414,431.76,-5.277,3377.51
202,CHD,6,569,0.76,0,67,0.88,-4.988,61.43,7.566,490.56,5.412,3170.58,-2.267,68.49,-12.414,431.76,-5.277,3377.51
203,CHD,6,569,0.76,0,67,0.88,-4.988,61.43,7.566,490.56,5.412,3170.58,-2.267,68.49,-12.414,431.76,-5.277,3377.51
204,CHD,6,569,0.76,0,67,0.88,-4.988,61.43,7.566,490.56,5.412,3170.58,-2.267,68.49,-12.414,431.76,-5.277,3377.51
205,CHD,6,569,0.76,0,67,0.88,-4.988,61.43,7.566,490.56,5.412,3170.58,-2.267,68.49,-12.414,431.76,-5.277,3377.51
206,CHD,6,569,0.76,0,67,0.88,-4.988,61.43,7.566,490.56,5.412,3170.58,-2.267,68.49,-12.414,431.76,-5.277,3377.51
207,CHD,6,569,0.76,0,67,0.88,-4.988,61.43,7.566,490.56,5.412,3170.58,-2.267,68.49,-12.414,431.76,-5.277,3377.51
208,CHD,6,569,0.76,0,67,0.88,-4.988,61.43,7.566,490.56,5.412,3170.58,-2.267,68.49,-12.414,431.76,-5.277,3377.51
209,CHD,6,569,0.76,0,67,0.88,-4.988,61.43,7.566,490.56,5.412,3170.58,-2.267,68.49,-12.414,431.76,-5.277,3377.51
210,CHD,6,569,0.76,0,67,0.88,-4.988,61.43,7.566,490.56,5.412,3170.58,-2.267,68.49,-12.414,431.76,-5.277,3377.51
211,CHD,6,569,0.76,0,67,0.88,-4.988,61.43,7.566,490.56,5.412,3170.58,-2.267,68.49,-12.414,431.76,-5.277,3377.51
212,CHD,6,569,0.76,0,67,0.88,-4.988,61.43,7.566,490.56,5.412,3170.58,-2.267,68.49,-12.414,431.76,-5.277,3377.51
213,CHD,6,569,0.76,0,67,0.88,-4.988,61.43,7.566,490.56,5.412,3170.58,-2.267,68.49,-12.414,431.76,-5.277,3377.51
214,CHD,6,569,0.76,0,67,0.88,-4.988,61.43,7.566,490.56,5.412,3170.58,-2.267,68.49,-12.414,431.76,-5.277,3377.51
215,CHD,6,569,0.76,0,67,0.88,-4.988,61.43,7.566,490.56,5.412,3170.58,-2.267,68.49,-12.414,431.76,-5.277,3377.51
216,CHD,6,569,0.76,0,67,0.88,-4.988,61.43,7.566,490.56,5.412,3170.58,-2.267,68.49,-12.414,431.76,-5.277,3377.51
217,CHD,6,569,0.76,0,67,0.88,-4.988,61.43,7.566,490.56,5.412,3170.58,-2.267,68.49,-12.414,431.76,-5.277,3377.51
218,CHD,6,569,0.76,0,67,0.88,-4.988,61.43,7.566,490.56,5.412,3170.58,-2.267,68.49,-12.414,431.76,-5.277,3377.51
219,CHD,6,569,0.76,0,67,0.88,-4.988,61.43,7.566,490.56,5.412,3170.58,-2.267,68.49,-12.414,431.76,-5.277,3377.51
220,CHD,6,569,0.76,0,67,0.88,-4.988,61.43,7.566,490.56,5.412,3170.58,-2.267,68.49,-12.414,431.76,-5.277,3377.51
221,CHD,6,569,0.76,0,67,0.88,-4.988,61.43,7.566,490.56,5.412,3170.58,-2.267,68.49,-12.414,431.76,-5.277,3377.51
222,CHD,6,569,0.76,0,67,0.88,-4.988,61.43,7.566,490.56,5.412,3170.58,-2.267,68.49,-12.414,431.76,-5.277,3377.51
223,CHD,6,569,0.76,0,67,0.88,-4.988,61.43,7.566,490.56,5.412,3170.58,-2.267,68.49,-12.414,431.76,-5.277,3377.51
224,CHD,6,569,0.76,0,67,0.88,-4.988,61.43,7.566,490.56,5.412,3170.58,-2.267,68.49,-12.414,431.76,-5.277,3377.51
225,CHD,6,569,0.76,0,67,0.88,-4.988,61.43,7.566,490.56,5.412,3170.58,-2.267,68.49,-12.414,431.76,-5.277,3377.51
226,CHD,6,569,0.76,0,67,0.88,-4.988,61.43,7.566,490.56,5.412,3170.58,-2.267,68.49,-12.414,431.76,-5.277,3377.51
227,CHD,6,569,0.76,0,67,0.88,-4.988,61.43,7.566,490.56,5.412,3170.58,-2.267,68.49,-12.414,431.76,-5.277,3377.51
228,CHD,6,569,0.76,0,67,0.88,-4.988,61.43,7.566,490.56,5.412,3170.58,-2.267,68.49,-12.414,431.76,-5.277,3377.51
229,CHD,6,569,0.76,0,67,0.88,-4.988,61.43,7.566,490.56,5.412,3170.58,-2.267,68.49,-12.414,431.76,-5.277,3377.51
230,CHD,6,569,0.76,0,67,0.88,-4.988,61.43,7.566,490.56,5.412,3170.58,-2.267,68.49,-12.414,431.76,-5.277,3377.51
231,CHD,6,569,0.76,0,67,0.88,-4.988,61.43,7.566,490.56,5.412,3170.58,-2.267,68.49,-12.414,431.76,-5.277,3377.51
232,CHD,6,569,0.76,0,67,0.88,-4.988,61.43,7.566,490.56,5.412,3170.58,-2.267,68.49,-12.414,431.76,-5.277,3377.51
233,CHD,6,569,0.76,0,67,0.88,-4.988,61.43,7.566,490.56,5.412,3170.58,-2.267,68.49,-12.414,431.76,-5.277,3377.51
234,CHD,6,569,0.76,0,67,0.88,-4.988,61.43,7.566,490.56,5.412,3170.58,-2.267,68.49,-12.414,431.76,-5.277,3377.51
235,CHD,6,569,0.76,0,67,0.88,-4.988,61.43,7.566,490.56,5.412,3170.58,-2.267,68.49,-12.414,431.76,-5.277,3377.51
236,CHD,6,569,0.76,0,67,0.88,-4.988,61.43,7.566,490.56,5.412,3170.58,-2.267,68.49,-12.414,431.76,-5.277,3377.51
237,CHD,6,569,0.76,0,67,0.88,-4.988,61.43,7.566,490.56,5.412,3170.58,-2.267,68.49,-12.414,431.76,-5.277,3377.51
238,CHD,6,569,0.76,0,67,0.88,-4.988,61.43,7.566,490.56,5.412,3170.58,-2.267,68.49,-12.414,431.76,-5.277,3377.51
239,CHD,6,569,0.76,0,67,0.88,-4.988,61.43,7.566,490.56,5.412,3170.58,-2.267,68.49,-12.414,431.76,-5.277,3377.51
240,CHD,6,569,0.76,0,67,0.88,-4.988,61.43,7.566,490.56,5.412,3170.58,-2.267,68.49,-12.414,431.76,-5.277,3377.51
241,CHD,6,569,0.76,0,67,0.88,-4.988,61.43,7.566,490.56,5.412,3170.58,-2.267,68.49,-12.414,431.76,-5.277,3377.51
242,CHD,6,569,0.76,0,67,0.88,-4.988,61.43,7.566,490.56,5.412,3170.58,-2.267,68.49,-12.414,431.76,-5.277,3377.51
243,CHD,6,569,0.76,0,67,0.88,-4.988,61.43,7.566,490.56,5.412,3170.58,-2.267,68.49,-12.414,431.76,-5.277,3377.51
244,CHD,6,569,0.76,0,67,0.88,-4.988,61.43,7.566,490.56,5.412,3170.58,-2.267,68.49,-12.414,431.76,-5.277,3377.51
245,CHD,6,569,0.76,0,67,0.88,-4.988,61.43,7.566,490.56,5.412,3170.58,-2.267,68.49,-12.414,431.76,-5.277,3377.51
246,CHD,6,569,0.76,0,67,0.88,-4.988,61.43,7.566,490.56,5.412,3170.58,-2.267,68.49,-12.414,431.76,-5.277,3377.51
247,CHD,6,569,0.76,0,67,0.88,-4.988,61.43,7.566,490.56,5.412,3170.58,-2.267,68.49,-12.414,431.76,-5.277,3377.51
248,CHD,6,569,0.76,0,67,0.88,-4.988,61.43,7.566,490.56,5.412,3170.58,-2.267,68.49,-12.414,431.76,-5.277,3377.51
249,CHD,6,569,0.76,0,67,0.88,-4.988,61.43,7.566,490.56,5.412,3170.58,-2.267,68.49,-12.414,431.76,-5.277,3377.51
250,CHD,6,569,0.76,0,67,0.88,-4.988,61.43,7.566,490.56,5.412,3170.58,-2.267,68.49,-12.414,431.76,-5.277,3377.51
251,CHD,6,569,0.76,0,67,0.88,-4.988,61.43,7.566,490.56,5.412,3170.58,-2.267,68.49,-12.414,431.76,-5.277,3377.51
252,CHD,6,569,0.76,0,67,0.88,-4.988,61.43,7.566,490.56,5.412,3170.58,-2.267,68.49,-12.414,431.76,-5.277,3377.51
253,CHD,6,569,0.76,0,67,0.88,-4.988,61.43,7.566,490.56,5.412,3170.58,-2.267,68.49,-12.414,431.76,-5.277,3377.51
254,CHD,6,569,0.76,0,67,0.88,-4.988,61.43,7.566,490.56,5.412,3170.58,-2.267,68.49,-12.414,431.76,-5.277,3377.51
255,CHD,6,569,0.76,0,67,0.88,-4.988,61.43,7.566,490.56,5.412,3170.58,-2.267,68.49,-12.414,431.76,-5.277,3377.51
256,CHD,6,569,0.76,0,67,0.88,-4.988,61.43,7.566,490.56,5.412,3170.58,-2.267,68.49,-12.414,431.76,-5.277,3377.51
257,CHD,6,569,0.76,0,67,0.88,-4.988,61.43,7.566,490.56,5.412,3170.58,-2.267,68.49,-12.414,431.76,-5.277,3377.51
258,CHD,6,569,0.76,0,67,0.88,-4.988,61.43,7.566,490.56,5.412,3170.58,-2.267,68.49,-12.414,431.76,-5.277,3377.51
259,CHD,6,569,0.76,0,67,0.88,-4.988,61.43,7.566,490.56,5.412,3170.58,-2.267,68.49,-12.414,431.76,-5.277,3377.51
260,CHD,6,569,0.76,0,67,0.88,-4.988,61.43,7.566,490.56,5.412,3170.58,-2.267,68.49,-12.414,431.76,-5.277,3377.51
261,CHD,6,569,0.76,0,67,0.88,-4.988,61.43,7.566,490.56,5.412,3170.58,-2.267,68.49,-12.414,431.76,-5.277,3377.51
262,CHD,6,569,0.76,0,67,0.88,-4.988,61.43,7.566,490.56,5.412,3170.58,-2.267,68.49,-12.414,431.76,-5.277,3377.51
263,CHD,6,569,0.76,0,67,0.88,-4.988,61.43,7.566,490.56,5.412,3170.58,-2.267,68.49,-12.414,431.76,-5.277,3377.51
264,CHD,6,569,0.76,0,67,0.88,-4.988,61.43,7.566,490.56,5.412,3170.58,-2.267,68.49,-12.414,431.76,-5.277,3377.51
265,CHD,6,569,0.76,0,67,0.88,-4.988,61.43,7.566,490.56,5.412,3170.58,-2.267,68.49,-12.414,431.76,-5.277,3377.51
266,CHD,6,569,0.76,0,67,0.88,-4.988,61.43,7.566,490.56,5.412,3170.58,-2.267,68.49,-12.414,431.76,-5.277,3377.51
267,CHD,6,569,0.76,0,67,0.88,-4.988,61.43,7.566,490.56,5.412,3170.58,-2.267,68.49,-12.414,431.76,-5.277,3377.51
268,CHD,6,569,0.76,0,67,0.88,-4.988,61.43,7.566,490.56,5.412,3170.58,-2.267,68.49,-12.414,431.76,-5.277,3377.51
269,CHD,6,569,0.76,0,67,0.88,-4.988,61.43,7.566,490.56,5.412,3170.58,-2.267,68.49,-12.414,431.76,-5.277,3377.51
270,CHD,6,569,0.76,0,67,0.88,-4.988,61.43,7.566,490.56,5.412,3170.58,-2.267,68.49,-12.414,431.76,-5.277,3377.51
271,CHD,6,569,0.76,0,67,0.88,-4.988,61.43,7.566,490.56,5.412,3170.58,-2.267,68.49,-12.414,431.76,-5.277,3377.51
272,CHD,6,569,0.76,0,67,0.88,-4.988,61.43,7.566,490.56,5.412,3170.58,-2.267,68.49,-12.414,431.76,-5.277,3377.51
273,CHD,6,569,0.76,0,67,0.88,-4.988,61.43,7.566,490.56,5.412,3170.58,-2.267,68.49,-12.414,431.76,-5.277,3377.51
274,CHD,6,569,0.76,0,67,0.88,-4.988,61.43,7.566,490.56,5.412,3170.58,-2.267,68.49,-12.414,431.76,-5.277,3377.51
275,CHD,6,569,0.76,0,67,0.88,-4.988,61.43,7.566,490.56,5.412,3170.58,-2.267,68.49,-12.414,431.76,-5.277,3377.51
276,CHD,6,569,0.76,0,67,0.88,-4.988,61.43,7.566,490.56,5.412,3170.58,-2.267,68.49,-12.414,431.76,-5.277,3377.51
277,CHD,6,569,0.76,0,67,0.88,-4.988,61.43,7.566,490.56,5.412,3170.58,-2.267,68.49,-12.414,431.76,-5.277,3377.51
278,CHD,6,569,0.76,0,67,0.88,-4.988,61.43,7.566,490.56,5.412,3170.58,-2.267,68.49,-12.414,431.76,-5.277,3377.51
279,CHD,6,569,0.76,0,67,0.88,-4.988,61.43,7.566,490.56,5.412,3170.58,-2.267,68.49,-12.414,431.76,-5.277,3377.51
280,CHD,6,569,0.76,0,67,0.88,-4.988,61.43,7.566,490.56,5.412,3170.58,-2.267,68.49,-12.414,431.76,-5.277,3377.51
281,CHD,6,569,0.76,0,67,0.88,-4.988,61.43,7.566,490.56,5.412,3170.58,-2.267,68.49,-12.414,431.76,-5.277,3377.51
282,CHD,6,569,0.76,0,67,0.88,-4.988,61.43,7.566,490.56,5.412,3170.58,-2.267,68.49,-12.414,431.76,-5.277,3377.51
283,CHD,6,569,0.76,0,67,0.88,-4.988,61.43,7.566,490.56,5.412,3170.58,-2.267,68.49,-12.414,431.76,-5.277,3377.51
284,CHD,6,569,0.76,0,67,0.88,-4.988,61.43,7.566,490.56,5.412,3170.58,-2.267,68.49,-12.414,431.76,-5.277,3377.51
285,CHD,6,569,0.76,0,67,0.88,-4.988,61.43,7.566,490.56,5.412,3170.58,-2.267,68.49,-12.414,431.76,-5.277,3377.51
286,CHD,6,569,0.76,0,67,0.88,-4.988,61.43,7.566,490.56,5.412,3170.58,-2.267,68.49,-12.414,431.76,-5.277,3377.51
287,CHD,6,569,0.76,0,67,0.88,-4.988,61.43,7.566,490.56,5.412,3170.58,-2.267,68.49,-12.414,431.76,-5.277,3377.51
288,CHD,6,569,0.76,0,67,0.88,-4.988,61.43,7.566,490.56,5.412,3170.58,-2.267,68.49,-12.414,431.76,-5.277,3377.51
289,CHD,6,569,0.76,0,67,0.88,-4.988,61.43,7.566,490.56,5.412,3170.58,-2.267,68.49,-12.414,431.76,-5.277,3377.51
290,CHD,6,569,0.76,0,67,0.88,-4.988,61.43,7.566,490.56,5.412,3170.58,-2.267,68.49,-12.414,431.76,-5.277,3377.51
291,CHD,6,569,0.76,0,67,0.88,-4.988,61.43,7.566,490.56,5.412,3170.58,-2.267,68.49,-12.414,431.76,-5.277,3377.51
292,CHD,6,569,0.76,0,67,0.88,-4.988,61.43,7.566,490.56,5.412,3170.58,-2.267,68.49,-12.414,431.76,-5.277,3377.51
293,CHD,6,569,0.76,0,67,0.88,-4.988,61.43,7.566,490.56,5.412,3170.58,-2.267,68.49,-12.414,431.76,-5.277,3377.51
294,CHD,6,569,0.76,0,67,0.88,-4.988,61.43,7.566,490.56,5.412,3170.58,-2.267,68.49,-12.414,431.76,-5.277,3377.51
295,CHD,6,569,0.76,0,67,0.88,-4.988,61.43,7.566,490.56,5.412,3170.58,-2.267,68.49,-12.414,431.76,-5.277,3377.51
296,CHD,6,569,0.76,0,67,0.88,-4.988,61.43,7.566,490.56,5.412,3170.58,-2.267,68.49,-12.414,431.76,-5.277,3377.51
297,CHD,6,569,0.76,0,67,0.88,-4.988,61.43,7.566,490.56,5.412,3170.58,-2.267,68.49,-12.414,431.76,-5.277,3377.51
298,CHD,6,569,0.76,0,67,0.88,-4.988,61.43,7.566,490.56,5.412,3170.58,-2.267,68.49,-12.414,431.76,-5.277,3377.51
299,CHD,6,569,0.76,0,67,0.88,-4.988,61.43,7.566,490.56,5.412,3170.58,-2.267,68.49,-12.414,431.76,-5.277,3377.51
300,CHD,6,569,0.76,0,67,0.88,-4.988,61.43,7.566,490.56,5.412,3170.58,-2.267,68.49,-12.414,431.76,-5.277,3377.51
301,CHD,6,569,0.76,0,67,0.88,-4.988,61.43,7.566,490.56,5.412,3170.58,-2.267,68.49,-12.414,431.76,-5.277,3377.51
302,CHD,6,569,0.76,0,67,0.88,-4.988,61.43,7.566,490.56,5.412,3170.58,-2.267,68.49,-12.414,431.76,-5.277,3377.51
303,CHD,6,569,0.76,0,67,0.88,-4.988,61.43,7.566,490.56,5.412,3170.58,-2.267,68.49,-12.414,431.76,-5.277,3377.51
304,CHD,6,569,0.76,0,67,0.88,-4.988,61.43,7.566,490.56,5.412,3170.58,-2.267,68.49,-12.414,431.76,-5.277,3377.51
305,CHD,6,569,0.76,0,67,0.88,-4.988,61.43,7.566,490.56,5.412,3170.58,-2.267,68.49,-12.414,431.76,-5.277,3377.51
306,CHD,6,569,0.76,0,67,0.88,-4.988,61.43,7.566,490.56,5.412,3170.58,-2.267,68.49,-12.414,431.76,-5.277,3377.51
307,CHD,6,569,0.76,0,67,0.88,-4.988,61.43,7.566,490.56,5.412,3170.58,-2.267,68.49,-12.414,431.76,-5.277,3377.51
308,CHD,6,569,0.76,0,67,0.88,-4.988,61.43,7.566,490.56,5.412,3170.58,-2.267,68.49,-12.414,431.76,-5.277,3377.51
309,CHD,6,569,0.76,0,67,0.88,-4.988,61.43,7.566,490.56,5.412,3170.58,-2.267,68.49,-12.414,431.76,-5.277,3377.51
310,CHD,6,569,0.76,0,67,0.88,-4.988,61.43,7.566,490.56,5.412,3170.58,-2.267,68.49,-12.414,431.76,-5.277,3377.51
311,CHD,6,569,0.76,0,67,0.88,-4.988,61.43,7.566,490.56,5.412,3170.58,-2.267,68.49,-12.414,431.76,-5.277,3377.51
312,CHD,6,569,0.76,0,67,0.88,-4.988,61.43,7.566,490.56,5.412,3170.58,-2.267,68.49,-12.414,431.76,-5.277,3377.51
313,CHD,6,569,0.76,0,67,0.88,-4.988,61.43,7.566,490.56,5.412,3170.58,-2.267,68.49,-12.414,431.76,-5.277,3377.51
314,CHD,6,569,0.76,0,67,0.88,-4.988,61.43,7.566,490.56,5.412,3170.58,-2.267,68.49,-12.414,431.76,-5.277,3377.51
315,CHD,6,569,0.76,0,67,0.88,-4.988,61.43,7.566,490.56,5.412,3170.58,-2.267,68.49,-12.414,431.76,-5.277,3377.51
316,CHD,6,569,0.76,0,67,0.88,-4.988,61.43,7.566,490.56,5.412,3170.58,-2.267,68.49,-12.414,431.76,-5.277,3377.51
317,CHD,6,569,0.76,0,67,0.88,-4.988,61.43,7.566,490.56,5.412,3170.58,-2.267,68.49,-12.414,431.76,-5.277,3377.51
318,CHD,6,569,0.76,0,67,0.88,-4.988,61.43,7.566,490.56,5.412,3170.58,-2.267,68.49,-12.414,431.76,-5.277,3377.51
319,CHD,6,569,0.76,0,67,0.88,-4.988,61.43,7.566,490.56,5.412,3170.58,-2.267,68.49,-12.414,431.76,-5.277,3377.51
320,CHD,6,569,0.76,0,67,0.88,-4.988,61.43,7.566,490.56,5.412,3170.58,-2.267,68.49,-12.414,431.76,-5.277,3377.51
321,CHD,6,569,0.76,0,67,0.88,-4.988,61.43,7.566,490.56,5.412,3170.58,-2.267,68.49,-12.414,431.76,-5.277,3377.51
322,CHD,6,569,0.76,0,67,0.88,-4.988,61.43,7.566,490.56,5.412,3170.58,-2.267,68.49,-12.414,431.76,-5.277,3377.51
323,CHD,6,569,0.76,0,67,0.88,-4.988,61.43,7.566,490.56,5.412,3170.58,-2.267,68.49,-12.414,431.76,-5.277,3377.51
324,CHD,6,569,0.76,0,67,0.88,-4.988,61.43,7.566,490.56,5.412,3170.58,-2.267,68.49,-12.414,431.76,-5.277,3377.51
325,CHD,6,569,0.76,0,67,0.88,-4.988,61.43,7.566,490.56,5.412,3170.58,-2.267,68.49,-12.414,431.76,-5.277,3377.51
326,CHD,6,569,0.76,0,67,0.88,-4.988,61.43,7.566,490.56,5.412,3170.58,-2.267,68.49,-12.414,431.76,-5.277,3377.51
327,CHD,6,569,0.76,0,67,0.88,-4.988,61.43,7.566,490.56,5.412,3170.58,-2.267,68.49,-12.414,431.76,-5.277,3377.51
328,CHD,6,569,0.76,0,67,0.88,-4.988,61.43,7.566,490.56,5.412,3170.58,-2.267,68.49,-12.414,431.76,-5.277,3377.51
329,CHD,6,569,0.76,0,67,0.88,-4.988,61.43,7.566,490.56,5.412,3170.58,-2.267,68.49,-12.414,431.76,-5.277,3377.51
330,CHD,6,569,0.76,0,67,0.88,-4.988,61.43,7.566,490.56,5.412,3170.58,-2.267,68.49,-12.414,431.76,-5.277,3377.51
331,CHD,6,569,0.76,0,67,0.88,-4.988,61.43,7.566,490.56,5.412,3170.58,-2.267,68.49,-12.414,431.76,-5.277,3377.51
332,CHD,6,569,0.76,0,67,0.88,-4.988,61.43,7.566,490.56,5.412,3170.58,-2.267,68.49,-12.414,431.76,-5.277,3377.51
333,CHD,6,569,0.76,0,67,0.88,-4.988,61.43,7.566,490.56,5.412,3170.58,-2.267,68.49,-12.414,431.76,-5.277,3377.51
334,CHD,6,569,0.76,0,67,0.88,-4.988,61.43,7.566,490.56,5.412,3170.58,-2.267,68.49,-12.414,431.76,-5.277,3377.51
335,CHD,6,569,0.76,0,67,0.88,-4.988,61.43,7.566,490.56,5.412,3170.58,-2.267,68.49,-12.414,431.76,-5.277,3377.51
336,CHD,6,569,0.76,0,67,0.88,-4.988,61.43,7.566,490.56,5.412,3170.58,-2.267,68.49,-12.414,431.76,-5.277,3377.51
337,CHD,6,569,0.76,0,67,0.88,-4.988,61.43,7.566,490.56,5.412,3170.58,-2.267,68.49,-12.414,431.76,-5.277,3377.51
338,CHD,6,569,0.76,0,67,0.88,-4.988,61.43,7.566,490.56,5.412,3170.58,-2.267,68.49,-12.414,431.76,-5.277,3377.51
339,CHD,6,569,0.76,0,67,0.88,-4.988,61.43,7.566,490.56,5.412,3170.58,-2.267,68.49,-12.414,431.76,-5.277,3377.51
340,CHD,6,569,0.76,0,67,0.88,-4.988,61.43,7.566,490.56,5.412,3170.58,-2.267,68.49,-12.414,431.76,-5.277,3377.51
341,CHD,6,569,0.76,0,67,0.88,-4.988,61.43,7.566,490.56,5.412,3170.58,-2.267,68.49,-12.414,431.76,-5.277,3377.51
342,CHD,6,569,0.76,0,67,0.88,-4.988,61.43,7.566,490.56,5.412,3170.58,-2.267,68.49,-12.414,431.76,-5.277,3377.51
343,CHD,6,569,0.76,0,67,0.88,-4.988,61.43,7.566,490.56,5.412,3170.58,-2.267,68.49,-12.414,431.76,-5.277,3377.51
344,CHD,6,569,0.76,0,67,0.88,-4.988,61.43,7.566,490.56,5.412,3170.58,-2.267,68.49,-12.414,431.76,-5.277,3377.51
345,CHD,6,569,0.76,0,67,0.88,-4.988,61.43,7.566,490.56,5.412,3170.58,-2.267,68.49,-12.414,431.76,-5.277,3377.51
346,CHD,6,569,0.76,0,67,0.88,-4.988,61.43,7.566,490.56,5.412,3170.58,-2.267,68.49,-12.414,431.76,-5.277,3377.51
347,CHD,6,569,0.76,0,67,0.88,-4.988,61.43,7.566,490.56,5.412,3170.58,-2.267,68.49,-12.414,431.76,-5.277,3377.51
348,CHD,6,569,0.76,0,67,0.88,-4.988,61.43,7.566,490.56,5.412,3170.58,-2.267,68.49,-12.414,431.76,-5.277,3377.51
349,CHD,6,569,0.76,0,67,0.88,-4.988,61.43,7.566,490.56,5.412,3170.58,-2.267,68.49,-12.414,431.76,-5.277,3377.51
350,CHD,6,569,0.76,0,67,0.88,-4.988,61.43,7.566,490.56,5.412,3170.58,-2.267,68.49,-12.414,431.76,-5.277,3377.51
351,CHD,6,569,0.76,0,67,0.88,-4.988,61.43,7.566,490.56,5.412,3170.58,-2.267,68.49,-12.414,431.76,-5.277,3377.51
352,CHD,6,569,0.76,0,67,0.88,-4.988,61.43,7.566,490.56,5.412,3170.58,-2.267,68.49,-12.414,431.76,-5.277,3377.51
353,CHD,6,569,0.76,0,67,0.88,-4.988,61.43,7.566,490.56,5.412,3170.58,-2.267,68.49,-12.414,431.76,-5.277,3377.51
354,CHD,6,569,0.76,0,67,0.88,-4.988,61.43,7.566,490.56,5.412,3170.58,-2.267,68.49,-12.414,431.76,-5.277,3377.51
355,CHD,6,569,0.76,0,67,0.88,-4.988,61.43,7.566,490.56,5.412,3170.58,-2.267,68.49,-12.414,431.76,-5.277,3377.51
356,CHD,6,569,0.76,0,67,0.88,-4.988,61.43,7.566,490.56,5.412,3170.58,-2.267,68.49,-12.414,431.76,-5.277,3377.51
357,CHD,6,569,0.76,0,67,0.88,-4.988,61.43,7.566,490.56,5.412,3170.58,-2.267,68.49,-12.414,431.76,-5.277,3377.51
358,CHD,6,569,0.76,0,67,0.88,-4.988,61.43,7.566,490.56,5.412,3170.58,-2.267,68.49,-12.414,431.76,-5.277,3377.51
359,CHD,6,569,0.76,0,67,0.88,-4.988,61.43,7.566,490.56,5.412,3170.58,-2.267,68.49,-12.414,431.76,-5.277,3377.51
360,CHD,6,569,0.76,0,67,0.88,-4.988,61.43,7.566,490.56,5.412,3170.58,-2.267,68.49,-12.414,431.76,-5.277,3377.51
361,CHD,6,569,0.76,0,67,0.88,-4.988,61.43,7.566,490.56,5.412,3170.58,-2.267,68.49,-12.414,431.76,-5.277,3377.51
362,CHD,6,569,0.76,0,67,0.88,-4.988,61.43,7.566,490.56,5.412,3170.58,-2.267,68.49,-12.414,431.76,-5.277,3377.51
363,CHD,6,569,0.76,0,67,0.88,-4.988,61.43,7.566,490.56,5.412,3170.58,-2.267,68.49,-12.414,431.76,-5.277,3377.51
364,CHD,6,569,0.76,0,67,0.88,-4.988,61.43,7.566,490.56,5.412,3170.58,-2.267,68.49,-12.414,431.76,-5.277,3377.51
365,CHD,6,569,0.76,0,67,0.88,-4.988,61.43,7.566,490.56,5.412,3170.58,-2.267,68.49,-12.414,431.76,-5.277,3377.51
366,CHD,6,569,0.76,0,67,0.88,-4.988,61.43,7.566,490.56,5.412,3170.58,-2.267,68.49,-12.414,431.76,-5.277,3377.51
367,CHD,6,569,0.76,0,67,0.88,-4.988,61.43,7.566,490.56,5.412,3170.58,-2.267,68.49,-12.414,431.76,-5.277,3377.51
368,CHD,6,569,0.76,0,67,0.88,-4.988,61.43,7.566,490.56,5.412,3170.58,-2.267,68.49,-12.414,431.76,-5.277,3377.51
369,CHD,6,569,0.76,0,67,0.88,-4.988,61.43,7.566,490.56,5.412,3170.58,-2.267,68.49,-12.414,431.76,-5.277,3377.51
370,CHD,6,569,0.76,0,67,0.88,-4.988,61.43,7.566,490.56,5.412,3170.58,-2.267,68.49,-12.414,431.76,-5.277,3377.51
371,CHD,6,569,0.76,0,67,0.88,-4.988,61.43,7.566,490.56,5.412,3170.58,-2.267,68.49,-12.414,431.76,-5.277,3377.51
372,CHD,6,569,0.76,0,67,0.88,-4.988,61.43,7.566,490.56,5.412,3170.58,-2.267,68.49,-12.414,431.76,-5.277,3377.51
373,CHD,6,569,0.76,0,67,0.88,-4.988,61.43,7.566,490.56,5.412,3170.58,-2.267,68.49,-12.414,431.76,-5.277,3377.51
374,CHD,6,569,0.76,0,67,0.88,-4.988,61.43,7.566,490.56,5.412,3170.58,-2.267,68.49,-12.414,431.76,-5.277,3377.51
375,CHD,6,569,0.76,0,67,0.88,-4.988,61.43,7.566,490.56,5.412,3170.58,-2.267,68.49,-12.414,431.76,-5.277,3377.51
376,CHD,6,569,0.76,0,67,0.88,-4.988,61.43,7.566,490.56,5.412,3170.58,-2.267,68.49,-12.414,431.76,-5.277,3377.51
377,CHD,6,569,0.76,0,67,0.88,-4.988,61.43,7.566,490.56,5.412,3170.58,-2.267,68.49,-12.414,431.76,-5.277,3377.51
378,CHD,6,569,0.76,0,67,0.88,-4.988,61.43,7.566,490.56,5.412,3170.58,-2.267,68.49,-12.414,431.76,-5.277,3377.51
379,CHD,6,569,0.76,0,67,0.88,-4.988,61.43,7.566,490.56,5.412,3170.58,-2.267,68.49,-12.414,431.76,-5.277,3377.51
380,CHD,6,569,0.76,0,67,0.88,-4.988,61.43,7.566,490.56,5.412,3170.58,-2.267,68.49,-12.414,431.76,-5.277,3377.51
381,CHD,6,569,0.76,0,67,0.88,-4.988,61.43,7.566,490.56,5.412,3170.58,-2.267,68.49,-12.414,431.76,-5.277,3377.51
382,CHD,6,569,0.76,0,67,0.88,-4.988,61.43,7.566,490.56,5.412,3170.58,-2.267,68.49,-12.414,431.76,-5.277,3377.51
383,CHD,6,569,0.76,0,67,0.88,-4.988,61.43,7.566,490.56,5.412,3170.58,-2.267,68.49,-12.414,431.76,-5.277,3377.51
384,CHD,6,569,0.76,0,67,0.88,-4.988,61.43,7.566,490.56,5.412,3170.58,-2.267,68.49,-12.414,431.76,-5.277,3377.51
385,CHD,6,569,0.76,0,67,0.88,-4.988,61.43,7.566,490.56,5.412,3170.58,-2.267,68.49,-12.414,431.76,-5.277,3377.51
386,CHD,6,569,0.76,0,67,0.88,-4.988,61.43,7.566,490.56,5.412,3170.58,-2.267,68.49,-12.414,431.76,-5.277,3377.51
387,CHD,6,569,0.76,0,67,0.88,-4.988,61.43,7.566,490.56,5.412,3170.58,-2.267,68.49,-12.414,431.76,-5.277,3377.51
388,CHD,6,569,0.76,0,67,0.88,-4.988,61.43,7.566,490.56,5.412,3170.58,-2.267,68.49,-12.414,431.76,-5.277,3377.51
389,CHD,6,569,0.76,0,67,0.88,-4.988,61.43,7.566,490.56,5.412,3170.58,-2.267,68.49,-12.414,431.76,-5.277,3377.51
390,CHD,6,569,0.76,0,67,0.88,-4.988,61.43,7.566,490.56,5.412,3170.58,-2.267,68.49,-12.414,431.76,-5.277,3377.51
391,CHD,6,569,0.76,0,67,0.88,-4.988,61.43,7.566,490.56,5.412,3170.58,-2.267,68.49,-12.414,431.76,-5.277,3377.51
392,CHD,6,569,0.76,0,67,0.88,-4.988,61.43,7.566,490.56,5.412,3170.58,-2.267,68.49,-12.414,431.76,-5.277,3377.51
393,CHD,6,569,0.76,0,67,0.88,-4.988,61.43,7.566,490.56,5.412,3170.58,-2.267,68.49,-12.414,431.76,-5.277,3377.51
394,CHD,6,569,0.76,0,67,0.88,-4.988,61.43,7.566,490.56,5.412,3170.58,-2.267,68.49,-12.414,431.76,-5.277,3377.51
395,CHD,6,569,0.76,0,67,0.88,-4.988,61.43,7.566,490.56,5.412,3170.58,-2.267,68.49,-12.414,431.76,-5.277,3377.51
396,CHD,6,569,0.76,0,67,0.88,-4.988,61.43,7.566,490.56,5.412,3170.58,-2.267,68.49,-12.414,431.76,-5.277,3377.51
397,CHD,6,569,0.76,0,67,0.88,-4.988,61.43,7.566,490.56,5.412,3170.58,-2.267,68.49,-12.414,431.76,-5.277,3377.51
398,CHD,6,569,0.76,0,67,0.88,-4.988,61.43,7.566,490.56,5.412,3170.58,-2.267,68.49,-12.414,431.76,-5.277,3377.51
399,CHD,6,569,0.76,0,67,0.88,-4.988,61.43,7.566,490.56,5.412,3170.58,-2.267,68.49,-12.414,431.76,-5.277,3377.51
400,CHD,6,569,0.76,0,67,0.88,-4.988,61.43,7.566,490.56,5.412,3170.58,-2.267,68.49,-12.414,431.76,-5.277,3377.51
401,CHD,6,569,0.76,0,67,0.88,-4.988,61.43,7.566,490.56,5.412,3170.58,-2.267,68.49,-12.414,431.76,-5.277,3377.51
402,CHD,6,569,0.76,0,67,0.88,-4.988,61.43,7.566,490.56,5.412,3170.58,-2.267,68.49,-12.414,431.76,-5.277,3377.51
403,CHD,6,569,0.76,0,67,0.88,-4.988,61.43,7.566,490.56,5.412,3170.58,-2.267,68.49,-12.414,431.76,-5.277,3377.51
404,CHD,6,569,0.76,0,67,0.88,-4.988,61.43,7.566,490.56,5.412,3170.58,-2.267,68.49,-12.414,431.76,-5.277,3377.51
405,CHD,6,569,0.76,0,67,0.88,-4.988,61.43,7.566,490.56,5.412,3170.58,-2.267,68.49,-12.414,431.76,-5.277,3377.51
406,CHD,6,569,0.76,0,67,0.88,-4.988,61.43,7.566,490.56,5.412,3170.58,-2.267,68.49,-12.414,431.76,-5.277,3377.51
407,CHD,6,569,0.76,0,67,0.88,-4.988,61.43,7.566,490.56,5.412,3170.58,-2.267,68.49,-12.414,431.76,-5.277,3377.51
408,CHD,6,569,0.76,0,67,0.88,-4.988,61.43,7.566,490.56,5.412,3170.58,-2.267,68.49,-12.414,431.76,-5.277,3377.51
409,CHD,6,569,0.76,0,67,0.88,-4.988,61.43,7.566,490.56,5.412,3170.58,-2.267,68.49,-12.414,431.76,-5.277,3377.51
410,CHD,6,569,0.76,0,67,0.88,-4.988,61.43,7.566,490.56,5.412,3170.58,-2.267,68.49,-12.414,431.76,-5.277,3377.51
411,CHD,6,569,0.76,0,67,0.88,-4.988,61.43,7.566,490.56,5.412,3170.58,-2.267,68.49,-12.414,431.76,-5.277,3377.51
412,CHD,6,569,0.76,0,67,0.88,-4.988,61.43,7.566,490.56,5.412,3170.58,-2.267,68.49,-12.414,431.76,-5.277,3377.51
413,CHD,6,569,0.76,0,67,0.88,-4.988,61.43,7.566,490.56,5.412,3170.58,-2.267,68.49,-12.414,431.76,-5.277,3377.51
414,CHD,6,569,0.76,0,67,0.88,-4.988,61.43,7.566,490.56,5.412,3170.58,-2.267,68.49,-12.414,431.76,-5.277,3377.51
415,CHD,6,569,0.76,0,67,0.88,-4.988,61.43,7.566,490.56,5.412,3170.58,-2.267,68.49,-12.414,431.76,-5.277,3377.51
416,CHD,6,569,0.76,0,67,0.88,-4.988,61.43,7.566,490.56,5.412,3170.58,-2.267,68.49,-12.414,431.76,-5.277,3377.51
417,CHD,6,569,0.76,0,67,0.88,-4.988,61.43,7.566,490.56,5.412,3170.58,-2.267,68.49,-12.414,431.76,-5.277,3377.51
418,CHD,6,569,0.76,0,67,0.88,-4.988,61.43,7.566,490.56,5.412,3170.58,-2.267,68.49,-12.414,431.76,-5.277,3377.51
419,CHD,6,569,0.76,0,67,0.88,-4.988,61.43,7.566,490.56,5.412,3170.58,-2.267,68.49,-12.414,431.76,-5.277,3377.51
420,CHD,6,569,0.76,0,67,0.88,-4.988,61.43,7.566,490.56,5.412,3170.58,-2.267,68.49,-12.414,431.76,-5.277,3377.51
421,CHD,6,569,0.76,0,67,0.88,-4.988,61.43,7.566,490.56,5.412,3170.58,-2.267,68.49,-12.414,431.76,-5.277,3377.51
422,CHD,6,569,0.76,0,67,0.88,-4.988,61.43,7.566,490.56,5.412,3170.58,-2.267,68.49,-12.414,431.76,-5.277,3377.51
423,CHD,6,569,0.76,0,67,0.88,-4.988,61.43,7.566,490.56,5.412,3170.58,-2.267,68.49,-12.414,431.76,-5.277,3377.51
424,CHD,6,569,0.76,0,67,0.88,-4.988,61.43,7.566,490.56,5.412,3170.58,-2.267,68.49,-12.414,431.76,-5.277,3377.51
425,CHD,6,569,0.76,0,67,0.88,-4.988,61.43,7.566,490.56,5.412,3170.58,-2.267,68.49,-12.414,431.76,-5.277,3377.51
426,CHD,6,569,0.76,0,67,0.88,-4.988,61.43,7.566,490.56,5.412,3170.58,-2.267,68.49,-12.414,431.76,-5.277,3377.51
427,CHD,6,569,0.76,0,67,0.88,-4.988,61.43,7.566,490.56,5.412,3170.58,-2.267,68.49,-12.414,431.76,-5.277,3377.51
428,CHD,6,569,0.76,0,67,0.88,-4.988,61.43,7.566,490.56,5.412,3170.58,-2.267,68.49,-12.414,431.76,-5.277,3377.51
429,CHD,6,569,0.76,0,67,0.88,-4.988,61.43,7.566,490.56,5.412,3170.58,-2.267,68.49,-12.414,431.76,-5.277,3377.51
430,CHD,6,569,0.76,0,67,0.88,-4.988,61.43,7.566,490.56,5.412,3170.58,-2.267,68.49,-12.414,431.76,-5.277,3377.51
431,CHD,6,569,0.76,0,67,0.88,-4.988,61.43,7.566,490.56,5.412,3170.58,-2.267,68.49,-12.414,431.76,-5.277,3377.51
432,CHD,6,569,0.76,0,67,0.88,-4.988,61.43,7.566,490.56,5.412,3170.58,-2.267,68.49,-12.414,431.76,-5.277,3377.51
433,CHD,6,569,0.76,0,67,0.88,-4.988,61.43,7.566,490.56,5.412,3170.58,-2.267,68.49,-12.414,431.76,-5.277,3377.51
434,CHD,6,569,0.76,0,67,0.88,-4.988,61.43,7.566,490.56,5.412,3170.58,-2.267,68.49,-12.414,431.76,-5.277,3377.51
435,CHD,6,569,0.76,0,67,0.88,-4.988,61.43,7.566,490.56,5.412,3170.58,-2.267,68.49,-12.414,431.76,-5.277,3377.51
436,CHD,6,569,0.76,0,67,0.88,-4.988,61.43,7.566,490.56,5.412,3170.58,-2.267,68.49,-12.414,431.76,-5.277,3377.51
437,CHD,6,569,0.76,0,67,0.88,-4.988,61.43,7.566,490.56,5.412,3170.58,-2.267,68.49,-12.414,431.76,-5.277,3377.51
438,CHD,6,569,0.76,0,67,0.88,-4.988,61.43,7.566,490.56,5.412,3170.58,-2.267,68.49,-12.414,431.76,-5.277,3377.51
439,CHD,6,569,0.76,0,67,0.88,-4.988,61.43,7.566,490.56,5.412,3170.58,-2.267,68.49,-12.414,431.76,-5.277,3377.51
440,CHD,6,569,0.76,0,67,0.88,-4.988,61.43,7.566,490.56,5.412,3170.58,-2.267,68.49,-12.414,431.76,-5.277,3377.51
441,CHD,6,569,0.76,0,67,0.88,-4.988,61.43,7.566,490.56,5.412,3170.58,-2.267,68.49,-12.414,431.76,-5.277,3377.51
442,CHD,6,569,0.76,0,67,0.88,-4.988,61.43,7.566,490.56,5.412,3170.58,-2.267,68.49,-12.414,431.76,-5.277,3377.51
443,CHD,6,569,0.76,0,67,0.88,-4.988,61.43,7.566,490.56,5.412,3170.58,-2.267,68.49,-12.414,431.76,-5.277,3377.51
444,CHD,6,569,0.76,0,67,0.88,-4.988,61.43,7.566,490.56,5.412,3170.58,-2.267,68.49,-12.414,431.76,-5.277,3377.51
445,CHD,6,569,0.76,0,67,0.88,-4.988,61.43,7.566,490.56,5.412,3170.58,-2.267,68.49,-12.414,431.76,-5.277,3377.51
446,CHD,6,569,0.76,0,67,0.88,-4.988,61.43,7.566,490.56,5.412,3170.58,-2.267,68.49,-12.414,431.76,-5.277,3377.51
447,CHD,6,569,0.76,0,67,0.88,-4.988,61.43,7.566,490.56,5.412,3170.58,-2.267,68.49,-12.414,431.76,-5.277,3377.51
448,CHD,6,569,0.76,0,67,0.88,-4.988,61.43,7.566,490.56,5.412,3170.58,-2.267,68.49,-12.414,431.76,-5.277,3377.51
449,CHD,6,569,0.76,0,67,0.88,-4.988,61.43,7.566,490.56,5.412,3170.58,-2.267,68.49,-12.414,431.76,-5.277,3377.51
450,CHD,6,569,0.76,0,67,0.88,-4.988,61.43,7.566,490.56,5.412,3170.58,-2.267,68.49,-12.414,431.76,-5.277,3377.51
451,CHD,6,569,0.76,0,67,0.88,-4.988,61.43,7.566,490.56,5.412,3170.58,-2.267,68.49,-12.414,431.76,-5.277,3377.51
452,CHD,6,569,0.76,0,67,0.88,-4.988,61.43,7.566,490.56,5.412,3170.58,-2.267,68.49,-12.414,431.76,-5.277,3377.51
453,CHD,6,569,0.76,0,67,0.88,-4.988,61.43,7.566,490.56,5.412,3170.58,-2.267,68.49,-12.414,431.76,-5.277,3377.51
454,CHD,6,569,0.76,0,67,0.88,-4.988,61.43,7.566,490.56,5.412,3170.58,-2.267,68.49,-12.414,431.76,-5.277,3377.51
455,CHD,6,569,0.76,0,67,0.88,-4.988,61.43,7.566,490.56,5.412,3170.58,-2.267,68.49,-12.414,431.76,-5.277,3377.51
456,CHD,6,569,0.76,0,67,0.88,-4.988,61.43,7.566,490.56,5.412,3170.58,-2.267,68.49,-12.414,431.76,-5.277,3377.51
457,CHD,6,569,0.76,0,67,0.88,-4.988,61.43,7.566,490.56,5.412,3170.58,-2.267,68.49,-12.414,431.76,-5.277,3377.51
458,CHD,6,569,0.76,0,67,0.88,-4.988,61.43,7.566,490.56,5.412,3170.58,-2.267,68.49,-12.414,431.76,-5.277,3377.51
459,CHD,6,569,0.76,0,67,0.88,-4.988,61.43,7.566,490.56,5.412,3170.58,-2.267,68.49,-12.414,431.76,-5.277,3377.51
460,CHD,6,569,0.76,0,67,0.88,-4.988,61.43,7.566,490.56,5.412,3170.58,-2.267,68.49,-12.414,431.76,-5.277,3377.51
461,CHD,6,569,0.76,0,67,0.88,-4.988,61.43,7.566,490.56,5.412,3170.58,-2.267,68.49,-12.414,431.76,-5.277,3377.51
462,CHD,6,569,0.76,0,67,0.88,-4.988,61.43,7.566,490.56,5.412,3170.58,-2.267,68.49,-12.414,431.76,-5.277,3377.51
463,CHD,6,569,0.76,0,67,0.88,-4.988,61.43,7.566,490.56,5.412,3170.58,-2.267,68.49,-12.414,431.76,-5.277,3377.51
464,CHD,6,569,0.76,0,67,0.88,-4.988,61.43,7.566,490.56,5.412,3170.58,-2.267,68.49,-12.414,431.76,-5.277,3377.51
465,CHD,6,569,0.76,0,67,0.88,-4.988,61.43,7.566,490.56,5.412,3170.58,-2.267,68.49,-12.414,431.76,-5.277,3377.51
466,CHD,6,569,0.76,0,67,0.88,-4.988,61.43,7.566,490.56,5.412,3170.58,-2.267,68.49,-12.414,431.76,-5.277,3377.51
467,CHD,6,569,0.76,0,67,0.88,-4.988,61.43,7.566,490.56,5.412,3170.58,-2.267,68.49,-12.414,431.76,-5.277,3377.51
468,CHD,6,569,0.76,0,67,0.88,-4.988,61.43,7.566,490.56,5.412,3170.58,-2.267,68.49,-12.414,431.76,-5.277,3377.51
469,CHD,6,569,0.76,0,67,0.88,-4.988,61.43,7.566,490.56,5.412,3170.58,-2.267,68.49,-12.414,431.76,-5.277,3377.51
470,CHD,6,569,0.76,0,67,0.88,-4.988,61.43,7.566,490.56,5.412,3170.58,-2.267,68.49,-12.414,431.76,-5.277,3377.51
471,CHD,6,569,0.76,0,67,0.88,-4.988,61.43,7.566,490.56,5.412,3170.58,-2.267,68.49,-12.414,431.76,-5.277,3377.51
472,CHD,6,569,0.76,0,67,0.88,-4.988,61.43,7.566,490.56,5.412,3170.58,-2.267,68.49,-12.414,431.76,-5.277,3377.51
473,CHD,6,569,0.76,0,67,0.88,-4.988,61.43,7.566,490.56,5.412,3170.58,-2.267,68.49,-12.414,431.76,-5.277,3377.51
474,CHD,6,569,0.76,0,67,0.88,-4.988,61.43,7.566,490.56,5.412,3170.58,-2.267,68.49,-12.414,431.76,-5.277,3377.51
475,CHD,6,569,0.76,0,67,0.88,-4.988,61.43,7.566,490.56,5.412,3170.58,-2.267,68.49,-12.414,431.76,-5.277,3377.51
476,CHD,6,569,0.76,0,67,0.88,-4.988,61.43,7.566,490.56,5.412,3170.58,-2.267,68.49,-12.414,431.76,-5.277,3377.51
477,CHD,6,569,0.76,0,67,0.88,-4.988,61.43,7.566,490.56,5.412,3170.58,-2.267,68.49,-12.414,431.76,-5.277,3377.51
478,CHD,6,569,0.76,0,67,0.88,-4.988,61.43,7.566,490.56,5.412,3170.58,-2.267,68.49,-12.414,431.76,-5.277,3377.51
479,CHD,6,569,0.76,0,67,0.88,-4.988,61.43,7.566,490.56,5.412,3170.58,-2.267,68.49,-12.414,431.76,-5.277,3377.51
480,CHD,6,569,0.76,0,67,0.88,-4.988,61.43,7.566,490.56,5.412,3170.58,-2.267,68.49,-12.414,431.76,-5.277,3377.51
481,CHD,6,569,0.76,0,67,0.88,-4.988,61.43,7.566,490.56,5.412,3170.58,-2.267,68.49,-12.414,431.76,-5.277,3377.51
482,CHD,6,569,0.76,0,67,0.88,-4.988,61.43,7.566,490.56,5.412,3170.58,-2.267,68.49,-12.414,431.76,-5.277,3377.51
483,CHD,6,569,0.76,0,67,0.88,-4.988,61.43,7.566,490.56,5.412,3170.58,-2.267,68.49,-12.414,431.76,-5.277,3377.51
484,CHD,6,569,0.76,0,67,0.88,-4.988,61.43,7.566,490.56,5.412,3170.58,-2.267,68.49,-12.414,431.76,-5.277,3377.51
485,CHD,6,569,0.76,0,67,0.88,-4.988,61.43,7.566,490.56,5.412,3170.58,-2.267,68.49,-12.414,431.76,-5.277,3377.51
486,CHD,6,569,0.76,0,67,0.88,-4.988,61.43,7.566,490.56,5.412,3170.58,-2.267,68.49,-12.414,431.76,-5.277,3377.51
487,CHD,6,569,0.76,0,67,0.88,-4.988,61.43,7.566,490.56,5.412,3170.58,-2.267,68.49,-12.414,431.76,-5.277,3377.51
488,CHD,6,569,0.76,0,67,0.88,-4.988,61.43,7.566,490.56,5.412,3170.58,-2.267,68.49,-12.414,431.76,-5.277,3377.51
489,CHD,6,569,0.76,0,67,0.88,-4.988,61.43,7.566,490.56,5.412,3170.58,-2.267,68.49,-12.414,431.76,-5.277,3377.51
490,CHD,6,569,0.76,0,67,0.88,-4.988,61.43,7.566,490.56,5.412,3170.58,-2.267,68.49,-12.414,431.76,-5.277,3377.51
491,CHD,6,569,0.76,0,67,0.88,-4.988,61.43,7.566,490.56,5.412,3170.58,-2.267,68.49,-12.414,431.76,-5.277,3377.51
492,CHD,6,569,0.76,0,67,0.88,-4.988,61.43,7.566,490.56,5.412,3170.58,-2.267,68.49,-12.414,431.76,-5.277,3377.51
493,CHD,6,569,0.76,0,67,0.88,-4.988,61.43,7.566,490.56,5.412,3170.58,-2.267,68.49,-12.414,431.76,-5.277,3377.51
494,CHD,6,569,0.76,0,67,0.88,-4.988,61.43,7.566,490.56,5.412,3170.58,-2.267,68.49,-12.414,431.76,-5.277,3377.51
495,CHD,6,569,0.76,0,67,0.88,-4.988,61.43,7.566,490.56,5.412,3170.58,-2.267,68.49,-12.414,431.76,-5.277,3377.51
496,CHD,6,569,0.76,0,67,0.88,-4.988,61.43,7.566,490.56,5.412,3170.58,-2.267,68.49,-12.414,431.76,-5.277,3377.51
497,CHD,6,569,0.76,0,67,0.88,-4.988,61.43,7.566,490.56,5.412,3170.58,-2.267,68.49,-12.414,431.76,-5.277,3377.51
498,CHD,6,569,0.76,0,67,0.88,-4.988,61.43,7.566,490.56,5.412,3170.58,-2.267,68.49,-12.414,431.76,-5.277,3377.51
499,CHD,6,569,0.76,0,67,0.88,-4.988,61.43,7.566,490.56,5.412,3170.58,-2.267,68.49,-12.414,431.76,-5.277,3377.51
500,CHD,6,569,0.76,0,67,0.88,-4.988,61.43,7.566,490.56,5.412,3170.58,-2.267,68.49,-12.414,431.76,-5.277,3377.51
