,1,2,3,4,5,6,7,8,9,10,11,12,13,14,15,16,17,18,19
Iteration,Name,AcuteDuration(months),AcuteCost(month),AcuteUtilityMultiplier,AcutePA,PostAcuteCost(month),PostAcuteUtilityMultiplier,PostAcutePA(inactive)Mmean,PostAcutePA(inactive)Msd,PostAcutePA(moderatelyActive)Mmean,PostAcutePA(moderatelyActive)Msd,PostAcutePA(veryActive)Mmean,PostAcutePA(veryActive)Msd,PostAcutePA(inactive)Fmean,PostAcutePA(inactive)Fsd,PostAcutePA(moderatelyActive)Fmean,PostAcutePA(moderatelyActive)Fsd,PostAcutePA(veryActive)Fmean,PostAcutePA(veryActive)Fsd
1,MSI,3,356,0.773,0,0,1,-6.598,59.22,-10.582,492.14,-10.902,2592.31,-8.16,57.14,-8.147,342.9,-93.473,2365.31
2,MSI,3,356,0.773,0,0,1,-6.598,59.22,-10.582,492.14,-10.902,2592.31,-8.16,57.14,-8.147,342.9,-93.473,2365.31
3,MSI,3,356,0.773,0,0,1,-6.598,59.22,-10.582,492.14,-10.902,2592.31,-8.16,57.14,-8.147,342.9,-93.473,2365.31
4,MSI,3,356,0.773,0,0,1,-6.598,59.22,-10.582,492.14,-10.902,2592.31,-8.16,57.14,-8.147,342.9,-93.473,2365.31
5,MSI,3,356,0.773,0,0,1,-6.598,59.22,-10.582,492.14,-10.902,2592.31,-8.16,57.14,-8.147,342.9,-93.473,2365.31
6,MSI,3,356,0.773,0,0,1,-6.598,59.22,-10.582,492.14,-10.902,2592.31,-8.16,57.14,-8.147,342.9,-93.473,2365.31
7,MSI,3,356,0.773,0,0,1,-6.598,59.22,-10.582,492.14,-10.902,2592.31,-8.16,57.14,-8.147,342.9,-93.473,2365.31
8,MSI,3,356,0.773,0,0,1,-6.598,59.22,-10.582,492.14,-10.902,2592.31,-8.16,57.14,-8.147,342.9,-93.473,2365.31
9,MSI,3,356,0.773,0,0,1,-6.598,59.22,-10.582,492.14,-10.902,2592.31,-8.16,57.14,-8.147,342.9,-93.473,2365.31
10,MSI,3,356,0.773,0,0,1,-6.598,59.22,-10.582,492.14,-10.902,2592.31,-8.16,57.14,-8.147,342.9,-93.473,2365.31
11,MSI,3,356,0.773,0,0,1,-6.598,59.22,-10.582,492.14,-10.902,2592.31,-8.16,57.14,-8.147,342.9,-93.473,2365.31
12,MSI,3,356,0.773,0,0,1,-6.598,59.22,-10.582,492.14,-10.902,2592.31,-8.16,57.14,-8.147,342.9,-93.473,2365.31
13,MSI,3,356,0.773,0,0,1,-6.598,59.22,-10.582,492.14,-10.902,2592.31,-8.16,57.14,-8.147,342.9,-93.473,2365.31
14,MSI,3,356,0.773,0,0,1,-6.598,59.22,-10.582,492.14,-10.902,2592.31,-8.16,57.14,-8.147,342.9,-93.473,2365.31
15,MSI,3,356,0.773,0,0,1,-6.598,59.22,-10.582,492.14,-10.902,2592.31,-8.16,57.14,-8.147,342.9,-93.473,2365.31
16,MSI,3,356,0.773,0,0,1,-6.598,59.22,-10.582,492.14,-10.902,2592.31,-8.16,57.14,-8.147,342.9,-93.473,2365.31
17,MSI,3,356,0.773,0,0,1,-6.598,59.22,-10.582,492.14,-10.902,2592.31,-8.16,57.14,-8.147,342.9,-93.473,2365.31
18,MSI,3,356,0.773,0,0,1,-6.598,59.22,-10.582,492.14,-10.902,2592.31,-8.16,57.14,-8.147,342.9,-93.473,2365.31
19,MSI,3,356,0.773,0,0,1,-6.598,59.22,-10.582,492.14,-10.902,2592.31,-8.16,57.14,-8.147,342.9,-93.473,2365.31
20,MSI,3,356,0.773,0,0,1,-6.598,59.22,-10.582,492.14,-10.902,2592.31,-8.16,57.14,-8.147,342.9,-93.473,2365.31
21,MSI,3,356,0.773,0,0,1,-6.598,59.22,-10.582,492.14,-10.902,2592.31,-8.16,57.14,-8.147,342.9,-93.473,2365.31
22,MSI,3,356,0.773,0,0,1,-6.598,59.22,-10.582,492.14,-10.902,2592.31,-8.16,57.14,-8.147,342.9,-93.473,2365.31
23,MSI,3,356,0.773,0,0,1,-6.598,59.22,-10.582,492.14,-10.902,2592.31,-8.16,57.14,-8.147,342.9,-93.473,2365.31
24,MSI,3,356,0.773,0,0,1,-6.598,59.22,-10.582,492.14,-10.902,2592.31,-8.16,57.14,-8.147,342.9,-93.473,2365.31
25,MSI,3,356,0.773,0,0,1,-6.598,59.22,-10.582,492.14,-10.902,2592.31,-8.16,57.14,-8.147,342.9,-93.473,2365.31
26,MSI,3,356,0.773,0,0,1,-6.598,59.22,-10.582,492.14,-10.902,2592.31,-8.16,57.14,-8.147,342.9,-93.473,2365.31
27,MSI,3,356,0.773,0,0,1,-6.598,59.22,-10.582,492.14,-10.902,2592.31,-8.16,57.14,-8.147,342.9,-93.473,2365.31
28,MSI,3,356,0.773,0,0,1,-6.598,59.22,-10.582,492.14,-10.902,2592.31,-8.16,57.14,-8.147,342.9,-93.473,2365.31
29,MSI,3,356,0.773,0,0,1,-6.598,59.22,-10.582,492.14,-10.902,2592.31,-8.16,57.14,-8.147,342.9,-93.473,2365.31
30,MSI,3,356,0.773,0,0,1,-6.598,59.22,-10.582,492.14,-10.902,2592.31,-8.16,57.14,-8.147,342.9,-93.473,2365.31
31,MSI,3,356,0.773,0,0,1,-6.598,59.22,-10.582,492.14,-10.902,2592.31,-8.16,57.14,-8.147,342.9,-93.473,2365.31
32,MSI,3,356,0.773,0,0,1,-6.598,59.22,-10.582,492.14,-10.902,2592.31,-8.16,57.14,-8.147,342.9,-93.473,2365.31
33,MSI,3,356,0.773,0,0,1,-6.598,59.22,-10.582,492.14,-10.902,2592.31,-8.16,57.14,-8.147,342.9,-93.473,2365.31
34,MSI,3,356,0.773,0,0,1,-6.598,59.22,-10.582,492.14,-10.902,2592.31,-8.16,57.14,-8.147,342.9,-93.473,2365.31
35,MSI,3,356,0.773,0,0,1,-6.598,59.22,-10.582,492.14,-10.902,2592.31,-8.16,57.14,-8.147,342.9,-93.473,2365.31
36,MSI,3,356,0.773,0,0,1,-6.598,59.22,-10.582,492.14,-10.902,2592.31,-8.16,57.14,-8.147,342.9,-93.473,2365.31
37,MSI,3,356,0.773,0,0,1,-6.598,59.22,-10.582,492.14,-10.902,2592.31,-8.16,57.14,-8.147,342.9,-93.473,2365.31
38,MSI,3,356,0.773,0,0,1,-6.598,59.22,-10.582,492.14,-10.902,2592.31,-8.16,57.14,-8.147,342.9,-93.473,2365.31
39,MSI,3,356,0.773,0,0,1,-6.598,59.22,-10.582,492.14,-10.902,2592.31,-8.16,57.14,-8.147,342.9,-93.473,2365.31
40,MSI,3,356,0.773,0,0,1,-6.598,59.22,-10.582,492.14,-10.902,2592.31,-8.16,57.14,-8.147,342.9,-93.473,2365.31
41,MSI,3,356,0.773,0,0,1,-6.598,59.22,-10.582,492.14,-10.902,2592.31,-8.16,57.14,-8.147,342.9,-93.473,2365.31
42,MSI,3,356,0.773,0,0,1,-6.598,59.22,-10.582,492.14,-10.902,2592.31,-8.16,57.14,-8.147,342.9,-93.473,2365.31
43,MSI,3,356,0.773,0,0,1,-6.598,59.22,-10.582,492.14,-10.902,2592.31,-8.16,57.14,-8.147,342.9,-93.473,2365.31
44,MSI,3,356,0.773,0,0,1,-6.598,59.22,-10.582,492.14,-10.902,2592.31,-8.16,57.14,-8.147,342.9,-93.473,2365.31
45,MSI,3,356,0.773,0,0,1,-6.598,59.22,-10.582,492.14,-10.902,2592.31,-8.16,57.14,-8.147,342.9,-93.473,2365.31
46,MSI,3,356,0.773,0,0,1,-6.598,59.22,-10.582,492.14,-10.902,2592.31,-8.16,57.14,-8.147,342.9,-93.473,2365.31
47,MSI,3,356,0.773,0,0,1,-6.598,59.22,-10.582,492.14,-10.902,2592.31,-8.16,57.14,-8.147,342.9,-93.473,2365.31
48,MSI,3,356,0.773,0,0,1,-6.598,59.22,-10.582,492.14,-10.902,2592.31,-8.16,57.14,-8.147,342.9,-93.473,2365.31
49,MSI,3,356,0.773,0,0,1,-6.598,59.22,-10.582,492.14,-10.902,2592.31,-8.16,57.14,-8.147,342.9,-93.473,2365.31
50,MSI,3,356,0.773,0,0,1,-6.598,59.22,-10.582,492.14,-10.902,2592.31,-8.16,57.14,-8.147,342.9,-93.473,2365.31
51,MSI,3,356,0.773,0,0,1,-6.598,59.22,-10.582,492.14,-10.902,2592.31,-8.16,57.14,-8.147,342.9,-93.473,2365.31
52,MSI,3,356,0.773,0,0,1,-6.598,59.22,-10.582,492.14,-10.902,2592.31,-8.16,57.14,-8.147,342.9,-93.473,2365.31
53,MSI,3,356,0.773,0,0,1,-6.598,59.22,-10.582,492.14,-10.902,2592.31,-8.16,57.14,-8.147,342.9,-93.473,2365.31
54,MSI,3,356,0.773,0,0,1,-6.598,59.22,-10.582,492.14,-10.902,2592.31,-8.16,57.14,-8.147,342.9,-93.473,2365.31
55,MSI,3,356,0.773,0,0,1,-6.598,59.22,-10.582,492.14,-10.902,2592.31,-8.16,57.14,-8.147,342.9,-93.473,2365.31
56,MSI,3,356,0.773,0,0,1,-6.598,59.22,-10.582,492.14,-10.902,2592.31,-8.16,57.14,-8.147,342.9,-93.473,2365.31
57,MSI,3,356,0.773,0,0,1,-6.598,59.22,-10.582,492.14,-10.902,2592.31,-8.16,57.14,-8.147,342.9,-93.473,2365.31
58,MSI,3,356,0.773,0,0,1,-6.598,59.22,-10.582,492.14,-10.902,2592.31,-8.16,57.14,-8.147,342.9,-93.473,2365.31
59,MSI,3,356,0.773,0,0,1,-6.598,59.22,-10.582,492.14,-10.902,2592.31,-8.16,57.14,-8.147,342.9,-93.473,2365.31
60,MSI,3,356,0.773,0,0,1,-6.598,59.22,-10.582,492.14,-10.902,2592.31,-8.16,57.14,-8.147,342.9,-93.473,2365.31
61,MSI,3,356,0.773,0,0,1,-6.598,59.22,-10.582,492.14,-10.902,2592.31,-8.16,57.14,-8.147,342.9,-93.473,2365.31
62,MSI,3,356,0.773,0,0,1,-6.598,59.22,-10.582,492.14,-10.902,2592.31,-8.16,57.14,-8.147,342.9,-93.473,2365.31
63,MSI,3,356,0.773,0,0,1,-6.598,59.22,-10.582,492.14,-10.902,2592.31,-8.16,57.14,-8.147,342.9,-93.473,2365.31
64,MSI,3,356,0.773,0,0,1,-6.598,59.22,-10.582,492.14,-10.902,2592.31,-8.16,57.14,-8.147,342.9,-93.473,2365.31
65,MSI,3,356,0.773,0,0,1,-6.598,59.22,-10.582,492.14,-10.902,2592.31,-8.16,57.14,-8.147,342.9,-93.473,2365.31
66,MSI,3,356,0.773,0,0,1,-6.598,59.22,-10.582,492.14,-10.902,2592.31,-8.16,57.14,-8.147,342.9,-93.473,2365.31
67,MSI,3,356,0.773,0,0,1,-6.598,59.22,-10.582,492.14,-10.902,2592.31,-8.16,57.14,-8.147,342.9,-93.473,2365.31
68,MSI,3,356,0.773,0,0,1,-6.598,59.22,-10.582,492.14,-10.902,2592.31,-8.16,57.14,-8.147,342.9,-93.473,2365.31
69,MSI,3,356,0.773,0,0,1,-6.598,59.22,-10.582,492.14,-10.902,2592.31,-8.16,57.14,-8.147,342.9,-93.473,2365.31
70,MSI,3,356,0.773,0,0,1,-6.598,59.22,-10.582,492.14,-10.902,2592.31,-8.16,57.14,-8.147,342.9,-93.473,2365.31
71,MSI,3,356,0.773,0,0,1,-6.598,59.22,-10.582,492.14,-10.902,2592.31,-8.16,57.14,-8.147,342.9,-93.473,2365.31
72,MSI,3,356,0.773,0,0,1,-6.598,59.22,-10.582,492.14,-10.902,2592.31,-8.16,57.14,-8.147,342.9,-93.473,2365.31
73,MSI,3,356,0.773,0,0,1,-6.598,59.22,-10.582,492.14,-10.902,2592.31,-8.16,57.14,-8.147,342.9,-93.473,2365.31
74,MSI,3,356,0.773,0,0,1,-6.598,59.22,-10.582,492.14,-10.902,2592.31,-8.16,57.14,-8.147,342.9,-93.473,2365.31
75,MSI,3,356,0.773,0,0,1,-6.598,59.22,-10.582,492.14,-10.902,2592.31,-8.16,57.14,-8.147,342.9,-93.473,2365.31
76,MSI,3,356,0.773,0,0,1,-6.598,59.22,-10.582,492.14,-10.902,2592.31,-8.16,57.14,-8.147,342.9,-93.473,2365.31
77,MSI,3,356,0.773,0,0,1,-6.598,59.22,-10.582,492.14,-10.902,2592.31,-8.16,57.14,-8.147,342.9,-93.473,2365.31
78,MSI,3,356,0.773,0,0,1,-6.598,59.22,-10.582,492.14,-10.902,2592.31,-8.16,57.14,-8.147,342.9,-93.473,2365.31
79,MSI,3,356,0.773,0,0,1,-6.598,59.22,-10.582,492.14,-10.902,2592.31,-8.16,57.14,-8.147,342.9,-93.473,2365.31
80,MSI,3,356,0.773,0,0,1,-6.598,59.22,-10.582,492.14,-10.902,2592.31,-8.16,57.14,-8.147,342.9,-93.473,2365.31
81,MSI,3,356,0.773,0,0,1,-6.598,59.22,-10.582,492.14,-10.902,2592.31,-8.16,57.14,-8.147,342.9,-93.473,2365.31
82,MSI,3,356,0.773,0,0,1,-6.598,59.22,-10.582,492.14,-10.902,2592.31,-8.16,57.14,-8.147,342.9,-93.473,2365.31
83,MSI,3,356,0.773,0,0,1,-6.598,59.22,-10.582,492.14,-10.902,2592.31,-8.16,57.14,-8.147,342.9,-93.473,2365.31
84,MSI,3,356,0.773,0,0,1,-6.598,59.22,-10.582,492.14,-10.902,2592.31,-8.16,57.14,-8.147,342.9,-93.473,2365.31
85,MSI,3,356,0.773,0,0,1,-6.598,59.22,-10.582,492.14,-10.902,2592.31,-8.16,57.14,-8.147,342.9,-93.473,2365.31
86,MSI,3,356,0.773,0,0,1,-6.598,59.22,-10.582,492.14,-10.902,2592.31,-8.16,57.14,-8.147,342.9,-93.473,2365.31
87,MSI,3,356,0.773,0,0,1,-6.598,59.22,-10.582,492.14,-10.902,2592.31,-8.16,57.14,-8.147,342.9,-93.473,2365.31
88,MSI,3,356,0.773,0,0,1,-6.598,59.22,-10.582,492.14,-10.902,2592.31,-8.16,57.14,-8.147,342.9,-93.473,2365.31
89,MSI,3,356,0.773,0,0,1,-6.598,59.22,-10.582,492.14,-10.902,2592.31,-8.16,57.14,-8.147,342.9,-93.473,2365.31
90,MSI,3,356,0.773,0,0,1,-6.598,59.22,-10.582,492.14,-10.902,2592.31,-8.16,57.14,-8.147,342.9,-93.473,2365.31
91,MSI,3,356,0.773,0,0,1,-6.598,59.22,-10.582,492.14,-10.902,2592.31,-8.16,57.14,-8.147,342.9,-93.473,2365.31
92,MSI,3,356,0.773,0,0,1,-6.598,59.22,-10.582,492.14,-10.902,2592.31,-8.16,57.14,-8.147,342.9,-93.473,2365.31
93,MSI,3,356,0.773,0,0,1,-6.598,59.22,-10.582,492.14,-10.902,2592.31,-8.16,57.14,-8.147,342.9,-93.473,2365.31
94,MSI,3,356,0.773,0,0,1,-6.598,59.22,-10.582,492.14,-10.902,2592.31,-8.16,57.14,-8.147,342.9,-93.473,2365.31
95,MSI,3,356,0.773,0,0,1,-6.598,59.22,-10.582,492.14,-10.902,2592.31,-8.16,57.14,-8.147,342.9,-93.473,2365.31
96,MSI,3,356,0.773,0,0,1,-6.598,59.22,-10.582,492.14,-10.902,2592.31,-8.16,57.14,-8.147,342.9,-93.473,2365.31
97,MSI,3,356,0.773,0,0,1,-6.598,59.22,-10.582,492.14,-10.902,2592.31,-8.16,57.14,-8.147,342.9,-93.473,2365.31
98,MSI,3,356,0.773,0,0,1,-6.598,59.22,-10.582,492.14,-10.902,2592.31,-8.16,57.14,-8.147,342.9,-93.473,2365.31
99,MSI,3,356,0.773,0,0,1,-6.598,59.22,-10.582,492.14,-10.902,2592.31,-8.16,57.14,-8.147,342.9,-93.473,2365.31
100,MSI,3,356,0.773,0,0,1,-6.598,59.22,-10.582,492.14,-10.902,2592.31,-8.16,57.14,-8.147,342.9,-93.473,2365.31
101,MSI,3,356,0.773,0,0,1,-6.598,59.22,-10.582,492.14,-10.902,2592.31,-8.16,57.14,-8.147,342.9,-93.473,2365.31
102,MSI,3,356,0.773,0,0,1,-6.598,59.22,-10.582,492.14,-10.902,2592.31,-8.16,57.14,-8.147,342.9,-93.473,2365.31
103,MSI,3,356,0.773,0,0,1,-6.598,59.22,-10.582,492.14,-10.902,2592.31,-8.16,57.14,-8.147,342.9,-93.473,2365.31
104,MSI,3,356,0.773,0,0,1,-6.598,59.22,-10.582,492.14,-10.902,2592.31,-8.16,57.14,-8.147,342.9,-93.473,2365.31
105,MSI,3,356,0.773,0,0,1,-6.598,59.22,-10.582,492.14,-10.902,2592.31,-8.16,57.14,-8.147,342.9,-93.473,2365.31
106,MSI,3,356,0.773,0,0,1,-6.598,59.22,-10.582,492.14,-10.902,2592.31,-8.16,57.14,-8.147,342.9,-93.473,2365.31
107,MSI,3,356,0.773,0,0,1,-6.598,59.22,-10.582,492.14,-10.902,2592.31,-8.16,57.14,-8.147,342.9,-93.473,2365.31
108,MSI,3,356,0.773,0,0,1,-6.598,59.22,-10.582,492.14,-10.902,2592.31,-8.16,57.14,-8.147,342.9,-93.473,2365.31
109,MSI,3,356,0.773,0,0,1,-6.598,59.22,-10.582,492.14,-10.902,2592.31,-8.16,57.14,-8.147,342.9,-93.473,2365.31
110,MSI,3,356,0.773,0,0,1,-6.598,59.22,-10.582,492.14,-10.902,2592.31,-8.16,57.14,-8.147,342.9,-93.473,2365.31
111,MSI,3,356,0.773,0,0,1,-6.598,59.22,-10.582,492.14,-10.902,2592.31,-8.16,57.14,-8.147,342.9,-93.473,2365.31
112,MSI,3,356,0.773,0,0,1,-6.598,59.22,-10.582,492.14,-10.902,2592.31,-8.16,57.14,-8.147,342.9,-93.473,2365.31
113,MSI,3,356,0.773,0,0,1,-6.598,59.22,-10.582,492.14,-10.902,2592.31,-8.16,57.14,-8.147,342.9,-93.473,2365.31
114,MSI,3,356,0.773,0,0,1,-6.598,59.22,-10.582,492.14,-10.902,2592.31,-8.16,57.14,-8.147,342.9,-93.473,2365.31
115,MSI,3,356,0.773,0,0,1,-6.598,59.22,-10.582,492.14,-10.902,2592.31,-8.16,57.14,-8.147,342.9,-93.473,2365.31
116,MSI,3,356,0.773,0,0,1,-6.598,59.22,-10.582,492.14,-10.902,2592.31,-8.16,57.14,-8.147,342.9,-93.473,2365.31
117,MSI,3,356,0.773,0,0,1,-6.598,59.22,-10.582,492.14,-10.902,2592.31,-8.16,57.14,-8.147,342.9,-93.473,2365.31
118,MSI,3,356,0.773,0,0,1,-6.598,59.22,-10.582,492.14,-10.902,2592.31,-8.16,57.14,-8.147,342.9,-93.473,2365.31
119,MSI,3,356,0.773,0,0,1,-6.598,59.22,-10.582,492.14,-10.902,2592.31,-8.16,57.14,-8.147,342.9,-93.473,2365.31
120,MSI,3,356,0.773,0,0,1,-6.598,59.22,-10.582,492.14,-10.902,2592.31,-8.16,57.14,-8.147,342.9,-93.473,2365.31
121,MSI,3,356,0.773,0,0,1,-6.598,59.22,-10.582,492.14,-10.902,2592.31,-8.16,57.14,-8.147,342.9,-93.473,2365.31
122,MSI,3,356,0.773,0,0,1,-6.598,59.22,-10.582,492.14,-10.902,2592.31,-8.16,57.14,-8.147,342.9,-93.473,2365.31
123,MSI,3,356,0.773,0,0,1,-6.598,59.22,-10.582,492.14,-10.902,2592.31,-8.16,57.14,-8.147,342.9,-93.473,2365.31
124,MSI,3,356,0.773,0,0,1,-6.598,59.22,-10.582,492.14,-10.902,2592.31,-8.16,57.14,-8.147,342.9,-93.473,2365.31
125,MSI,3,356,0.773,0,0,1,-6.598,59.22,-10.582,492.14,-10.902,2592.31,-8.16,57.14,-8.147,342.9,-93.473,2365.31
126,MSI,3,356,0.773,0,0,1,-6.598,59.22,-10.582,492.14,-10.902,2592.31,-8.16,57.14,-8.147,342.9,-93.473,2365.31
127,MSI,3,356,0.773,0,0,1,-6.598,59.22,-10.582,492.14,-10.902,2592.31,-8.16,57.14,-8.147,342.9,-93.473,2365.31
128,MSI,3,356,0.773,0,0,1,-6.598,59.22,-10.582,492.14,-10.902,2592.31,-8.16,57.14,-8.147,342.9,-93.473,2365.31
129,MSI,3,356,0.773,0,0,1,-6.598,59.22,-10.582,492.14,-10.902,2592.31,-8.16,57.14,-8.147,342.9,-93.473,2365.31
130,MSI,3,356,0.773,0,0,1,-6.598,59.22,-10.582,492.14,-10.902,2592.31,-8.16,57.14,-8.147,342.9,-93.473,2365.31
131,MSI,3,356,0.773,0,0,1,-6.598,59.22,-10.582,492.14,-10.902,2592.31,-8.16,57.14,-8.147,342.9,-93.473,2365.31
132,MSI,3,356,0.773,0,0,1,-6.598,59.22,-10.582,492.14,-10.902,2592.31,-8.16,57.14,-8.147,342.9,-93.473,2365.31
133,MSI,3,356,0.773,0,0,1,-6.598,59.22,-10.582,492.14,-10.902,2592.31,-8.16,57.14,-8.147,342.9,-93.473,2365.31
134,MSI,3,356,0.773,0,0,1,-6.598,59.22,-10.582,492.14,-10.902,2592.31,-8.16,57.14,-8.147,342.9,-93.473,2365.31
135,MSI,3,356,0.773,0,0,1,-6.598,59.22,-10.582,492.14,-10.902,2592.31,-8.16,57.14,-8.147,342.9,-93.473,2365.31
136,MSI,3,356,0.773,0,0,1,-6.598,59.22,-10.582,492.14,-10.902,2592.31,-8.16,57.14,-8.147,342.9,-93.473,2365.31
137,MSI,3,356,0.773,0,0,1,-6.598,59.22,-10.582,492.14,-10.902,2592.31,-8.16,57.14,-8.147,342.9,-93.473,2365.31
138,MSI,3,356,0.773,0,0,1,-6.598,59.22,-10.582,492.14,-10.902,2592.31,-8.16,57.14,-8.147,342.9,-93.473,2365.31
139,MSI,3,356,0.773,0,0,1,-6.598,59.22,-10.582,492.14,-10.902,2592.31,-8.16,57.14,-8.147,342.9,-93.473,2365.31
140,MSI,3,356,0.773,0,0,1,-6.598,59.22,-10.582,492.14,-10.902,2592.31,-8.16,57.14,-8.147,342.9,-93.473,2365.31
141,MSI,3,356,0.773,0,0,1,-6.598,59.22,-10.582,492.14,-10.902,2592.31,-8.16,57.14,-8.147,342.9,-93.473,2365.31
142,MSI,3,356,0.773,0,0,1,-6.598,59.22,-10.582,492.14,-10.902,2592.31,-8.16,57.14,-8.147,342.9,-93.473,2365.31
143,MSI,3,356,0.773,0,0,1,-6.598,59.22,-10.582,492.14,-10.902,2592.31,-8.16,57.14,-8.147,342.9,-93.473,2365.31
144,MSI,3,356,0.773,0,0,1,-6.598,59.22,-10.582,492.14,-10.902,2592.31,-8.16,57.14,-8.147,342.9,-93.473,2365.31
145,MSI,3,356,0.773,0,0,1,-6.598,59.22,-10.582,492.14,-10.902,2592.31,-8.16,57.14,-8.147,342.9,-93.473,2365.31
146,MSI,3,356,0.773,0,0,1,-6.598,59.22,-10.582,492.14,-10.902,2592.31,-8.16,57.14,-8.147,342.9,-93.473,2365.31
147,MSI,3,356,0.773,0,0,1,-6.598,59.22,-10.582,492.14,-10.902,2592.31,-8.16,57.14,-8.147,342.9,-93.473,2365.31
148,MSI,3,356,0.773,0,0,1,-6.598,59.22,-10.582,492.14,-10.902,2592.31,-8.16,57.14,-8.147,342.9,-93.473,2365.31
149,MSI,3,356,0.773,0,0,1,-6.598,59.22,-10.582,492.14,-10.902,2592.31,-8.16,57.14,-8.147,342.9,-93.473,2365.31
150,MSI,3,356,0.773,0,0,1,-6.598,59.22,-10.582,492.14,-10.902,2592.31,-8.16,57.14,-8.147,342.9,-93.473,2365.31
151,MSI,3,356,0.773,0,0,1,-6.598,59.22,-10.582,492.14,-10.902,2592.31,-8.16,57.14,-8.147,342.9,-93.473,2365.31
152,MSI,3,356,0.773,0,0,1,-6.598,59.22,-10.582,492.14,-10.902,2592.31,-8.16,57.14,-8.147,342.9,-93.473,2365.31
153,MSI,3,356,0.773,0,0,1,-6.598,59.22,-10.582,492.14,-10.902,2592.31,-8.16,57.14,-8.147,342.9,-93.473,2365.31
154,MSI,3,356,0.773,0,0,1,-6.598,59.22,-10.582,492.14,-10.902,2592.31,-8.16,57.14,-8.147,342.9,-93.473,2365.31
155,MSI,3,356,0.773,0,0,1,-6.598,59.22,-10.582,492.14,-10.902,2592.31,-8.16,57.14,-8.147,342.9,-93.473,2365.31
156,MSI,3,356,0.773,0,0,1,-6.598,59.22,-10.582,492.14,-10.902,2592.31,-8.16,57.14,-8.147,342.9,-93.473,2365.31
157,MSI,3,356,0.773,0,0,1,-6.598,59.22,-10.582,492.14,-10.902,2592.31,-8.16,57.14,-8.147,342.9,-93.473,2365.31
158,MSI,3,356,0.773,0,0,1,-6.598,59.22,-10.582,492.14,-10.902,2592.31,-8.16,57.14,-8.147,342.9,-93.473,2365.31
159,MSI,3,356,0.773,0,0,1,-6.598,59.22,-10.582,492.14,-10.902,2592.31,-8.16,57.14,-8.147,342.9,-93.473,2365.31
160,MSI,3,356,0.773,0,0,1,-6.598,59.22,-10.582,492.14,-10.902,2592.31,-8.16,57.14,-8.147,342.9,-93.473,2365.31
161,MSI,3,356,0.773,0,0,1,-6.598,59.22,-10.582,492.14,-10.902,2592.31,-8.16,57.14,-8.147,342.9,-93.473,2365.31
162,MSI,3,356,0.773,0,0,1,-6.598,59.22,-10.582,492.14,-10.902,2592.31,-8.16,57.14,-8.147,342.9,-93.473,2365.31
163,MSI,3,356,0.773,0,0,1,-6.598,59.22,-10.582,492.14,-10.902,2592.31,-8.16,57.14,-8.147,342.9,-93.473,2365.31
164,MSI,3,356,0.773,0,0,1,-6.598,59.22,-10.582,492.14,-10.902,2592.31,-8.16,57.14,-8.147,342.9,-93.473,2365.31
165,MSI,3,356,0.773,0,0,1,-6.598,59.22,-10.582,492.14,-10.902,2592.31,-8.16,57.14,-8.147,342.9,-93.473,2365.31
166,MSI,3,356,0.773,0,0,1,-6.598,59.22,-10.582,492.14,-10.902,2592.31,-8.16,57.14,-8.147,342.9,-93.473,2365.31
167,MSI,3,356,0.773,0,0,1,-6.598,59.22,-10.582,492.14,-10.902,2592.31,-8.16,57.14,-8.147,342.9,-93.473,2365.31
168,MSI,3,356,0.773,0,0,1,-6.598,59.22,-10.582,492.14,-10.902,2592.31,-8.16,57.14,-8.147,342.9,-93.473,2365.31
169,MSI,3,356,0.773,0,0,1,-6.598,59.22,-10.582,492.14,-10.902,2592.31,-8.16,57.14,-8.147,342.9,-93.473,2365.31
170,MSI,3,356,0.773,0,0,1,-6.598,59.22,-10.582,492.14,-10.902,2592.31,-8.16,57.14,-8.147,342.9,-93.473,2365.31
171,MSI,3,356,0.773,0,0,1,-6.598,59.22,-10.582,492.14,-10.902,2592.31,-8.16,57.14,-8.147,342.9,-93.473,2365.31
172,MSI,3,356,0.773,0,0,1,-6.598,59.22,-10.582,492.14,-10.902,2592.31,-8.16,57.14,-8.147,342.9,-93.473,2365.31
173,MSI,3,356,0.773,0,0,1,-6.598,59.22,-10.582,492.14,-10.902,2592.31,-8.16,57.14,-8.147,342.9,-93.473,2365.31
174,MSI,3,356,0.773,0,0,1,-6.598,59.22,-10.582,492.14,-10.902,2592.31,-8.16,57.14,-8.147,342.9,-93.473,2365.31
175,MSI,3,356,0.773,0,0,1,-6.598,59.22,-10.582,492.14,-10.902,2592.31,-8.16,57.14,-8.147,342.9,-93.473,2365.31
176,MSI,3,356,0.773,0,0,1,-6.598,59.22,-10.582,492.14,-10.902,2592.31,-8.16,57.14,-8.147,342.9,-93.473,2365.31
177,MSI,3,356,0.773,0,0,1,-6.598,59.22,-10.582,492.14,-10.902,2592.31,-8.16,57.14,-8.147,342.9,-93.473,2365.31
178,MSI,3,356,0.773,0,0,1,-6.598,59.22,-10.582,492.14,-10.902,2592.31,-8.16,57.14,-8.147,342.9,-93.473,2365.31
179,MSI,3,356,0.773,0,0,1,-6.598,59.22,-10.582,492.14,-10.902,2592.31,-8.16,57.14,-8.147,342.9,-93.473,2365.31
180,MSI,3,356,0.773,0,0,1,-6.598,59.22,-10.582,492.14,-10.902,2592.31,-8.16,57.14,-8.147,342.9,-93.473,2365.31
181,MSI,3,356,0.773,0,0,1,-6.598,59.22,-10.582,492.14,-10.902,2592.31,-8.16,57.14,-8.147,342.9,-93.473,2365.31
182,MSI,3,356,0.773,0,0,1,-6.598,59.22,-10.582,492.14,-10.902,2592.31,-8.16,57.14,-8.147,342.9,-93.473,2365.31
183,MSI,3,356,0.773,0,0,1,-6.598,59.22,-10.582,492.14,-10.902,2592.31,-8.16,57.14,-8.147,342.9,-93.473,2365.31
184,MSI,3,356,0.773,0,0,1,-6.598,59.22,-10.582,492.14,-10.902,2592.31,-8.16,57.14,-8.147,342.9,-93.473,2365.31
185,MSI,3,356,0.773,0,0,1,-6.598,59.22,-10.582,492.14,-10.902,2592.31,-8.16,57.14,-8.147,342.9,-93.473,2365.31
186,MSI,3,356,0.773,0,0,1,-6.598,59.22,-10.582,492.14,-10.902,2592.31,-8.16,57.14,-8.147,342.9,-93.473,2365.31
187,MSI,3,356,0.773,0,0,1,-6.598,59.22,-10.582,492.14,-10.902,2592.31,-8.16,57.14,-8.147,342.9,-93.473,2365.31
188,MSI,3,356,0.773,0,0,1,-6.598,59.22,-10.582,492.14,-10.902,2592.31,-8.16,57.14,-8.147,342.9,-93.473,2365.31
189,MSI,3,356,0.773,0,0,1,-6.598,59.22,-10.582,492.14,-10.902,2592.31,-8.16,57.14,-8.147,342.9,-93.473,2365.31
190,MSI,3,356,0.773,0,0,1,-6.598,59.22,-10.582,492.14,-10.902,2592.31,-8.16,57.14,-8.147,342.9,-93.473,2365.31
191,MSI,3,356,0.773,0,0,1,-6.598,59.22,-10.582,492.14,-10.902,2592.31,-8.16,57.14,-8.147,342.9,-93.473,2365.31
192,MSI,3,356,0.773,0,0,1,-6.598,59.22,-10.582,492.14,-10.902,2592.31,-8.16,57.14,-8.147,342.9,-93.473,2365.31
193,MSI,3,356,0.773,0,0,1,-6.598,59.22,-10.582,492.14,-10.902,2592.31,-8.16,57.14,-8.147,342.9,-93.473,2365.31
194,MSI,3,356,0.773,0,0,1,-6.598,59.22,-10.582,492.14,-10.902,2592.31,-8.16,57.14,-8.147,342.9,-93.473,2365.31
195,MSI,3,356,0.773,0,0,1,-6.598,59.22,-10.582,492.14,-10.902,2592.31,-8.16,57.14,-8.147,342.9,-93.473,2365.31
196,MSI,3,356,0.773,0,0,1,-6.598,59.22,-10.582,492.14,-10.902,2592.31,-8.16,57.14,-8.147,342.9,-93.473,2365.31
197,MSI,3,356,0.773,0,0,1,-6.598,59.22,-10.582,492.14,-10.902,2592.31,-8.16,57.14,-8.147,342.9,-93.473,2365.31
198,MSI,3,356,0.773,0,0,1,-6.598,59.22,-10.582,492.14,-10.902,2592.31,-8.16,57.14,-8.147,342.9,-93.473,2365.31
199,MSI,3,356,0.773,0,0,1,-6.598,59.22,-10.582,492.14,-10.902,2592.31,-8.16,57.14,-8.147,342.9,-93.473,2365.31
200,MSI,3,356,0.773,0,0,1,-6.598,59.22,-10.582,492.14,-10.902,2592.31,-8.16,57.14,-8.147,342.9,-93.473,2365.31
201,MSI,3,356,0.773,0,0,1,-6.598,59.22,-10.582,492.14,-10.902,2592.31,-8.16,57.14,-8.147,342.9,-93.473,2365.31
202,MSI,3,356,0.773,0,0,1,-6.598,59.22,-10.582,492.14,-10.902,2592.31,-8.16,57.14,-8.147,342.9,-93.473,2365.31
203,MSI,3,356,0.773,0,0,1,-6.598,59.22,-10.582,492.14,-10.902,2592.31,-8.16,57.14,-8.147,342.9,-93.473,2365.31
204,MSI,3,356,0.773,0,0,1,-6.598,59.22,-10.582,492.14,-10.902,2592.31,-8.16,57.14,-8.147,342.9,-93.473,2365.31
205,MSI,3,356,0.773,0,0,1,-6.598,59.22,-10.582,492.14,-10.902,2592.31,-8.16,57.14,-8.147,342.9,-93.473,2365.31
206,MSI,3,356,0.773,0,0,1,-6.598,59.22,-10.582,492.14,-10.902,2592.31,-8.16,57.14,-8.147,342.9,-93.473,2365.31
207,MSI,3,356,0.773,0,0,1,-6.598,59.22,-10.582,492.14,-10.902,2592.31,-8.16,57.14,-8.147,342.9,-93.473,2365.31
208,MSI,3,356,0.773,0,0,1,-6.598,59.22,-10.582,492.14,-10.902,2592.31,-8.16,57.14,-8.147,342.9,-93.473,2365.31
209,MSI,3,356,0.773,0,0,1,-6.598,59.22,-10.582,492.14,-10.902,2592.31,-8.16,57.14,-8.147,342.9,-93.473,2365.31
210,MSI,3,356,0.773,0,0,1,-6.598,59.22,-10.582,492.14,-10.902,2592.31,-8.16,57.14,-8.147,342.9,-93.473,2365.31
211,MSI,3,356,0.773,0,0,1,-6.598,59.22,-10.582,492.14,-10.902,2592.31,-8.16,57.14,-8.147,342.9,-93.473,2365.31
212,MSI,3,356,0.773,0,0,1,-6.598,59.22,-10.582,492.14,-10.902,2592.31,-8.16,57.14,-8.147,342.9,-93.473,2365.31
213,MSI,3,356,0.773,0,0,1,-6.598,59.22,-10.582,492.14,-10.902,2592.31,-8.16,57.14,-8.147,342.9,-93.473,2365.31
214,MSI,3,356,0.773,0,0,1,-6.598,59.22,-10.582,492.14,-10.902,2592.31,-8.16,57.14,-8.147,342.9,-93.473,2365.31
215,MSI,3,356,0.773,0,0,1,-6.598,59.22,-10.582,492.14,-10.902,2592.31,-8.16,57.14,-8.147,342.9,-93.473,2365.31
216,MSI,3,356,0.773,0,0,1,-6.598,59.22,-10.582,492.14,-10.902,2592.31,-8.16,57.14,-8.147,342.9,-93.473,2365.31
217,MSI,3,356,0.773,0,0,1,-6.598,59.22,-10.582,492.14,-10.902,2592.31,-8.16,57.14,-8.147,342.9,-93.473,2365.31
218,MSI,3,356,0.773,0,0,1,-6.598,59.22,-10.582,492.14,-10.902,2592.31,-8.16,57.14,-8.147,342.9,-93.473,2365.31
219,MSI,3,356,0.773,0,0,1,-6.598,59.22,-10.582,492.14,-10.902,2592.31,-8.16,57.14,-8.147,342.9,-93.473,2365.31
220,MSI,3,356,0.773,0,0,1,-6.598,59.22,-10.582,492.14,-10.902,2592.31,-8.16,57.14,-8.147,342.9,-93.473,2365.31
221,MSI,3,356,0.773,0,0,1,-6.598,59.22,-10.582,492.14,-10.902,2592.31,-8.16,57.14,-8.147,342.9,-93.473,2365.31
222,MSI,3,356,0.773,0,0,1,-6.598,59.22,-10.582,492.14,-10.902,2592.31,-8.16,57.14,-8.147,342.9,-93.473,2365.31
223,MSI,3,356,0.773,0,0,1,-6.598,59.22,-10.582,492.14,-10.902,2592.31,-8.16,57.14,-8.147,342.9,-93.473,2365.31
224,MSI,3,356,0.773,0,0,1,-6.598,59.22,-10.582,492.14,-10.902,2592.31,-8.16,57.14,-8.147,342.9,-93.473,2365.31
225,MSI,3,356,0.773,0,0,1,-6.598,59.22,-10.582,492.14,-10.902,2592.31,-8.16,57.14,-8.147,342.9,-93.473,2365.31
226,MSI,3,356,0.773,0,0,1,-6.598,59.22,-10.582,492.14,-10.902,2592.31,-8.16,57.14,-8.147,342.9,-93.473,2365.31
227,MSI,3,356,0.773,0,0,1,-6.598,59.22,-10.582,492.14,-10.902,2592.31,-8.16,57.14,-8.147,342.9,-93.473,2365.31
228,MSI,3,356,0.773,0,0,1,-6.598,59.22,-10.582,492.14,-10.902,2592.31,-8.16,57.14,-8.147,342.9,-93.473,2365.31
229,MSI,3,356,0.773,0,0,1,-6.598,59.22,-10.582,492.14,-10.902,2592.31,-8.16,57.14,-8.147,342.9,-93.473,2365.31
230,MSI,3,356,0.773,0,0,1,-6.598,59.22,-10.582,492.14,-10.902,2592.31,-8.16,57.14,-8.147,342.9,-93.473,2365.31
231,MSI,3,356,0.773,0,0,1,-6.598,59.22,-10.582,492.14,-10.902,2592.31,-8.16,57.14,-8.147,342.9,-93.473,2365.31
232,MSI,3,356,0.773,0,0,1,-6.598,59.22,-10.582,492.14,-10.902,2592.31,-8.16,57.14,-8.147,342.9,-93.473,2365.31
233,MSI,3,356,0.773,0,0,1,-6.598,59.22,-10.582,492.14,-10.902,2592.31,-8.16,57.14,-8.147,342.9,-93.473,2365.31
234,MSI,3,356,0.773,0,0,1,-6.598,59.22,-10.582,492.14,-10.902,2592.31,-8.16,57.14,-8.147,342.9,-93.473,2365.31
235,MSI,3,356,0.773,0,0,1,-6.598,59.22,-10.582,492.14,-10.902,2592.31,-8.16,57.14,-8.147,342.9,-93.473,2365.31
236,MSI,3,356,0.773,0,0,1,-6.598,59.22,-10.582,492.14,-10.902,2592.31,-8.16,57.14,-8.147,342.9,-93.473,2365.31
237,MSI,3,356,0.773,0,0,1,-6.598,59.22,-10.582,492.14,-10.902,2592.31,-8.16,57.14,-8.147,342.9,-93.473,2365.31
238,MSI,3,356,0.773,0,0,1,-6.598,59.22,-10.582,492.14,-10.902,2592.31,-8.16,57.14,-8.147,342.9,-93.473,2365.31
239,MSI,3,356,0.773,0,0,1,-6.598,59.22,-10.582,492.14,-10.902,2592.31,-8.16,57.14,-8.147,342.9,-93.473,2365.31
240,MSI,3,356,0.773,0,0,1,-6.598,59.22,-10.582,492.14,-10.902,2592.31,-8.16,57.14,-8.147,342.9,-93.473,2365.31
241,MSI,3,356,0.773,0,0,1,-6.598,59.22,-10.582,492.14,-10.902,2592.31,-8.16,57.14,-8.147,342.9,-93.473,2365.31
242,MSI,3,356,0.773,0,0,1,-6.598,59.22,-10.582,492.14,-10.902,2592.31,-8.16,57.14,-8.147,342.9,-93.473,2365.31
243,MSI,3,356,0.773,0,0,1,-6.598,59.22,-10.582,492.14,-10.902,2592.31,-8.16,57.14,-8.147,342.9,-93.473,2365.31
244,MSI,3,356,0.773,0,0,1,-6.598,59.22,-10.582,492.14,-10.902,2592.31,-8.16,57.14,-8.147,342.9,-93.473,2365.31
245,MSI,3,356,0.773,0,0,1,-6.598,59.22,-10.582,492.14,-10.902,2592.31,-8.16,57.14,-8.147,342.9,-93.473,2365.31
246,MSI,3,356,0.773,0,0,1,-6.598,59.22,-10.582,492.14,-10.902,2592.31,-8.16,57.14,-8.147,342.9,-93.473,2365.31
247,MSI,3,356,0.773,0,0,1,-6.598,59.22,-10.582,492.14,-10.902,2592.31,-8.16,57.14,-8.147,342.9,-93.473,2365.31
248,MSI,3,356,0.773,0,0,1,-6.598,59.22,-10.582,492.14,-10.902,2592.31,-8.16,57.14,-8.147,342.9,-93.473,2365.31
249,MSI,3,356,0.773,0,0,1,-6.598,59.22,-10.582,492.14,-10.902,2592.31,-8.16,57.14,-8.147,342.9,-93.473,2365.31
250,MSI,3,356,0.773,0,0,1,-6.598,59.22,-10.582,492.14,-10.902,2592.31,-8.16,57.14,-8.147,342.9,-93.473,2365.31
251,MSI,3,356,0.773,0,0,1,-6.598,59.22,-10.582,492.14,-10.902,2592.31,-8.16,57.14,-8.147,342.9,-93.473,2365.31
252,MSI,3,356,0.773,0,0,1,-6.598,59.22,-10.582,492.14,-10.902,2592.31,-8.16,57.14,-8.147,342.9,-93.473,2365.31
253,MSI,3,356,0.773,0,0,1,-6.598,59.22,-10.582,492.14,-10.902,2592.31,-8.16,57.14,-8.147,342.9,-93.473,2365.31
254,MSI,3,356,0.773,0,0,1,-6.598,59.22,-10.582,492.14,-10.902,2592.31,-8.16,57.14,-8.147,342.9,-93.473,2365.31
255,MSI,3,356,0.773,0,0,1,-6.598,59.22,-10.582,492.14,-10.902,2592.31,-8.16,57.14,-8.147,342.9,-93.473,2365.31
256,MSI,3,356,0.773,0,0,1,-6.598,59.22,-10.582,492.14,-10.902,2592.31,-8.16,57.14,-8.147,342.9,-93.473,2365.31
257,MSI,3,356,0.773,0,0,1,-6.598,59.22,-10.582,492.14,-10.902,2592.31,-8.16,57.14,-8.147,342.9,-93.473,2365.31
258,MSI,3,356,0.773,0,0,1,-6.598,59.22,-10.582,492.14,-10.902,2592.31,-8.16,57.14,-8.147,342.9,-93.473,2365.31
259,MSI,3,356,0.773,0,0,1,-6.598,59.22,-10.582,492.14,-10.902,2592.31,-8.16,57.14,-8.147,342.9,-93.473,2365.31
260,MSI,3,356,0.773,0,0,1,-6.598,59.22,-10.582,492.14,-10.902,2592.31,-8.16,57.14,-8.147,342.9,-93.473,2365.31
261,MSI,3,356,0.773,0,0,1,-6.598,59.22,-10.582,492.14,-10.902,2592.31,-8.16,57.14,-8.147,342.9,-93.473,2365.31
262,MSI,3,356,0.773,0,0,1,-6.598,59.22,-10.582,492.14,-10.902,2592.31,-8.16,57.14,-8.147,342.9,-93.473,2365.31
263,MSI,3,356,0.773,0,0,1,-6.598,59.22,-10.582,492.14,-10.902,2592.31,-8.16,57.14,-8.147,342.9,-93.473,2365.31
264,MSI,3,356,0.773,0,0,1,-6.598,59.22,-10.582,492.14,-10.902,2592.31,-8.16,57.14,-8.147,342.9,-93.473,2365.31
265,MSI,3,356,0.773,0,0,1,-6.598,59.22,-10.582,492.14,-10.902,2592.31,-8.16,57.14,-8.147,342.9,-93.473,2365.31
266,MSI,3,356,0.773,0,0,1,-6.598,59.22,-10.582,492.14,-10.902,2592.31,-8.16,57.14,-8.147,342.9,-93.473,2365.31
267,MSI,3,356,0.773,0,0,1,-6.598,59.22,-10.582,492.14,-10.902,2592.31,-8.16,57.14,-8.147,342.9,-93.473,2365.31
268,MSI,3,356,0.773,0,0,1,-6.598,59.22,-10.582,492.14,-10.902,2592.31,-8.16,57.14,-8.147,342.9,-93.473,2365.31
269,MSI,3,356,0.773,0,0,1,-6.598,59.22,-10.582,492.14,-10.902,2592.31,-8.16,57.14,-8.147,342.9,-93.473,2365.31
270,MSI,3,356,0.773,0,0,1,-6.598,59.22,-10.582,492.14,-10.902,2592.31,-8.16,57.14,-8.147,342.9,-93.473,2365.31
271,MSI,3,356,0.773,0,0,1,-6.598,59.22,-10.582,492.14,-10.902,2592.31,-8.16,57.14,-8.147,342.9,-93.473,2365.31
272,MSI,3,356,0.773,0,0,1,-6.598,59.22,-10.582,492.14,-10.902,2592.31,-8.16,57.14,-8.147,342.9,-93.473,2365.31
273,MSI,3,356,0.773,0,0,1,-6.598,59.22,-10.582,492.14,-10.902,2592.31,-8.16,57.14,-8.147,342.9,-93.473,2365.31
274,MSI,3,356,0.773,0,0,1,-6.598,59.22,-10.582,492.14,-10.902,2592.31,-8.16,57.14,-8.147,342.9,-93.473,2365.31
275,MSI,3,356,0.773,0,0,1,-6.598,59.22,-10.582,492.14,-10.902,2592.31,-8.16,57.14,-8.147,342.9,-93.473,2365.31
276,MSI,3,356,0.773,0,0,1,-6.598,59.22,-10.582,492.14,-10.902,2592.31,-8.16,57.14,-8.147,342.9,-93.473,2365.31
277,MSI,3,356,0.773,0,0,1,-6.598,59.22,-10.582,492.14,-10.902,2592.31,-8.16,57.14,-8.147,342.9,-93.473,2365.31
278,MSI,3,356,0.773,0,0,1,-6.598,59.22,-10.582,492.14,-10.902,2592.31,-8.16,57.14,-8.147,342.9,-93.473,2365.31
279,MSI,3,356,0.773,0,0,1,-6.598,59.22,-10.582,492.14,-10.902,2592.31,-8.16,57.14,-8.147,342.9,-93.473,2365.31
280,MSI,3,356,0.773,0,0,1,-6.598,59.22,-10.582,492.14,-10.902,2592.31,-8.16,57.14,-8.147,342.9,-93.473,2365.31
281,MSI,3,356,0.773,0,0,1,-6.598,59.22,-10.582,492.14,-10.902,2592.31,-8.16,57.14,-8.147,342.9,-93.473,2365.31
282,MSI,3,356,0.773,0,0,1,-6.598,59.22,-10.582,492.14,-10.902,2592.31,-8.16,57.14,-8.147,342.9,-93.473,2365.31
283,MSI,3,356,0.773,0,0,1,-6.598,59.22,-10.582,492.14,-10.902,2592.31,-8.16,57.14,-8.147,342.9,-93.473,2365.31
284,MSI,3,356,0.773,0,0,1,-6.598,59.22,-10.582,492.14,-10.902,2592.31,-8.16,57.14,-8.147,342.9,-93.473,2365.31
285,MSI,3,356,0.773,0,0,1,-6.598,59.22,-10.582,492.14,-10.902,2592.31,-8.16,57.14,-8.147,342.9,-93.473,2365.31
286,MSI,3,356,0.773,0,0,1,-6.598,59.22,-10.582,492.14,-10.902,2592.31,-8.16,57.14,-8.147,342.9,-93.473,2365.31
287,MSI,3,356,0.773,0,0,1,-6.598,59.22,-10.582,492.14,-10.902,2592.31,-8.16,57.14,-8.147,342.9,-93.473,2365.31
288,MSI,3,356,0.773,0,0,1,-6.598,59.22,-10.582,492.14,-10.902,2592.31,-8.16,57.14,-8.147,342.9,-93.473,2365.31
289,MSI,3,356,0.773,0,0,1,-6.598,59.22,-10.582,492.14,-10.902,2592.31,-8.16,57.14,-8.147,342.9,-93.473,2365.31
290,MSI,3,356,0.773,0,0,1,-6.598,59.22,-10.582,492.14,-10.902,2592.31,-8.16,57.14,-8.147,342.9,-93.473,2365.31
291,MSI,3,356,0.773,0,0,1,-6.598,59.22,-10.582,492.14,-10.902,2592.31,-8.16,57.14,-8.147,342.9,-93.473,2365.31
292,MSI,3,356,0.773,0,0,1,-6.598,59.22,-10.582,492.14,-10.902,2592.31,-8.16,57.14,-8.147,342.9,-93.473,2365.31
293,MSI,3,356,0.773,0,0,1,-6.598,59.22,-10.582,492.14,-10.902,2592.31,-8.16,57.14,-8.147,342.9,-93.473,2365.31
294,MSI,3,356,0.773,0,0,1,-6.598,59.22,-10.582,492.14,-10.902,2592.31,-8.16,57.14,-8.147,342.9,-93.473,2365.31
295,MSI,3,356,0.773,0,0,1,-6.598,59.22,-10.582,492.14,-10.902,2592.31,-8.16,57.14,-8.147,342.9,-93.473,2365.31
296,MSI,3,356,0.773,0,0,1,-6.598,59.22,-10.582,492.14,-10.902,2592.31,-8.16,57.14,-8.147,342.9,-93.473,2365.31
297,MSI,3,356,0.773,0,0,1,-6.598,59.22,-10.582,492.14,-10.902,2592.31,-8.16,57.14,-8.147,342.9,-93.473,2365.31
298,MSI,3,356,0.773,0,0,1,-6.598,59.22,-10.582,492.14,-10.902,2592.31,-8.16,57.14,-8.147,342.9,-93.473,2365.31
299,MSI,3,356,0.773,0,0,1,-6.598,59.22,-10.582,492.14,-10.902,2592.31,-8.16,57.14,-8.147,342.9,-93.473,2365.31
300,MSI,3,356,0.773,0,0,1,-6.598,59.22,-10.582,492.14,-10.902,2592.31,-8.16,57.14,-8.147,342.9,-93.473,2365.31
301,MSI,3,356,0.773,0,0,1,-6.598,59.22,-10.582,492.14,-10.902,2592.31,-8.16,57.14,-8.147,342.9,-93.473,2365.31
302,MSI,3,356,0.773,0,0,1,-6.598,59.22,-10.582,492.14,-10.902,2592.31,-8.16,57.14,-8.147,342.9,-93.473,2365.31
303,MSI,3,356,0.773,0,0,1,-6.598,59.22,-10.582,492.14,-10.902,2592.31,-8.16,57.14,-8.147,342.9,-93.473,2365.31
304,MSI,3,356,0.773,0,0,1,-6.598,59.22,-10.582,492.14,-10.902,2592.31,-8.16,57.14,-8.147,342.9,-93.473,2365.31
305,MSI,3,356,0.773,0,0,1,-6.598,59.22,-10.582,492.14,-10.902,2592.31,-8.16,57.14,-8.147,342.9,-93.473,2365.31
306,MSI,3,356,0.773,0,0,1,-6.598,59.22,-10.582,492.14,-10.902,2592.31,-8.16,57.14,-8.147,342.9,-93.473,2365.31
307,MSI,3,356,0.773,0,0,1,-6.598,59.22,-10.582,492.14,-10.902,2592.31,-8.16,57.14,-8.147,342.9,-93.473,2365.31
308,MSI,3,356,0.773,0,0,1,-6.598,59.22,-10.582,492.14,-10.902,2592.31,-8.16,57.14,-8.147,342.9,-93.473,2365.31
309,MSI,3,356,0.773,0,0,1,-6.598,59.22,-10.582,492.14,-10.902,2592.31,-8.16,57.14,-8.147,342.9,-93.473,2365.31
310,MSI,3,356,0.773,0,0,1,-6.598,59.22,-10.582,492.14,-10.902,2592.31,-8.16,57.14,-8.147,342.9,-93.473,2365.31
311,MSI,3,356,0.773,0,0,1,-6.598,59.22,-10.582,492.14,-10.902,2592.31,-8.16,57.14,-8.147,342.9,-93.473,2365.31
312,MSI,3,356,0.773,0,0,1,-6.598,59.22,-10.582,492.14,-10.902,2592.31,-8.16,57.14,-8.147,342.9,-93.473,2365.31
313,MSI,3,356,0.773,0,0,1,-6.598,59.22,-10.582,492.14,-10.902,2592.31,-8.16,57.14,-8.147,342.9,-93.473,2365.31
314,MSI,3,356,0.773,0,0,1,-6.598,59.22,-10.582,492.14,-10.902,2592.31,-8.16,57.14,-8.147,342.9,-93.473,2365.31
315,MSI,3,356,0.773,0,0,1,-6.598,59.22,-10.582,492.14,-10.902,2592.31,-8.16,57.14,-8.147,342.9,-93.473,2365.31
316,MSI,3,356,0.773,0,0,1,-6.598,59.22,-10.582,492.14,-10.902,2592.31,-8.16,57.14,-8.147,342.9,-93.473,2365.31
317,MSI,3,356,0.773,0,0,1,-6.598,59.22,-10.582,492.14,-10.902,2592.31,-8.16,57.14,-8.147,342.9,-93.473,2365.31
318,MSI,3,356,0.773,0,0,1,-6.598,59.22,-10.582,492.14,-10.902,2592.31,-8.16,57.14,-8.147,342.9,-93.473,2365.31
319,MSI,3,356,0.773,0,0,1,-6.598,59.22,-10.582,492.14,-10.902,2592.31,-8.16,57.14,-8.147,342.9,-93.473,2365.31
320,MSI,3,356,0.773,0,0,1,-6.598,59.22,-10.582,492.14,-10.902,2592.31,-8.16,57.14,-8.147,342.9,-93.473,2365.31
321,MSI,3,356,0.773,0,0,1,-6.598,59.22,-10.582,492.14,-10.902,2592.31,-8.16,57.14,-8.147,342.9,-93.473,2365.31
322,MSI,3,356,0.773,0,0,1,-6.598,59.22,-10.582,492.14,-10.902,2592.31,-8.16,57.14,-8.147,342.9,-93.473,2365.31
323,MSI,3,356,0.773,0,0,1,-6.598,59.22,-10.582,492.14,-10.902,2592.31,-8.16,57.14,-8.147,342.9,-93.473,2365.31
324,MSI,3,356,0.773,0,0,1,-6.598,59.22,-10.582,492.14,-10.902,2592.31,-8.16,57.14,-8.147,342.9,-93.473,2365.31
325,MSI,3,356,0.773,0,0,1,-6.598,59.22,-10.582,492.14,-10.902,2592.31,-8.16,57.14,-8.147,342.9,-93.473,2365.31
326,MSI,3,356,0.773,0,0,1,-6.598,59.22,-10.582,492.14,-10.902,2592.31,-8.16,57.14,-8.147,342.9,-93.473,2365.31
327,MSI,3,356,0.773,0,0,1,-6.598,59.22,-10.582,492.14,-10.902,2592.31,-8.16,57.14,-8.147,342.9,-93.473,2365.31
328,MSI,3,356,0.773,0,0,1,-6.598,59.22,-10.582,492.14,-10.902,2592.31,-8.16,57.14,-8.147,342.9,-93.473,2365.31
329,MSI,3,356,0.773,0,0,1,-6.598,59.22,-10.582,492.14,-10.902,2592.31,-8.16,57.14,-8.147,342.9,-93.473,2365.31
330,MSI,3,356,0.773,0,0,1,-6.598,59.22,-10.582,492.14,-10.902,2592.31,-8.16,57.14,-8.147,342.9,-93.473,2365.31
331,MSI,3,356,0.773,0,0,1,-6.598,59.22,-10.582,492.14,-10.902,2592.31,-8.16,57.14,-8.147,342.9,-93.473,2365.31
332,MSI,3,356,0.773,0,0,1,-6.598,59.22,-10.582,492.14,-10.902,2592.31,-8.16,57.14,-8.147,342.9,-93.473,2365.31
333,MSI,3,356,0.773,0,0,1,-6.598,59.22,-10.582,492.14,-10.902,2592.31,-8.16,57.14,-8.147,342.9,-93.473,2365.31
334,MSI,3,356,0.773,0,0,1,-6.598,59.22,-10.582,492.14,-10.902,2592.31,-8.16,57.14,-8.147,342.9,-93.473,2365.31
335,MSI,3,356,0.773,0,0,1,-6.598,59.22,-10.582,492.14,-10.902,2592.31,-8.16,57.14,-8.147,342.9,-93.473,2365.31
336,MSI,3,356,0.773,0,0,1,-6.598,59.22,-10.582,492.14,-10.902,2592.31,-8.16,57.14,-8.147,342.9,-93.473,2365.31
337,MSI,3,356,0.773,0,0,1,-6.598,59.22,-10.582,492.14,-10.902,2592.31,-8.16,57.14,-8.147,342.9,-93.473,2365.31
338,MSI,3,356,0.773,0,0,1,-6.598,59.22,-10.582,492.14,-10.902,2592.31,-8.16,57.14,-8.147,342.9,-93.473,2365.31
339,MSI,3,356,0.773,0,0,1,-6.598,59.22,-10.582,492.14,-10.902,2592.31,-8.16,57.14,-8.147,342.9,-93.473,2365.31
340,MSI,3,356,0.773,0,0,1,-6.598,59.22,-10.582,492.14,-10.902,2592.31,-8.16,57.14,-8.147,342.9,-93.473,2365.31
341,MSI,3,356,0.773,0,0,1,-6.598,59.22,-10.582,492.14,-10.902,2592.31,-8.16,57.14,-8.147,342.9,-93.473,2365.31
342,MSI,3,356,0.773,0,0,1,-6.598,59.22,-10.582,492.14,-10.902,2592.31,-8.16,57.14,-8.147,342.9,-93.473,2365.31
343,MSI,3,356,0.773,0,0,1,-6.598,59.22,-10.582,492.14,-10.902,2592.31,-8.16,57.14,-8.147,342.9,-93.473,2365.31
344,MSI,3,356,0.773,0,0,1,-6.598,59.22,-10.582,492.14,-10.902,2592.31,-8.16,57.14,-8.147,342.9,-93.473,2365.31
345,MSI,3,356,0.773,0,0,1,-6.598,59.22,-10.582,492.14,-10.902,2592.31,-8.16,57.14,-8.147,342.9,-93.473,2365.31
346,MSI,3,356,0.773,0,0,1,-6.598,59.22,-10.582,492.14,-10.902,2592.31,-8.16,57.14,-8.147,342.9,-93.473,2365.31
347,MSI,3,356,0.773,0,0,1,-6.598,59.22,-10.582,492.14,-10.902,2592.31,-8.16,57.14,-8.147,342.9,-93.473,2365.31
348,MSI,3,356,0.773,0,0,1,-6.598,59.22,-10.582,492.14,-10.902,2592.31,-8.16,57.14,-8.147,342.9,-93.473,2365.31
349,MSI,3,356,0.773,0,0,1,-6.598,59.22,-10.582,492.14,-10.902,2592.31,-8.16,57.14,-8.147,342.9,-93.473,2365.31
350,MSI,3,356,0.773,0,0,1,-6.598,59.22,-10.582,492.14,-10.902,2592.31,-8.16,57.14,-8.147,342.9,-93.473,2365.31
351,MSI,3,356,0.773,0,0,1,-6.598,59.22,-10.582,492.14,-10.902,2592.31,-8.16,57.14,-8.147,342.9,-93.473,2365.31
352,MSI,3,356,0.773,0,0,1,-6.598,59.22,-10.582,492.14,-10.902,2592.31,-8.16,57.14,-8.147,342.9,-93.473,2365.31
353,MSI,3,356,0.773,0,0,1,-6.598,59.22,-10.582,492.14,-10.902,2592.31,-8.16,57.14,-8.147,342.9,-93.473,2365.31
354,MSI,3,356,0.773,0,0,1,-6.598,59.22,-10.582,492.14,-10.902,2592.31,-8.16,57.14,-8.147,342.9,-93.473,2365.31
355,MSI,3,356,0.773,0,0,1,-6.598,59.22,-10.582,492.14,-10.902,2592.31,-8.16,57.14,-8.147,342.9,-93.473,2365.31
356,MSI,3,356,0.773,0,0,1,-6.598,59.22,-10.582,492.14,-10.902,2592.31,-8.16,57.14,-8.147,342.9,-93.473,2365.31
357,MSI,3,356,0.773,0,0,1,-6.598,59.22,-10.582,492.14,-10.902,2592.31,-8.16,57.14,-8.147,342.9,-93.473,2365.31
358,MSI,3,356,0.773,0,0,1,-6.598,59.22,-10.582,492.14,-10.902,2592.31,-8.16,57.14,-8.147,342.9,-93.473,2365.31
359,MSI,3,356,0.773,0,0,1,-6.598,59.22,-10.582,492.14,-10.902,2592.31,-8.16,57.14,-8.147,342.9,-93.473,2365.31
360,MSI,3,356,0.773,0,0,1,-6.598,59.22,-10.582,492.14,-10.902,2592.31,-8.16,57.14,-8.147,342.9,-93.473,2365.31
361,MSI,3,356,0.773,0,0,1,-6.598,59.22,-10.582,492.14,-10.902,2592.31,-8.16,57.14,-8.147,342.9,-93.473,2365.31
362,MSI,3,356,0.773,0,0,1,-6.598,59.22,-10.582,492.14,-10.902,2592.31,-8.16,57.14,-8.147,342.9,-93.473,2365.31
363,MSI,3,356,0.773,0,0,1,-6.598,59.22,-10.582,492.14,-10.902,2592.31,-8.16,57.14,-8.147,342.9,-93.473,2365.31
364,MSI,3,356,0.773,0,0,1,-6.598,59.22,-10.582,492.14,-10.902,2592.31,-8.16,57.14,-8.147,342.9,-93.473,2365.31
365,MSI,3,356,0.773,0,0,1,-6.598,59.22,-10.582,492.14,-10.902,2592.31,-8.16,57.14,-8.147,342.9,-93.473,2365.31
366,MSI,3,356,0.773,0,0,1,-6.598,59.22,-10.582,492.14,-10.902,2592.31,-8.16,57.14,-8.147,342.9,-93.473,2365.31
367,MSI,3,356,0.773,0,0,1,-6.598,59.22,-10.582,492.14,-10.902,2592.31,-8.16,57.14,-8.147,342.9,-93.473,2365.31
368,MSI,3,356,0.773,0,0,1,-6.598,59.22,-10.582,492.14,-10.902,2592.31,-8.16,57.14,-8.147,342.9,-93.473,2365.31
369,MSI,3,356,0.773,0,0,1,-6.598,59.22,-10.582,492.14,-10.902,2592.31,-8.16,57.14,-8.147,342.9,-93.473,2365.31
370,MSI,3,356,0.773,0,0,1,-6.598,59.22,-10.582,492.14,-10.902,2592.31,-8.16,57.14,-8.147,342.9,-93.473,2365.31
371,MSI,3,356,0.773,0,0,1,-6.598,59.22,-10.582,492.14,-10.902,2592.31,-8.16,57.14,-8.147,342.9,-93.473,2365.31
372,MSI,3,356,0.773,0,0,1,-6.598,59.22,-10.582,492.14,-10.902,2592.31,-8.16,57.14,-8.147,342.9,-93.473,2365.31
373,MSI,3,356,0.773,0,0,1,-6.598,59.22,-10.582,492.14,-10.902,2592.31,-8.16,57.14,-8.147,342.9,-93.473,2365.31
374,MSI,3,356,0.773,0,0,1,-6.598,59.22,-10.582,492.14,-10.902,2592.31,-8.16,57.14,-8.147,342.9,-93.473,2365.31
375,MSI,3,356,0.773,0,0,1,-6.598,59.22,-10.582,492.14,-10.902,2592.31,-8.16,57.14,-8.147,342.9,-93.473,2365.31
376,MSI,3,356,0.773,0,0,1,-6.598,59.22,-10.582,492.14,-10.902,2592.31,-8.16,57.14,-8.147,342.9,-93.473,2365.31
377,MSI,3,356,0.773,0,0,1,-6.598,59.22,-10.582,492.14,-10.902,2592.31,-8.16,57.14,-8.147,342.9,-93.473,2365.31
378,MSI,3,356,0.773,0,0,1,-6.598,59.22,-10.582,492.14,-10.902,2592.31,-8.16,57.14,-8.147,342.9,-93.473,2365.31
379,MSI,3,356,0.773,0,0,1,-6.598,59.22,-10.582,492.14,-10.902,2592.31,-8.16,57.14,-8.147,342.9,-93.473,2365.31
380,MSI,3,356,0.773,0,0,1,-6.598,59.22,-10.582,492.14,-10.902,2592.31,-8.16,57.14,-8.147,342.9,-93.473,2365.31
381,MSI,3,356,0.773,0,0,1,-6.598,59.22,-10.582,492.14,-10.902,2592.31,-8.16,57.14,-8.147,342.9,-93.473,2365.31
382,MSI,3,356,0.773,0,0,1,-6.598,59.22,-10.582,492.14,-10.902,2592.31,-8.16,57.14,-8.147,342.9,-93.473,2365.31
383,MSI,3,356,0.773,0,0,1,-6.598,59.22,-10.582,492.14,-10.902,2592.31,-8.16,57.14,-8.147,342.9,-93.473,2365.31
384,MSI,3,356,0.773,0,0,1,-6.598,59.22,-10.582,492.14,-10.902,2592.31,-8.16,57.14,-8.147,342.9,-93.473,2365.31
385,MSI,3,356,0.773,0,0,1,-6.598,59.22,-10.582,492.14,-10.902,2592.31,-8.16,57.14,-8.147,342.9,-93.473,2365.31
386,MSI,3,356,0.773,0,0,1,-6.598,59.22,-10.582,492.14,-10.902,2592.31,-8.16,57.14,-8.147,342.9,-93.473,2365.31
387,MSI,3,356,0.773,0,0,1,-6.598,59.22,-10.582,492.14,-10.902,2592.31,-8.16,57.14,-8.147,342.9,-93.473,2365.31
388,MSI,3,356,0.773,0,0,1,-6.598,59.22,-10.582,492.14,-10.902,2592.31,-8.16,57.14,-8.147,342.9,-93.473,2365.31
389,MSI,3,356,0.773,0,0,1,-6.598,59.22,-10.582,492.14,-10.902,2592.31,-8.16,57.14,-8.147,342.9,-93.473,2365.31
390,MSI,3,356,0.773,0,0,1,-6.598,59.22,-10.582,492.14,-10.902,2592.31,-8.16,57.14,-8.147,342.9,-93.473,2365.31
391,MSI,3,356,0.773,0,0,1,-6.598,59.22,-10.582,492.14,-10.902,2592.31,-8.16,57.14,-8.147,342.9,-93.473,2365.31
392,MSI,3,356,0.773,0,0,1,-6.598,59.22,-10.582,492.14,-10.902,2592.31,-8.16,57.14,-8.147,342.9,-93.473,2365.31
393,MSI,3,356,0.773,0,0,1,-6.598,59.22,-10.582,492.14,-10.902,2592.31,-8.16,57.14,-8.147,342.9,-93.473,2365.31
394,MSI,3,356,0.773,0,0,1,-6.598,59.22,-10.582,492.14,-10.902,2592.31,-8.16,57.14,-8.147,342.9,-93.473,2365.31
395,MSI,3,356,0.773,0,0,1,-6.598,59.22,-10.582,492.14,-10.902,2592.31,-8.16,57.14,-8.147,342.9,-93.473,2365.31
396,MSI,3,356,0.773,0,0,1,-6.598,59.22,-10.582,492.14,-10.902,2592.31,-8.16,57.14,-8.147,342.9,-93.473,2365.31
397,MSI,3,356,0.773,0,0,1,-6.598,59.22,-10.582,492.14,-10.902,2592.31,-8.16,57.14,-8.147,342.9,-93.473,2365.31
398,MSI,3,356,0.773,0,0,1,-6.598,59.22,-10.582,492.14,-10.902,2592.31,-8.16,57.14,-8.147,342.9,-93.473,2365.31
399,MSI,3,356,0.773,0,0,1,-6.598,59.22,-10.582,492.14,-10.902,2592.31,-8.16,57.14,-8.147,342.9,-93.473,2365.31
400,MSI,3,356,0.773,0,0,1,-6.598,59.22,-10.582,492.14,-10.902,2592.31,-8.16,57.14,-8.147,342.9,-93.473,2365.31
401,MSI,3,356,0.773,0,0,1,-6.598,59.22,-10.582,492.14,-10.902,2592.31,-8.16,57.14,-8.147,342.9,-93.473,2365.31
402,MSI,3,356,0.773,0,0,1,-6.598,59.22,-10.582,492.14,-10.902,2592.31,-8.16,57.14,-8.147,342.9,-93.473,2365.31
403,MSI,3,356,0.773,0,0,1,-6.598,59.22,-10.582,492.14,-10.902,2592.31,-8.16,57.14,-8.147,342.9,-93.473,2365.31
404,MSI,3,356,0.773,0,0,1,-6.598,59.22,-10.582,492.14,-10.902,2592.31,-8.16,57.14,-8.147,342.9,-93.473,2365.31
405,MSI,3,356,0.773,0,0,1,-6.598,59.22,-10.582,492.14,-10.902,2592.31,-8.16,57.14,-8.147,342.9,-93.473,2365.31
406,MSI,3,356,0.773,0,0,1,-6.598,59.22,-10.582,492.14,-10.902,2592.31,-8.16,57.14,-8.147,342.9,-93.473,2365.31
407,MSI,3,356,0.773,0,0,1,-6.598,59.22,-10.582,492.14,-10.902,2592.31,-8.16,57.14,-8.147,342.9,-93.473,2365.31
408,MSI,3,356,0.773,0,0,1,-6.598,59.22,-10.582,492.14,-10.902,2592.31,-8.16,57.14,-8.147,342.9,-93.473,2365.31
409,MSI,3,356,0.773,0,0,1,-6.598,59.22,-10.582,492.14,-10.902,2592.31,-8.16,57.14,-8.147,342.9,-93.473,2365.31
410,MSI,3,356,0.773,0,0,1,-6.598,59.22,-10.582,492.14,-10.902,2592.31,-8.16,57.14,-8.147,342.9,-93.473,2365.31
411,MSI,3,356,0.773,0,0,1,-6.598,59.22,-10.582,492.14,-10.902,2592.31,-8.16,57.14,-8.147,342.9,-93.473,2365.31
412,MSI,3,356,0.773,0,0,1,-6.598,59.22,-10.582,492.14,-10.902,2592.31,-8.16,57.14,-8.147,342.9,-93.473,2365.31
413,MSI,3,356,0.773,0,0,1,-6.598,59.22,-10.582,492.14,-10.902,2592.31,-8.16,57.14,-8.147,342.9,-93.473,2365.31
414,MSI,3,356,0.773,0,0,1,-6.598,59.22,-10.582,492.14,-10.902,2592.31,-8.16,57.14,-8.147,342.9,-93.473,2365.31
415,MSI,3,356,0.773,0,0,1,-6.598,59.22,-10.582,492.14,-10.902,2592.31,-8.16,57.14,-8.147,342.9,-93.473,2365.31
416,MSI,3,356,0.773,0,0,1,-6.598,59.22,-10.582,492.14,-10.902,2592.31,-8.16,57.14,-8.147,342.9,-93.473,2365.31
417,MSI,3,356,0.773,0,0,1,-6.598,59.22,-10.582,492.14,-10.902,2592.31,-8.16,57.14,-8.147,342.9,-93.473,2365.31
418,MSI,3,356,0.773,0,0,1,-6.598,59.22,-10.582,492.14,-10.902,2592.31,-8.16,57.14,-8.147,342.9,-93.473,2365.31
419,MSI,3,356,0.773,0,0,1,-6.598,59.22,-10.582,492.14,-10.902,2592.31,-8.16,57.14,-8.147,342.9,-93.473,2365.31
420,MSI,3,356,0.773,0,0,1,-6.598,59.22,-10.582,492.14,-10.902,2592.31,-8.16,57.14,-8.147,342.9,-93.473,2365.31
421,MSI,3,356,0.773,0,0,1,-6.598,59.22,-10.582,492.14,-10.902,2592.31,-8.16,57.14,-8.147,342.9,-93.473,2365.31
422,MSI,3,356,0.773,0,0,1,-6.598,59.22,-10.582,492.14,-10.902,2592.31,-8.16,57.14,-8.147,342.9,-93.473,2365.31
423,MSI,3,356,0.773,0,0,1,-6.598,59.22,-10.582,492.14,-10.902,2592.31,-8.16,57.14,-8.147,342.9,-93.473,2365.31
424,MSI,3,356,0.773,0,0,1,-6.598,59.22,-10.582,492.14,-10.902,2592.31,-8.16,57.14,-8.147,342.9,-93.473,2365.31
425,MSI,3,356,0.773,0,0,1,-6.598,59.22,-10.582,492.14,-10.902,2592.31,-8.16,57.14,-8.147,342.9,-93.473,2365.31
426,MSI,3,356,0.773,0,0,1,-6.598,59.22,-10.582,492.14,-10.902,2592.31,-8.16,57.14,-8.147,342.9,-93.473,2365.31
427,MSI,3,356,0.773,0,0,1,-6.598,59.22,-10.582,492.14,-10.902,2592.31,-8.16,57.14,-8.147,342.9,-93.473,2365.31
428,MSI,3,356,0.773,0,0,1,-6.598,59.22,-10.582,492.14,-10.902,2592.31,-8.16,57.14,-8.147,342.9,-93.473,2365.31
429,MSI,3,356,0.773,0,0,1,-6.598,59.22,-10.582,492.14,-10.902,2592.31,-8.16,57.14,-8.147,342.9,-93.473,2365.31
430,MSI,3,356,0.773,0,0,1,-6.598,59.22,-10.582,492.14,-10.902,2592.31,-8.16,57.14,-8.147,342.9,-93.473,2365.31
431,MSI,3,356,0.773,0,0,1,-6.598,59.22,-10.582,492.14,-10.902,2592.31,-8.16,57.14,-8.147,342.9,-93.473,2365.31
432,MSI,3,356,0.773,0,0,1,-6.598,59.22,-10.582,492.14,-10.902,2592.31,-8.16,57.14,-8.147,342.9,-93.473,2365.31
433,MSI,3,356,0.773,0,0,1,-6.598,59.22,-10.582,492.14,-10.902,2592.31,-8.16,57.14,-8.147,342.9,-93.473,2365.31
434,MSI,3,356,0.773,0,0,1,-6.598,59.22,-10.582,492.14,-10.902,2592.31,-8.16,57.14,-8.147,342.9,-93.473,2365.31
435,MSI,3,356,0.773,0,0,1,-6.598,59.22,-10.582,492.14,-10.902,2592.31,-8.16,57.14,-8.147,342.9,-93.473,2365.31
436,MSI,3,356,0.773,0,0,1,-6.598,59.22,-10.582,492.14,-10.902,2592.31,-8.16,57.14,-8.147,342.9,-93.473,2365.31
437,MSI,3,356,0.773,0,0,1,-6.598,59.22,-10.582,492.14,-10.902,2592.31,-8.16,57.14,-8.147,342.9,-93.473,2365.31
438,MSI,3,356,0.773,0,0,1,-6.598,59.22,-10.582,492.14,-10.902,2592.31,-8.16,57.14,-8.147,342.9,-93.473,2365.31
439,MSI,3,356,0.773,0,0,1,-6.598,59.22,-10.582,492.14,-10.902,2592.31,-8.16,57.14,-8.147,342.9,-93.473,2365.31
440,MSI,3,356,0.773,0,0,1,-6.598,59.22,-10.582,492.14,-10.902,2592.31,-8.16,57.14,-8.147,342.9,-93.473,2365.31
441,MSI,3,356,0.773,0,0,1,-6.598,59.22,-10.582,492.14,-10.902,2592.31,-8.16,57.14,-8.147,342.9,-93.473,2365.31
442,MSI,3,356,0.773,0,0,1,-6.598,59.22,-10.582,492.14,-10.902,2592.31,-8.16,57.14,-8.147,342.9,-93.473,2365.31
443,MSI,3,356,0.773,0,0,1,-6.598,59.22,-10.582,492.14,-10.902,2592.31,-8.16,57.14,-8.147,342.9,-93.473,2365.31
444,MSI,3,356,0.773,0,0,1,-6.598,59.22,-10.582,492.14,-10.902,2592.31,-8.16,57.14,-8.147,342.9,-93.473,2365.31
445,MSI,3,356,0.773,0,0,1,-6.598,59.22,-10.582,492.14,-10.902,2592.31,-8.16,57.14,-8.147,342.9,-93.473,2365.31
446,MSI,3,356,0.773,0,0,1,-6.598,59.22,-10.582,492.14,-10.902,2592.31,-8.16,57.14,-8.147,342.9,-93.473,2365.31
447,MSI,3,356,0.773,0,0,1,-6.598,59.22,-10.582,492.14,-10.902,2592.31,-8.16,57.14,-8.147,342.9,-93.473,2365.31
448,MSI,3,356,0.773,0,0,1,-6.598,59.22,-10.582,492.14,-10.902,2592.31,-8.16,57.14,-8.147,342.9,-93.473,2365.31
449,MSI,3,356,0.773,0,0,1,-6.598,59.22,-10.582,492.14,-10.902,2592.31,-8.16,57.14,-8.147,342.9,-93.473,2365.31
450,MSI,3,356,0.773,0,0,1,-6.598,59.22,-10.582,492.14,-10.902,2592.31,-8.16,57.14,-8.147,342.9,-93.473,2365.31
451,MSI,3,356,0.773,0,0,1,-6.598,59.22,-10.582,492.14,-10.902,2592.31,-8.16,57.14,-8.147,342.9,-93.473,2365.31
452,MSI,3,356,0.773,0,0,1,-6.598,59.22,-10.582,492.14,-10.902,2592.31,-8.16,57.14,-8.147,342.9,-93.473,2365.31
453,MSI,3,356,0.773,0,0,1,-6.598,59.22,-10.582,492.14,-10.902,2592.31,-8.16,57.14,-8.147,342.9,-93.473,2365.31
454,MSI,3,356,0.773,0,0,1,-6.598,59.22,-10.582,492.14,-10.902,2592.31,-8.16,57.14,-8.147,342.9,-93.473,2365.31
455,MSI,3,356,0.773,0,0,1,-6.598,59.22,-10.582,492.14,-10.902,2592.31,-8.16,57.14,-8.147,342.9,-93.473,2365.31
456,MSI,3,356,0.773,0,0,1,-6.598,59.22,-10.582,492.14,-10.902,2592.31,-8.16,57.14,-8.147,342.9,-93.473,2365.31
457,MSI,3,356,0.773,0,0,1,-6.598,59.22,-10.582,492.14,-10.902,2592.31,-8.16,57.14,-8.147,342.9,-93.473,2365.31
458,MSI,3,356,0.773,0,0,1,-6.598,59.22,-10.582,492.14,-10.902,2592.31,-8.16,57.14,-8.147,342.9,-93.473,2365.31
459,MSI,3,356,0.773,0,0,1,-6.598,59.22,-10.582,492.14,-10.902,2592.31,-8.16,57.14,-8.147,342.9,-93.473,2365.31
460,MSI,3,356,0.773,0,0,1,-6.598,59.22,-10.582,492.14,-10.902,2592.31,-8.16,57.14,-8.147,342.9,-93.473,2365.31
461,MSI,3,356,0.773,0,0,1,-6.598,59.22,-10.582,492.14,-10.902,2592.31,-8.16,57.14,-8.147,342.9,-93.473,2365.31
462,MSI,3,356,0.773,0,0,1,-6.598,59.22,-10.582,492.14,-10.902,2592.31,-8.16,57.14,-8.147,342.9,-93.473,2365.31
463,MSI,3,356,0.773,0,0,1,-6.598,59.22,-10.582,492.14,-10.902,2592.31,-8.16,57.14,-8.147,342.9,-93.473,2365.31
464,MSI,3,356,0.773,0,0,1,-6.598,59.22,-10.582,492.14,-10.902,2592.31,-8.16,57.14,-8.147,342.9,-93.473,2365.31
465,MSI,3,356,0.773,0,0,1,-6.598,59.22,-10.582,492.14,-10.902,2592.31,-8.16,57.14,-8.147,342.9,-93.473,2365.31
466,MSI,3,356,0.773,0,0,1,-6.598,59.22,-10.582,492.14,-10.902,2592.31,-8.16,57.14,-8.147,342.9,-93.473,2365.31
467,MSI,3,356,0.773,0,0,1,-6.598,59.22,-10.582,492.14,-10.902,2592.31,-8.16,57.14,-8.147,342.9,-93.473,2365.31
468,MSI,3,356,0.773,0,0,1,-6.598,59.22,-10.582,492.14,-10.902,2592.31,-8.16,57.14,-8.147,342.9,-93.473,2365.31
469,MSI,3,356,0.773,0,0,1,-6.598,59.22,-10.582,492.14,-10.902,2592.31,-8.16,57.14,-8.147,342.9,-93.473,2365.31
470,MSI,3,356,0.773,0,0,1,-6.598,59.22,-10.582,492.14,-10.902,2592.31,-8.16,57.14,-8.147,342.9,-93.473,2365.31
471,MSI,3,356,0.773,0,0,1,-6.598,59.22,-10.582,492.14,-10.902,2592.31,-8.16,57.14,-8.147,342.9,-93.473,2365.31
472,MSI,3,356,0.773,0,0,1,-6.598,59.22,-10.582,492.14,-10.902,2592.31,-8.16,57.14,-8.147,342.9,-93.473,2365.31
473,MSI,3,356,0.773,0,0,1,-6.598,59.22,-10.582,492.14,-10.902,2592.31,-8.16,57.14,-8.147,342.9,-93.473,2365.31
474,MSI,3,356,0.773,0,0,1,-6.598,59.22,-10.582,492.14,-10.902,2592.31,-8.16,57.14,-8.147,342.9,-93.473,2365.31
475,MSI,3,356,0.773,0,0,1,-6.598,59.22,-10.582,492.14,-10.902,2592.31,-8.16,57.14,-8.147,342.9,-93.473,2365.31
476,MSI,3,356,0.773,0,0,1,-6.598,59.22,-10.582,492.14,-10.902,2592.31,-8.16,57.14,-8.147,342.9,-93.473,2365.31
477,MSI,3,356,0.773,0,0,1,-6.598,59.22,-10.582,492.14,-10.902,2592.31,-8.16,57.14,-8.147,342.9,-93.473,2365.31
478,MSI,3,356,0.773,0,0,1,-6.598,59.22,-10.582,492.14,-10.902,2592.31,-8.16,57.14,-8.147,342.9,-93.473,2365.31
479,MSI,3,356,0.773,0,0,1,-6.598,59.22,-10.582,492.14,-10.902,2592.31,-8.16,57.14,-8.147,342.9,-93.473,2365.31
480,MSI,3,356,0.773,0,0,1,-6.598,59.22,-10.582,492.14,-10.902,2592.31,-8.16,57.14,-8.147,342.9,-93.473,2365.31
481,MSI,3,356,0.773,0,0,1,-6.598,59.22,-10.582,492.14,-10.902,2592.31,-8.16,57.14,-8.147,342.9,-93.473,2365.31
482,MSI,3,356,0.773,0,0,1,-6.598,59.22,-10.582,492.14,-10.902,2592.31,-8.16,57.14,-8.147,342.9,-93.473,2365.31
483,MSI,3,356,0.773,0,0,1,-6.598,59.22,-10.582,492.14,-10.902,2592.31,-8.16,57.14,-8.147,342.9,-93.473,2365.31
484,MSI,3,356,0.773,0,0,1,-6.598,59.22,-10.582,492.14,-10.902,2592.31,-8.16,57.14,-8.147,342.9,-93.473,2365.31
485,MSI,3,356,0.773,0,0,1,-6.598,59.22,-10.582,492.14,-10.902,2592.31,-8.16,57.14,-8.147,342.9,-93.473,2365.31
486,MSI,3,356,0.773,0,0,1,-6.598,59.22,-10.582,492.14,-10.902,2592.31,-8.16,57.14,-8.147,342.9,-93.473,2365.31
487,MSI,3,356,0.773,0,0,1,-6.598,59.22,-10.582,492.14,-10.902,2592.31,-8.16,57.14,-8.147,342.9,-93.473,2365.31
488,MSI,3,356,0.773,0,0,1,-6.598,59.22,-10.582,492.14,-10.902,2592.31,-8.16,57.14,-8.147,342.9,-93.473,2365.31
489,MSI,3,356,0.773,0,0,1,-6.598,59.22,-10.582,492.14,-10.902,2592.31,-8.16,57.14,-8.147,342.9,-93.473,2365.31
490,MSI,3,356,0.773,0,0,1,-6.598,59.22,-10.582,492.14,-10.902,2592.31,-8.16,57.14,-8.147,342.9,-93.473,2365.31
491,MSI,3,356,0.773,0,0,1,-6.598,59.22,-10.582,492.14,-10.902,2592.31,-8.16,57.14,-8.147,342.9,-93.473,2365.31
492,MSI,3,356,0.773,0,0,1,-6.598,59.22,-10.582,492.14,-10.902,2592.31,-8.16,57.14,-8.147,342.9,-93.473,2365.31
493,MSI,3,356,0.773,0,0,1,-6.598,59.22,-10.582,492.14,-10.902,2592.31,-8.16,57.14,-8.147,342.9,-93.473,2365.31
494,MSI,3,356,0.773,0,0,1,-6.598,59.22,-10.582,492.14,-10.902,2592.31,-8.16,57.14,-8.147,342.9,-93.473,2365.31
495,MSI,3,356,0.773,0,0,1,-6.598,59.22,-10.582,492.14,-10.902,2592.31,-8.16,57.14,-8.147,342.9,-93.473,2365.31
496,MSI,3,356,0.773,0,0,1,-6.598,59.22,-10.582,492.14,-10.902,2592.31,-8.16,57.14,-8.147,342.9,-93.473,2365.31
497,MSI,3,356,0.773,0,0,1,-6.598,59.22,-10.582,492.14,-10.902,2592.31,-8.16,57.14,-8.147,342.9,-93.473,2365.31
498,MSI,3,356,0.773,0,0,1,-6.598,59.22,-10.582,492.14,-10.902,2592.31,-8.16,57.14,-8.147,342.9,-93.473,2365.31
499,MSI,3,356,0.773,0,0,1,-6.598,59.22,-10.582,492.14,-10.902,2592.31,-8.16,57.14,-8.147,342.9,-93.473,2365.31
500,MSI,3,356,0.773,0,0,1,-6.598,59.22,-10.582,492.14,-10.902,2592.31,-8.16,57.14,-8.147,342.9,-93.473,2365.31
