,Stroke fatality,,,
Iteration,M<75,M>=75,F<75,F>=75
1,0.103,0.246,0.131,0.307
2,0.103,0.246,0.131,0.307
3,0.103,0.246,0.131,0.307
4,0.103,0.246,0.131,0.307
5,0.103,0.246,0.131,0.307
6,0.103,0.246,0.131,0.307
7,0.103,0.246,0.131,0.307
8,0.103,0.246,0.131,0.307
9,0.103,0.246,0.131,0.307
10,0.103,0.246,0.131,0.307
11,0.103,0.246,0.131,0.307
12,0.103,0.246,0.131,0.307
13,0.103,0.246,0.131,0.307
14,0.103,0.246,0.131,0.307
15,0.103,0.246,0.131,0.307
16,0.103,0.246,0.131,0.307
17,0.103,0.246,0.131,0.307
18,0.103,0.246,0.131,0.307
19,0.103,0.246,0.131,0.307
20,0.103,0.246,0.131,0.307
21,0.103,0.246,0.131,0.307
22,0.103,0.246,0.131,0.307
23,0.103,0.246,0.131,0.307
24,0.103,0.246,0.131,0.307
25,0.103,0.246,0.131,0.307
26,0.103,0.246,0.131,0.307
27,0.103,0.246,0.131,0.307
28,0.103,0.246,0.131,0.307
29,0.103,0.246,0.131,0.307
30,0.103,0.246,0.131,0.307
31,0.103,0.246,0.131,0.307
32,0.103,0.246,0.131,0.307
33,0.103,0.246,0.131,0.307
34,0.103,0.246,0.131,0.307
35,0.103,0.246,0.131,0.307
36,0.103,0.246,0.131,0.307
37,0.103,0.246,0.131,0.307
38,0.103,0.246,0.131,0.307
39,0.103,0.246,0.131,0.307
40,0.103,0.246,0.131,0.307
41,0.103,0.246,0.131,0.307
42,0.103,0.246,0.131,0.307
43,0.103,0.246,0.131,0.307
44,0.103,0.246,0.131,0.307
45,0.103,0.246,0.131,0.307
46,0.103,0.246,0.131,0.307
47,0.103,0.246,0.131,0.307
48,0.103,0.246,0.131,0.307
49,0.103,0.246,0.131,0.307
50,0.103,0.246,0.131,0.307
51,0.103,0.246,0.131,0.307
52,0.103,0.246,0.131,0.307
53,0.103,0.246,0.131,0.307
54,0.103,0.246,0.131,0.307
55,0.103,0.246,0.131,0.307
56,0.103,0.246,0.131,0.307
57,0.103,0.246,0.131,0.307
58,0.103,0.246,0.131,0.307
59,0.103,0.246,0.131,0.307
60,0.103,0.246,0.131,0.307
61,0.103,0.246,0.131,0.307
62,0.103,0.246,0.131,0.307
63,0.103,0.246,0.131,0.307
64,0.103,0.246,0.131,0.307
65,0.103,0.246,0.131,0.307
66,0.103,0.246,0.131,0.307
67,0.103,0.246,0.131,0.307
68,0.103,0.246,0.131,0.307
69,0.103,0.246,0.131,0.307
70,0.103,0.246,0.131,0.307
71,0.103,0.246,0.131,0.307
72,0.103,0.246,0.131,0.307
73,0.103,0.246,0.131,0.307
74,0.103,0.246,0.131,0.307
75,0.103,0.246,0.131,0.307
76,0.103,0.246,0.131,0.307
77,0.103,0.246,0.131,0.307
78,0.103,0.246,0.131,0.307
79,0.103,0.246,0.131,0.307
80,0.103,0.246,0.131,0.307
81,0.103,0.246,0.131,0.307
82,0.103,0.246,0.131,0.307
83,0.103,0.246,0.131,0.307
84,0.103,0.246,0.131,0.307
85,0.103,0.246,0.131,0.307
86,0.103,0.246,0.131,0.307
87,0.103,0.246,0.131,0.307
88,0.103,0.246,0.131,0.307
89,0.103,0.246,0.131,0.307
90,0.103,0.246,0.131,0.307
91,0.103,0.246,0.131,0.307
92,0.103,0.246,0.131,0.307
93,0.103,0.246,0.131,0.307
94,0.103,0.246,0.131,0.307
95,0.103,0.246,0.131,0.307
96,0.103,0.246,0.131,0.307
97,0.103,0.246,0.131,0.307
98,0.103,0.246,0.131,0.307
99,0.103,0.246,0.131,0.307
100,0.103,0.246,0.131,0.307
101,0.103,0.246,0.131,0.307
102,0.103,0.246,0.131,0.307
103,0.103,0.246,0.131,0.307
104,0.103,0.246,0.131,0.307
105,0.103,0.246,0.131,0.307
106,0.103,0.246,0.131,0.307
107,0.103,0.246,0.131,0.307
108,0.103,0.246,0.131,0.307
109,0.103,0.246,0.131,0.307
110,0.103,0.246,0.131,0.307
111,0.103,0.246,0.131,0.307
112,0.103,0.246,0.131,0.307
113,0.103,0.246,0.131,0.307
114,0.103,0.246,0.131,0.307
115,0.103,0.246,0.131,0.307
116,0.103,0.246,0.131,0.307
117,0.103,0.246,0.131,0.307
118,0.103,0.246,0.131,0.307
119,0.103,0.246,0.131,0.307
120,0.103,0.246,0.131,0.307
121,0.103,0.246,0.131,0.307
122,0.103,0.246,0.131,0.307
123,0.103,0.246,0.131,0.307
124,0.103,0.246,0.131,0.307
125,0.103,0.246,0.131,0.307
126,0.103,0.246,0.131,0.307
127,0.103,0.246,0.131,0.307
128,0.103,0.246,0.131,0.307
129,0.103,0.246,0.131,0.307
130,0.103,0.246,0.131,0.307
131,0.103,0.246,0.131,0.307
132,0.103,0.246,0.131,0.307
133,0.103,0.246,0.131,0.307
134,0.103,0.246,0.131,0.307
135,0.103,0.246,0.131,0.307
136,0.103,0.246,0.131,0.307
137,0.103,0.246,0.131,0.307
138,0.103,0.246,0.131,0.307
139,0.103,0.246,0.131,0.307
140,0.103,0.246,0.131,0.307
141,0.103,0.246,0.131,0.307
142,0.103,0.246,0.131,0.307
143,0.103,0.246,0.131,0.307
144,0.103,0.246,0.131,0.307
145,0.103,0.246,0.131,0.307
146,0.103,0.246,0.131,0.307
147,0.103,0.246,0.131,0.307
148,0.103,0.246,0.131,0.307
149,0.103,0.246,0.131,0.307
150,0.103,0.246,0.131,0.307
151,0.103,0.246,0.131,0.307
152,0.103,0.246,0.131,0.307
153,0.103,0.246,0.131,0.307
154,0.103,0.246,0.131,0.307
155,0.103,0.246,0.131,0.307
156,0.103,0.246,0.131,0.307
157,0.103,0.246,0.131,0.307
158,0.103,0.246,0.131,0.307
159,0.103,0.246,0.131,0.307
160,0.103,0.246,0.131,0.307
161,0.103,0.246,0.131,0.307
162,0.103,0.246,0.131,0.307
163,0.103,0.246,0.131,0.307
164,0.103,0.246,0.131,0.307
165,0.103,0.246,0.131,0.307
166,0.103,0.246,0.131,0.307
167,0.103,0.246,0.131,0.307
168,0.103,0.246,0.131,0.307
169,0.103,0.246,0.131,0.307
170,0.103,0.246,0.131,0.307
171,0.103,0.246,0.131,0.307
172,0.103,0.246,0.131,0.307
173,0.103,0.246,0.131,0.307
174,0.103,0.246,0.131,0.307
175,0.103,0.246,0.131,0.307
176,0.103,0.246,0.131,0.307
177,0.103,0.246,0.131,0.307
178,0.103,0.246,0.131,0.307
179,0.103,0.246,0.131,0.307
180,0.103,0.246,0.131,0.307
181,0.103,0.246,0.131,0.307
182,0.103,0.246,0.131,0.307
183,0.103,0.246,0.131,0.307
184,0.103,0.246,0.131,0.307
185,0.103,0.246,0.131,0.307
186,0.103,0.246,0.131,0.307
187,0.103,0.246,0.131,0.307
188,0.103,0.246,0.131,0.307
189,0.103,0.246,0.131,0.307
190,0.103,0.246,0.131,0.307
191,0.103,0.246,0.131,0.307
192,0.103,0.246,0.131,0.307
193,0.103,0.246,0.131,0.307
194,0.103,0.246,0.131,0.307
195,0.103,0.246,0.131,0.307
196,0.103,0.246,0.131,0.307
197,0.103,0.246,0.131,0.307
198,0.103,0.246,0.131,0.307
199,0.103,0.246,0.131,0.307
200,0.103,0.246,0.131,0.307
201,0.103,0.246,0.131,0.307
202,0.103,0.246,0.131,0.307
203,0.103,0.246,0.131,0.307
204,0.103,0.246,0.131,0.307
205,0.103,0.246,0.131,0.307
206,0.103,0.246,0.131,0.307
207,0.103,0.246,0.131,0.307
208,0.103,0.246,0.131,0.307
209,0.103,0.246,0.131,0.307
210,0.103,0.246,0.131,0.307
211,0.103,0.246,0.131,0.307
212,0.103,0.246,0.131,0.307
213,0.103,0.246,0.131,0.307
214,0.103,0.246,0.131,0.307
215,0.103,0.246,0.131,0.307
216,0.103,0.246,0.131,0.307
217,0.103,0.246,0.131,0.307
218,0.103,0.246,0.131,0.307
219,0.103,0.246,0.131,0.307
220,0.103,0.246,0.131,0.307
221,0.103,0.246,0.131,0.307
222,0.103,0.246,0.131,0.307
223,0.103,0.246,0.131,0.307
224,0.103,0.246,0.131,0.307
225,0.103,0.246,0.131,0.307
226,0.103,0.246,0.131,0.307
227,0.103,0.246,0.131,0.307
228,0.103,0.246,0.131,0.307
229,0.103,0.246,0.131,0.307
230,0.103,0.246,0.131,0.307
231,0.103,0.246,0.131,0.307
232,0.103,0.246,0.131,0.307
233,0.103,0.246,0.131,0.307
234,0.103,0.246,0.131,0.307
235,0.103,0.246,0.131,0.307
236,0.103,0.246,0.131,0.307
237,0.103,0.246,0.131,0.307
238,0.103,0.246,0.131,0.307
239,0.103,0.246,0.131,0.307
240,0.103,0.246,0.131,0.307
241,0.103,0.246,0.131,0.307
242,0.103,0.246,0.131,0.307
243,0.103,0.246,0.131,0.307
244,0.103,0.246,0.131,0.307
245,0.103,0.246,0.131,0.307
246,0.103,0.246,0.131,0.307
247,0.103,0.246,0.131,0.307
248,0.103,0.246,0.131,0.307
249,0.103,0.246,0.131,0.307
250,0.103,0.246,0.131,0.307
251,0.103,0.246,0.131,0.307
252,0.103,0.246,0.131,0.307
253,0.103,0.246,0.131,0.307
254,0.103,0.246,0.131,0.307
255,0.103,0.246,0.131,0.307
256,0.103,0.246,0.131,0.307
257,0.103,0.246,0.131,0.307
258,0.103,0.246,0.131,0.307
259,0.103,0.246,0.131,0.307
260,0.103,0.246,0.131,0.307
261,0.103,0.246,0.131,0.307
262,0.103,0.246,0.131,0.307
263,0.103,0.246,0.131,0.307
264,0.103,0.246,0.131,0.307
265,0.103,0.246,0.131,0.307
266,0.103,0.246,0.131,0.307
267,0.103,0.246,0.131,0.307
268,0.103,0.246,0.131,0.307
269,0.103,0.246,0.131,0.307
270,0.103,0.246,0.131,0.307
271,0.103,0.246,0.131,0.307
272,0.103,0.246,0.131,0.307
273,0.103,0.246,0.131,0.307
274,0.103,0.246,0.131,0.307
275,0.103,0.246,0.131,0.307
276,0.103,0.246,0.131,0.307
277,0.103,0.246,0.131,0.307
278,0.103,0.246,0.131,0.307
279,0.103,0.246,0.131,0.307
280,0.103,0.246,0.131,0.307
281,0.103,0.246,0.131,0.307
282,0.103,0.246,0.131,0.307
283,0.103,0.246,0.131,0.307
284,0.103,0.246,0.131,0.307
285,0.103,0.246,0.131,0.307
286,0.103,0.246,0.131,0.307
287,0.103,0.246,0.131,0.307
288,0.103,0.246,0.131,0.307
289,0.103,0.246,0.131,0.307
290,0.103,0.246,0.131,0.307
291,0.103,0.246,0.131,0.307
292,0.103,0.246,0.131,0.307
293,0.103,0.246,0.131,0.307
294,0.103,0.246,0.131,0.307
295,0.103,0.246,0.131,0.307
296,0.103,0.246,0.131,0.307
297,0.103,0.246,0.131,0.307
298,0.103,0.246,0.131,0.307
299,0.103,0.246,0.131,0.307
300,0.103,0.246,0.131,0.307
301,0.103,0.246,0.131,0.307
302,0.103,0.246,0.131,0.307
303,0.103,0.246,0.131,0.307
304,0.103,0.246,0.131,0.307
305,0.103,0.246,0.131,0.307
306,0.103,0.246,0.131,0.307
307,0.103,0.246,0.131,0.307
308,0.103,0.246,0.131,0.307
309,0.103,0.246,0.131,0.307
310,0.103,0.246,0.131,0.307
311,0.103,0.246,0.131,0.307
312,0.103,0.246,0.131,0.307
313,0.103,0.246,0.131,0.307
314,0.103,0.246,0.131,0.307
315,0.103,0.246,0.131,0.307
316,0.103,0.246,0.131,0.307
317,0.103,0.246,0.131,0.307
318,0.103,0.246,0.131,0.307
319,0.103,0.246,0.131,0.307
320,0.103,0.246,0.131,0.307
321,0.103,0.246,0.131,0.307
322,0.103,0.246,0.131,0.307
323,0.103,0.246,0.131,0.307
324,0.103,0.246,0.131,0.307
325,0.103,0.246,0.131,0.307
326,0.103,0.246,0.131,0.307
327,0.103,0.246,0.131,0.307
328,0.103,0.246,0.131,0.307
329,0.103,0.246,0.131,0.307
330,0.103,0.246,0.131,0.307
331,0.103,0.246,0.131,0.307
332,0.103,0.246,0.131,0.307
333,0.103,0.246,0.131,0.307
334,0.103,0.246,0.131,0.307
335,0.103,0.246,0.131,0.307
336,0.103,0.246,0.131,0.307
337,0.103,0.246,0.131,0.307
338,0.103,0.246,0.131,0.307
339,0.103,0.246,0.131,0.307
340,0.103,0.246,0.131,0.307
341,0.103,0.246,0.131,0.307
342,0.103,0.246,0.131,0.307
343,0.103,0.246,0.131,0.307
344,0.103,0.246,0.131,0.307
345,0.103,0.246,0.131,0.307
346,0.103,0.246,0.131,0.307
347,0.103,0.246,0.131,0.307
348,0.103,0.246,0.131,0.307
349,0.103,0.246,0.131,0.307
350,0.103,0.246,0.131,0.307
351,0.103,0.246,0.131,0.307
352,0.103,0.246,0.131,0.307
353,0.103,0.246,0.131,0.307
354,0.103,0.246,0.131,0.307
355,0.103,0.246,0.131,0.307
356,0.103,0.246,0.131,0.307
357,0.103,0.246,0.131,0.307
358,0.103,0.246,0.131,0.307
359,0.103,0.246,0.131,0.307
360,0.103,0.246,0.131,0.307
361,0.103,0.246,0.131,0.307
362,0.103,0.246,0.131,0.307
363,0.103,0.246,0.131,0.307
364,0.103,0.246,0.131,0.307
365,0.103,0.246,0.131,0.307
366,0.103,0.246,0.131,0.307
367,0.103,0.246,0.131,0.307
368,0.103,0.246,0.131,0.307
369,0.103,0.246,0.131,0.307
370,0.103,0.246,0.131,0.307
371,0.103,0.246,0.131,0.307
372,0.103,0.246,0.131,0.307
373,0.103,0.246,0.131,0.307
374,0.103,0.246,0.131,0.307
375,0.103,0.246,0.131,0.307
376,0.103,0.246,0.131,0.307
377,0.103,0.246,0.131,0.307
378,0.103,0.246,0.131,0.307
379,0.103,0.246,0.131,0.307
380,0.103,0.246,0.131,0.307
381,0.103,0.246,0.131,0.307
382,0.103,0.246,0.131,0.307
383,0.103,0.246,0.131,0.307
384,0.103,0.246,0.131,0.307
385,0.103,0.246,0.131,0.307
386,0.103,0.246,0.131,0.307
387,0.103,0.246,0.131,0.307
388,0.103,0.246,0.131,0.307
389,0.103,0.246,0.131,0.307
390,0.103,0.246,0.131,0.307
391,0.103,0.246,0.131,0.307
392,0.103,0.246,0.131,0.307
393,0.103,0.246,0.131,0.307
394,0.103,0.246,0.131,0.307
395,0.103,0.246,0.131,0.307
396,0.103,0.246,0.131,0.307
397,0.103,0.246,0.131,0.307
398,0.103,0.246,0.131,0.307
399,0.103,0.246,0.131,0.307
400,0.103,0.246,0.131,0.307
401,0.103,0.246,0.131,0.307
402,0.103,0.246,0.131,0.307
403,0.103,0.246,0.131,0.307
404,0.103,0.246,0.131,0.307
405,0.103,0.246,0.131,0.307
406,0.103,0.246,0.131,0.307
407,0.103,0.246,0.131,0.307
408,0.103,0.246,0.131,0.307
409,0.103,0.246,0.131,0.307
410,0.103,0.246,0.131,0.307
411,0.103,0.246,0.131,0.307
412,0.103,0.246,0.131,0.307
413,0.103,0.246,0.131,0.307
414,0.103,0.246,0.131,0.307
415,0.103,0.246,0.131,0.307
416,0.103,0.246,0.131,0.307
417,0.103,0.246,0.131,0.307
418,0.103,0.246,0.131,0.307
419,0.103,0.246,0.131,0.307
420,0.103,0.246,0.131,0.307
421,0.103,0.246,0.131,0.307
422,0.103,0.246,0.131,0.307
423,0.103,0.246,0.131,0.307
424,0.103,0.246,0.131,0.307
425,0.103,0.246,0.131,0.307
426,0.103,0.246,0.131,0.307
427,0.103,0.246,0.131,0.307
428,0.103,0.246,0.131,0.307
429,0.103,0.246,0.131,0.307
430,0.103,0.246,0.131,0.307
431,0.103,0.246,0.131,0.307
432,0.103,0.246,0.131,0.307
433,0.103,0.246,0.131,0.307
434,0.103,0.246,0.131,0.307
435,0.103,0.246,0.131,0.307
436,0.103,0.246,0.131,0.307
437,0.103,0.246,0.131,0.307
438,0.103,0.246,0.131,0.307
439,0.103,0.246,0.131,0.307
440,0.103,0.246,0.131,0.307
441,0.103,0.246,0.131,0.307
442,0.103,0.246,0.131,0.307
443,0.103,0.246,0.131,0.307
444,0.103,0.246,0.131,0.307
445,0.103,0.246,0.131,0.307
446,0.103,0.246,0.131,0.307
447,0.103,0.246,0.131,0.307
448,0.103,0.246,0.131,0.307
449,0.103,0.246,0.131,0.307
450,0.103,0.246,0.131,0.307
451,0.103,0.246,0.131,0.307
452,0.103,0.246,0.131,0.307
453,0.103,0.246,0.131,0.307
454,0.103,0.246,0.131,0.307
455,0.103,0.246,0.131,0.307
456,0.103,0.246,0.131,0.307
457,0.103,0.246,0.131,0.307
458,0.103,0.246,0.131,0.307
459,0.103,0.246,0.131,0.307
460,0.103,0.246,0.131,0.307
461,0.103,0.246,0.131,0.307
462,0.103,0.246,0.131,0.307
463,0.103,0.246,0.131,0.307
464,0.103,0.246,0.131,0.307
465,0.103,0.246,0.131,0.307
466,0.103,0.246,0.131,0.307
467,0.103,0.246,0.131,0.307
468,0.103,0.246,0.131,0.307
469,0.103,0.246,0.131,0.307
470,0.103,0.246,0.131,0.307
471,0.103,0.246,0.131,0.307
472,0.103,0.246,0.131,0.307
473,0.103,0.246,0.131,0.307
474,0.103,0.246,0.131,0.307
475,0.103,0.246,0.131,0.307
476,0.103,0.246,0.131,0.307
477,0.103,0.246,0.131,0.307
478,0.103,0.246,0.131,0.307
479,0.103,0.246,0.131,0.307
480,0.103,0.246,0.131,0.307
481,0.103,0.246,0.131,0.307
482,0.103,0.246,0.131,0.307
483,0.103,0.246,0.131,0.307
484,0.103,0.246,0.131,0.307
485,0.103,0.246,0.131,0.307
486,0.103,0.246,0.131,0.307
487,0.103,0.246,0.131,0.307
488,0.103,0.246,0.131,0.307
489,0.103,0.246,0.131,0.307
490,0.103,0.246,0.131,0.307
491,0.103,0.246,0.131,0.307
492,0.103,0.246,0.131,0.307
493,0.103,0.246,0.131,0.307
494,0.103,0.246,0.131,0.307
495,0.103,0.246,0.131,0.307
496,0.103,0.246,0.131,0.307
497,0.103,0.246,0.131,0.307
498,0.103,0.246,0.131,0.307
499,0.103,0.246,0.131,0.307
500,0.103,0.246,0.131,0.307
