,1,2,3,4,5,6,7,8,9,10,11,12,13,14,15,16
Iteration,NContactsLockdown_1,LockdownAdherenceProb,VaccineUptakeProb,VaccineImmunity,VaccineImmunityLag,MaxVaccineImmunityTime,MinVaccineImmunityTime,LockdownScenario,StartDateLockdown,EndDateLockdown,StartDateVaccine,EndDateVaccine,InterventionAgeMin,InterventionAgeMax,ProportionVaccinatedPerDay,BoosterTime
1,2.8,1,0.96,0.93,54,180,360,3,53,36000,270,36000,0,100,0.01,180
2,2.8,1,0.96,0.93,54,180,360,3,53,36000,270,36000,0,100,0.01,180
3,2.8,1,0.96,0.93,54,180,360,3,53,36000,270,36000,0,100,0.01,180
4,2.8,1,0.96,0.93,54,180,360,3,53,36000,270,36000,0,100,0.01,180
5,2.8,1,0.96,0.93,54,180,360,3,53,36000,270,36000,0,100,0.01,180
6,2.8,1,0.96,0.93,54,180,360,3,53,36000,270,36000,0,100,0.01,180
7,2.8,1,0.96,0.93,54,180,360,3,53,36000,270,36000,0,100,0.01,180
8,2.8,1,0.96,0.93,54,180,360,3,53,36000,270,36000,0,100,0.01,180
9,2.8,1,0.96,0.93,54,180,360,3,53,36000,270,36000,0,100,0.01,180
10,2.8,1,0.96,0.93,54,180,360,3,53,36000,270,36000,0,100,0.01,180
11,2.8,1,0.96,0.93,54,180,360,3,53,36000,270,36000,0,100,0.01,180
12,2.8,1,0.96,0.93,54,180,360,3,53,36000,270,36000,0,100,0.01,180
13,2.8,1,0.96,0.93,54,180,360,3,53,36000,270,36000,0,100,0.01,180
14,2.8,1,0.96,0.93,54,180,360,3,53,36000,270,36000,0,100,0.01,180
15,2.8,1,0.96,0.93,54,180,360,3,53,36000,270,36000,0,100,0.01,180
16,2.8,1,0.96,0.93,54,180,360,3,53,36000,270,36000,0,100,0.01,180
17,2.8,1,0.96,0.93,54,180,360,3,53,36000,270,36000,0,100,0.01,180
18,2.8,1,0.96,0.93,54,180,360,3,53,36000,270,36000,0,100,0.01,180
19,2.8,1,0.96,0.93,54,180,360,3,53,36000,270,36000,0,100,0.01,180
20,2.8,1,0.96,0.93,54,180,360,3,53,36000,270,36000,0,100,0.01,180
21,2.8,1,0.96,0.93,54,180,360,3,53,36000,270,36000,0,100,0.01,180
22,2.8,1,0.96,0.93,54,180,360,3,53,36000,270,36000,0,100,0.01,180
23,2.8,1,0.96,0.93,54,180,360,3,53,36000,270,36000,0,100,0.01,180
24,2.8,1,0.96,0.93,54,180,360,3,53,36000,270,36000,0,100,0.01,180
25,2.8,1,0.96,0.93,54,180,360,3,53,36000,270,36000,0,100,0.01,180
26,2.8,1,0.96,0.93,54,180,360,3,53,36000,270,36000,0,100,0.01,180
27,2.8,1,0.96,0.93,54,180,360,3,53,36000,270,36000,0,100,0.01,180
28,2.8,1,0.96,0.93,54,180,360,3,53,36000,270,36000,0,100,0.01,180
29,2.8,1,0.96,0.93,54,180,360,3,53,36000,270,36000,0,100,0.01,180
30,2.8,1,0.96,0.93,54,180,360,3,53,36000,270,36000,0,100,0.01,180
31,2.8,1,0.96,0.93,54,180,360,3,53,36000,270,36000,0,100,0.01,180
32,2.8,1,0.96,0.93,54,180,360,3,53,36000,270,36000,0,100,0.01,180
33,2.8,1,0.96,0.93,54,180,360,3,53,36000,270,36000,0,100,0.01,180
34,2.8,1,0.96,0.93,54,180,360,3,53,36000,270,36000,0,100,0.01,180
35,2.8,1,0.96,0.93,54,180,360,3,53,36000,270,36000,0,100,0.01,180
36,2.8,1,0.96,0.93,54,180,360,3,53,36000,270,36000,0,100,0.01,180
37,2.8,1,0.96,0.93,54,180,360,3,53,36000,270,36000,0,100,0.01,180
38,2.8,1,0.96,0.93,54,180,360,3,53,36000,270,36000,0,100,0.01,180
39,2.8,1,0.96,0.93,54,180,360,3,53,36000,270,36000,0,100,0.01,180
40,2.8,1,0.96,0.93,54,180,360,3,53,36000,270,36000,0,100,0.01,180
41,2.8,1,0.96,0.93,54,180,360,3,53,36000,270,36000,0,100,0.01,180
42,2.8,1,0.96,0.93,54,180,360,3,53,36000,270,36000,0,100,0.01,180
43,2.8,1,0.96,0.93,54,180,360,3,53,36000,270,36000,0,100,0.01,180
44,2.8,1,0.96,0.93,54,180,360,3,53,36000,270,36000,0,100,0.01,180
45,2.8,1,0.96,0.93,54,180,360,3,53,36000,270,36000,0,100,0.01,180
46,2.8,1,0.96,0.93,54,180,360,3,53,36000,270,36000,0,100,0.01,180
47,2.8,1,0.96,0.93,54,180,360,3,53,36000,270,36000,0,100,0.01,180
48,2.8,1,0.96,0.93,54,180,360,3,53,36000,270,36000,0,100,0.01,180
49,2.8,1,0.96,0.93,54,180,360,3,53,36000,270,36000,0,100,0.01,180
50,2.8,1,0.96,0.93,54,180,360,3,53,36000,270,36000,0,100,0.01,180
51,2.8,1,0.96,0.93,54,180,360,3,53,36000,270,36000,0,100,0.01,180
52,2.8,1,0.96,0.93,54,180,360,3,53,36000,270,36000,0,100,0.01,180
53,2.8,1,0.96,0.93,54,180,360,3,53,36000,270,36000,0,100,0.01,180
54,2.8,1,0.96,0.93,54,180,360,3,53,36000,270,36000,0,100,0.01,180
55,2.8,1,0.96,0.93,54,180,360,3,53,36000,270,36000,0,100,0.01,180
56,2.8,1,0.96,0.93,54,180,360,3,53,36000,270,36000,0,100,0.01,180
57,2.8,1,0.96,0.93,54,180,360,3,53,36000,270,36000,0,100,0.01,180
58,2.8,1,0.96,0.93,54,180,360,3,53,36000,270,36000,0,100,0.01,180
59,2.8,1,0.96,0.93,54,180,360,3,53,36000,270,36000,0,100,0.01,180
60,2.8,1,0.96,0.93,54,180,360,3,53,36000,270,36000,0,100,0.01,180
61,2.8,1,0.96,0.93,54,180,360,3,53,36000,270,36000,0,100,0.01,180
62,2.8,1,0.96,0.93,54,180,360,3,53,36000,270,36000,0,100,0.01,180
63,2.8,1,0.96,0.93,54,180,360,3,53,36000,270,36000,0,100,0.01,180
64,2.8,1,0.96,0.93,54,180,360,3,53,36000,270,36000,0,100,0.01,180
65,2.8,1,0.96,0.93,54,180,360,3,53,36000,270,36000,0,100,0.01,180
66,2.8,1,0.96,0.93,54,180,360,3,53,36000,270,36000,0,100,0.01,180
67,2.8,1,0.96,0.93,54,180,360,3,53,36000,270,36000,0,100,0.01,180
68,2.8,1,0.96,0.93,54,180,360,3,53,36000,270,36000,0,100,0.01,180
69,2.8,1,0.96,0.93,54,180,360,3,53,36000,270,36000,0,100,0.01,180
70,2.8,1,0.96,0.93,54,180,360,3,53,36000,270,36000,0,100,0.01,180
71,2.8,1,0.96,0.93,54,180,360,3,53,36000,270,36000,0,100,0.01,180
72,2.8,1,0.96,0.93,54,180,360,3,53,36000,270,36000,0,100,0.01,180
73,2.8,1,0.96,0.93,54,180,360,3,53,36000,270,36000,0,100,0.01,180
74,2.8,1,0.96,0.93,54,180,360,3,53,36000,270,36000,0,100,0.01,180
75,2.8,1,0.96,0.93,54,180,360,3,53,36000,270,36000,0,100,0.01,180
76,2.8,1,0.96,0.93,54,180,360,3,53,36000,270,36000,0,100,0.01,180
77,2.8,1,0.96,0.93,54,180,360,3,53,36000,270,36000,0,100,0.01,180
78,2.8,1,0.96,0.93,54,180,360,3,53,36000,270,36000,0,100,0.01,180
79,2.8,1,0.96,0.93,54,180,360,3,53,36000,270,36000,0,100,0.01,180
80,2.8,1,0.96,0.93,54,180,360,3,53,36000,270,36000,0,100,0.01,180
81,2.8,1,0.96,0.93,54,180,360,3,53,36000,270,36000,0,100,0.01,180
82,2.8,1,0.96,0.93,54,180,360,3,53,36000,270,36000,0,100,0.01,180
83,2.8,1,0.96,0.93,54,180,360,3,53,36000,270,36000,0,100,0.01,180
84,2.8,1,0.96,0.93,54,180,360,3,53,36000,270,36000,0,100,0.01,180
85,2.8,1,0.96,0.93,54,180,360,3,53,36000,270,36000,0,100,0.01,180
86,2.8,1,0.96,0.93,54,180,360,3,53,36000,270,36000,0,100,0.01,180
87,2.8,1,0.96,0.93,54,180,360,3,53,36000,270,36000,0,100,0.01,180
88,2.8,1,0.96,0.93,54,180,360,3,53,36000,270,36000,0,100,0.01,180
89,2.8,1,0.96,0.93,54,180,360,3,53,36000,270,36000,0,100,0.01,180
90,2.8,1,0.96,0.93,54,180,360,3,53,36000,270,36000,0,100,0.01,180
91,2.8,1,0.96,0.93,54,180,360,3,53,36000,270,36000,0,100,0.01,180
92,2.8,1,0.96,0.93,54,180,360,3,53,36000,270,36000,0,100,0.01,180
93,2.8,1,0.96,0.93,54,180,360,3,53,36000,270,36000,0,100,0.01,180
94,2.8,1,0.96,0.93,54,180,360,3,53,36000,270,36000,0,100,0.01,180
95,2.8,1,0.96,0.93,54,180,360,3,53,36000,270,36000,0,100,0.01,180
96,2.8,1,0.96,0.93,54,180,360,3,53,36000,270,36000,0,100,0.01,180
97,2.8,1,0.96,0.93,54,180,360,3,53,36000,270,36000,0,100,0.01,180
98,2.8,1,0.96,0.93,54,180,360,3,53,36000,270,36000,0,100,0.01,180
99,2.8,1,0.96,0.93,54,180,360,3,53,36000,270,36000,0,100,0.01,180
100,2.8,1,0.96,0.93,54,180,360,3,53,36000,270,36000,0,100,0.01,180
101,2.8,1,0.96,0.93,54,180,360,3,53,36000,270,36000,0,100,0.01,180
102,2.8,1,0.96,0.93,54,180,360,3,53,36000,270,36000,0,100,0.01,180
103,2.8,1,0.96,0.93,54,180,360,3,53,36000,270,36000,0,100,0.01,180
104,2.8,1,0.96,0.93,54,180,360,3,53,36000,270,36000,0,100,0.01,180
105,2.8,1,0.96,0.93,54,180,360,3,53,36000,270,36000,0,100,0.01,180
106,2.8,1,0.96,0.93,54,180,360,3,53,36000,270,36000,0,100,0.01,180
107,2.8,1,0.96,0.93,54,180,360,3,53,36000,270,36000,0,100,0.01,180
108,2.8,1,0.96,0.93,54,180,360,3,53,36000,270,36000,0,100,0.01,180
109,2.8,1,0.96,0.93,54,180,360,3,53,36000,270,36000,0,100,0.01,180
110,2.8,1,0.96,0.93,54,180,360,3,53,36000,270,36000,0,100,0.01,180
111,2.8,1,0.96,0.93,54,180,360,3,53,36000,270,36000,0,100,0.01,180
112,2.8,1,0.96,0.93,54,180,360,3,53,36000,270,36000,0,100,0.01,180
113,2.8,1,0.96,0.93,54,180,360,3,53,36000,270,36000,0,100,0.01,180
114,2.8,1,0.96,0.93,54,180,360,3,53,36000,270,36000,0,100,0.01,180
115,2.8,1,0.96,0.93,54,180,360,3,53,36000,270,36000,0,100,0.01,180
116,2.8,1,0.96,0.93,54,180,360,3,53,36000,270,36000,0,100,0.01,180
117,2.8,1,0.96,0.93,54,180,360,3,53,36000,270,36000,0,100,0.01,180
118,2.8,1,0.96,0.93,54,180,360,3,53,36000,270,36000,0,100,0.01,180
119,2.8,1,0.96,0.93,54,180,360,3,53,36000,270,36000,0,100,0.01,180
120,2.8,1,0.96,0.93,54,180,360,3,53,36000,270,36000,0,100,0.01,180
121,2.8,1,0.96,0.93,54,180,360,3,53,36000,270,36000,0,100,0.01,180
122,2.8,1,0.96,0.93,54,180,360,3,53,36000,270,36000,0,100,0.01,180
123,2.8,1,0.96,0.93,54,180,360,3,53,36000,270,36000,0,100,0.01,180
124,2.8,1,0.96,0.93,54,180,360,3,53,36000,270,36000,0,100,0.01,180
125,2.8,1,0.96,0.93,54,180,360,3,53,36000,270,36000,0,100,0.01,180
126,2.8,1,0.96,0.93,54,180,360,3,53,36000,270,36000,0,100,0.01,180
127,2.8,1,0.96,0.93,54,180,360,3,53,36000,270,36000,0,100,0.01,180
128,2.8,1,0.96,0.93,54,180,360,3,53,36000,270,36000,0,100,0.01,180
129,2.8,1,0.96,0.93,54,180,360,3,53,36000,270,36000,0,100,0.01,180
130,2.8,1,0.96,0.93,54,180,360,3,53,36000,270,36000,0,100,0.01,180
131,2.8,1,0.96,0.93,54,180,360,3,53,36000,270,36000,0,100,0.01,180
132,2.8,1,0.96,0.93,54,180,360,3,53,36000,270,36000,0,100,0.01,180
133,2.8,1,0.96,0.93,54,180,360,3,53,36000,270,36000,0,100,0.01,180
134,2.8,1,0.96,0.93,54,180,360,3,53,36000,270,36000,0,100,0.01,180
135,2.8,1,0.96,0.93,54,180,360,3,53,36000,270,36000,0,100,0.01,180
136,2.8,1,0.96,0.93,54,180,360,3,53,36000,270,36000,0,100,0.01,180
137,2.8,1,0.96,0.93,54,180,360,3,53,36000,270,36000,0,100,0.01,180
138,2.8,1,0.96,0.93,54,180,360,3,53,36000,270,36000,0,100,0.01,180
139,2.8,1,0.96,0.93,54,180,360,3,53,36000,270,36000,0,100,0.01,180
140,2.8,1,0.96,0.93,54,180,360,3,53,36000,270,36000,0,100,0.01,180
141,2.8,1,0.96,0.93,54,180,360,3,53,36000,270,36000,0,100,0.01,180
142,2.8,1,0.96,0.93,54,180,360,3,53,36000,270,36000,0,100,0.01,180
143,2.8,1,0.96,0.93,54,180,360,3,53,36000,270,36000,0,100,0.01,180
144,2.8,1,0.96,0.93,54,180,360,3,53,36000,270,36000,0,100,0.01,180
145,2.8,1,0.96,0.93,54,180,360,3,53,36000,270,36000,0,100,0.01,180
146,2.8,1,0.96,0.93,54,180,360,3,53,36000,270,36000,0,100,0.01,180
147,2.8,1,0.96,0.93,54,180,360,3,53,36000,270,36000,0,100,0.01,180
148,2.8,1,0.96,0.93,54,180,360,3,53,36000,270,36000,0,100,0.01,180
149,2.8,1,0.96,0.93,54,180,360,3,53,36000,270,36000,0,100,0.01,180
150,2.8,1,0.96,0.93,54,180,360,3,53,36000,270,36000,0,100,0.01,180
151,2.8,1,0.96,0.93,54,180,360,3,53,36000,270,36000,0,100,0.01,180
152,2.8,1,0.96,0.93,54,180,360,3,53,36000,270,36000,0,100,0.01,180
153,2.8,1,0.96,0.93,54,180,360,3,53,36000,270,36000,0,100,0.01,180
154,2.8,1,0.96,0.93,54,180,360,3,53,36000,270,36000,0,100,0.01,180
155,2.8,1,0.96,0.93,54,180,360,3,53,36000,270,36000,0,100,0.01,180
156,2.8,1,0.96,0.93,54,180,360,3,53,36000,270,36000,0,100,0.01,180
157,2.8,1,0.96,0.93,54,180,360,3,53,36000,270,36000,0,100,0.01,180
158,2.8,1,0.96,0.93,54,180,360,3,53,36000,270,36000,0,100,0.01,180
159,2.8,1,0.96,0.93,54,180,360,3,53,36000,270,36000,0,100,0.01,180
160,2.8,1,0.96,0.93,54,180,360,3,53,36000,270,36000,0,100,0.01,180
161,2.8,1,0.96,0.93,54,180,360,3,53,36000,270,36000,0,100,0.01,180
162,2.8,1,0.96,0.93,54,180,360,3,53,36000,270,36000,0,100,0.01,180
163,2.8,1,0.96,0.93,54,180,360,3,53,36000,270,36000,0,100,0.01,180
164,2.8,1,0.96,0.93,54,180,360,3,53,36000,270,36000,0,100,0.01,180
165,2.8,1,0.96,0.93,54,180,360,3,53,36000,270,36000,0,100,0.01,180
166,2.8,1,0.96,0.93,54,180,360,3,53,36000,270,36000,0,100,0.01,180
167,2.8,1,0.96,0.93,54,180,360,3,53,36000,270,36000,0,100,0.01,180
168,2.8,1,0.96,0.93,54,180,360,3,53,36000,270,36000,0,100,0.01,180
169,2.8,1,0.96,0.93,54,180,360,3,53,36000,270,36000,0,100,0.01,180
170,2.8,1,0.96,0.93,54,180,360,3,53,36000,270,36000,0,100,0.01,180
171,2.8,1,0.96,0.93,54,180,360,3,53,36000,270,36000,0,100,0.01,180
172,2.8,1,0.96,0.93,54,180,360,3,53,36000,270,36000,0,100,0.01,180
173,2.8,1,0.96,0.93,54,180,360,3,53,36000,270,36000,0,100,0.01,180
174,2.8,1,0.96,0.93,54,180,360,3,53,36000,270,36000,0,100,0.01,180
175,2.8,1,0.96,0.93,54,180,360,3,53,36000,270,36000,0,100,0.01,180
176,2.8,1,0.96,0.93,54,180,360,3,53,36000,270,36000,0,100,0.01,180
177,2.8,1,0.96,0.93,54,180,360,3,53,36000,270,36000,0,100,0.01,180
178,2.8,1,0.96,0.93,54,180,360,3,53,36000,270,36000,0,100,0.01,180
179,2.8,1,0.96,0.93,54,180,360,3,53,36000,270,36000,0,100,0.01,180
180,2.8,1,0.96,0.93,54,180,360,3,53,36000,270,36000,0,100,0.01,180
181,2.8,1,0.96,0.93,54,180,360,3,53,36000,270,36000,0,100,0.01,180
182,2.8,1,0.96,0.93,54,180,360,3,53,36000,270,36000,0,100,0.01,180
183,2.8,1,0.96,0.93,54,180,360,3,53,36000,270,36000,0,100,0.01,180
184,2.8,1,0.96,0.93,54,180,360,3,53,36000,270,36000,0,100,0.01,180
185,2.8,1,0.96,0.93,54,180,360,3,53,36000,270,36000,0,100,0.01,180
186,2.8,1,0.96,0.93,54,180,360,3,53,36000,270,36000,0,100,0.01,180
187,2.8,1,0.96,0.93,54,180,360,3,53,36000,270,36000,0,100,0.01,180
188,2.8,1,0.96,0.93,54,180,360,3,53,36000,270,36000,0,100,0.01,180
189,2.8,1,0.96,0.93,54,180,360,3,53,36000,270,36000,0,100,0.01,180
190,2.8,1,0.96,0.93,54,180,360,3,53,36000,270,36000,0,100,0.01,180
191,2.8,1,0.96,0.93,54,180,360,3,53,36000,270,36000,0,100,0.01,180
192,2.8,1,0.96,0.93,54,180,360,3,53,36000,270,36000,0,100,0.01,180
193,2.8,1,0.96,0.93,54,180,360,3,53,36000,270,36000,0,100,0.01,180
194,2.8,1,0.96,0.93,54,180,360,3,53,36000,270,36000,0,100,0.01,180
195,2.8,1,0.96,0.93,54,180,360,3,53,36000,270,36000,0,100,0.01,180
196,2.8,1,0.96,0.93,54,180,360,3,53,36000,270,36000,0,100,0.01,180
197,2.8,1,0.96,0.93,54,180,360,3,53,36000,270,36000,0,100,0.01,180
198,2.8,1,0.96,0.93,54,180,360,3,53,36000,270,36000,0,100,0.01,180
199,2.8,1,0.96,0.93,54,180,360,3,53,36000,270,36000,0,100,0.01,180
200,2.8,1,0.96,0.93,54,180,360,3,53,36000,270,36000,0,100,0.01,180
201,2.8,1,0.96,0.93,54,180,360,3,53,36000,270,36000,0,100,0.01,180
202,2.8,1,0.96,0.93,54,180,360,3,53,36000,270,36000,0,100,0.01,180
203,2.8,1,0.96,0.93,54,180,360,3,53,36000,270,36000,0,100,0.01,180
204,2.8,1,0.96,0.93,54,180,360,3,53,36000,270,36000,0,100,0.01,180
205,2.8,1,0.96,0.93,54,180,360,3,53,36000,270,36000,0,100,0.01,180
206,2.8,1,0.96,0.93,54,180,360,3,53,36000,270,36000,0,100,0.01,180
207,2.8,1,0.96,0.93,54,180,360,3,53,36000,270,36000,0,100,0.01,180
208,2.8,1,0.96,0.93,54,180,360,3,53,36000,270,36000,0,100,0.01,180
209,2.8,1,0.96,0.93,54,180,360,3,53,36000,270,36000,0,100,0.01,180
210,2.8,1,0.96,0.93,54,180,360,3,53,36000,270,36000,0,100,0.01,180
211,2.8,1,0.96,0.93,54,180,360,3,53,36000,270,36000,0,100,0.01,180
212,2.8,1,0.96,0.93,54,180,360,3,53,36000,270,36000,0,100,0.01,180
213,2.8,1,0.96,0.93,54,180,360,3,53,36000,270,36000,0,100,0.01,180
214,2.8,1,0.96,0.93,54,180,360,3,53,36000,270,36000,0,100,0.01,180
215,2.8,1,0.96,0.93,54,180,360,3,53,36000,270,36000,0,100,0.01,180
216,2.8,1,0.96,0.93,54,180,360,3,53,36000,270,36000,0,100,0.01,180
217,2.8,1,0.96,0.93,54,180,360,3,53,36000,270,36000,0,100,0.01,180
218,2.8,1,0.96,0.93,54,180,360,3,53,36000,270,36000,0,100,0.01,180
219,2.8,1,0.96,0.93,54,180,360,3,53,36000,270,36000,0,100,0.01,180
220,2.8,1,0.96,0.93,54,180,360,3,53,36000,270,36000,0,100,0.01,180
221,2.8,1,0.96,0.93,54,180,360,3,53,36000,270,36000,0,100,0.01,180
222,2.8,1,0.96,0.93,54,180,360,3,53,36000,270,36000,0,100,0.01,180
223,2.8,1,0.96,0.93,54,180,360,3,53,36000,270,36000,0,100,0.01,180
224,2.8,1,0.96,0.93,54,180,360,3,53,36000,270,36000,0,100,0.01,180
225,2.8,1,0.96,0.93,54,180,360,3,53,36000,270,36000,0,100,0.01,180
226,2.8,1,0.96,0.93,54,180,360,3,53,36000,270,36000,0,100,0.01,180
227,2.8,1,0.96,0.93,54,180,360,3,53,36000,270,36000,0,100,0.01,180
228,2.8,1,0.96,0.93,54,180,360,3,53,36000,270,36000,0,100,0.01,180
229,2.8,1,0.96,0.93,54,180,360,3,53,36000,270,36000,0,100,0.01,180
230,2.8,1,0.96,0.93,54,180,360,3,53,36000,270,36000,0,100,0.01,180
231,2.8,1,0.96,0.93,54,180,360,3,53,36000,270,36000,0,100,0.01,180
232,2.8,1,0.96,0.93,54,180,360,3,53,36000,270,36000,0,100,0.01,180
233,2.8,1,0.96,0.93,54,180,360,3,53,36000,270,36000,0,100,0.01,180
234,2.8,1,0.96,0.93,54,180,360,3,53,36000,270,36000,0,100,0.01,180
235,2.8,1,0.96,0.93,54,180,360,3,53,36000,270,36000,0,100,0.01,180
236,2.8,1,0.96,0.93,54,180,360,3,53,36000,270,36000,0,100,0.01,180
237,2.8,1,0.96,0.93,54,180,360,3,53,36000,270,36000,0,100,0.01,180
238,2.8,1,0.96,0.93,54,180,360,3,53,36000,270,36000,0,100,0.01,180
239,2.8,1,0.96,0.93,54,180,360,3,53,36000,270,36000,0,100,0.01,180
240,2.8,1,0.96,0.93,54,180,360,3,53,36000,270,36000,0,100,0.01,180
241,2.8,1,0.96,0.93,54,180,360,3,53,36000,270,36000,0,100,0.01,180
242,2.8,1,0.96,0.93,54,180,360,3,53,36000,270,36000,0,100,0.01,180
243,2.8,1,0.96,0.93,54,180,360,3,53,36000,270,36000,0,100,0.01,180
244,2.8,1,0.96,0.93,54,180,360,3,53,36000,270,36000,0,100,0.01,180
245,2.8,1,0.96,0.93,54,180,360,3,53,36000,270,36000,0,100,0.01,180
246,2.8,1,0.96,0.93,54,180,360,3,53,36000,270,36000,0,100,0.01,180
247,2.8,1,0.96,0.93,54,180,360,3,53,36000,270,36000,0,100,0.01,180
248,2.8,1,0.96,0.93,54,180,360,3,53,36000,270,36000,0,100,0.01,180
249,2.8,1,0.96,0.93,54,180,360,3,53,36000,270,36000,0,100,0.01,180
250,2.8,1,0.96,0.93,54,180,360,3,53,36000,270,36000,0,100,0.01,180
251,2.8,1,0.96,0.93,54,180,360,3,53,36000,270,36000,0,100,0.01,180
252,2.8,1,0.96,0.93,54,180,360,3,53,36000,270,36000,0,100,0.01,180
253,2.8,1,0.96,0.93,54,180,360,3,53,36000,270,36000,0,100,0.01,180
254,2.8,1,0.96,0.93,54,180,360,3,53,36000,270,36000,0,100,0.01,180
255,2.8,1,0.96,0.93,54,180,360,3,53,36000,270,36000,0,100,0.01,180
256,2.8,1,0.96,0.93,54,180,360,3,53,36000,270,36000,0,100,0.01,180
257,2.8,1,0.96,0.93,54,180,360,3,53,36000,270,36000,0,100,0.01,180
258,2.8,1,0.96,0.93,54,180,360,3,53,36000,270,36000,0,100,0.01,180
259,2.8,1,0.96,0.93,54,180,360,3,53,36000,270,36000,0,100,0.01,180
260,2.8,1,0.96,0.93,54,180,360,3,53,36000,270,36000,0,100,0.01,180
261,2.8,1,0.96,0.93,54,180,360,3,53,36000,270,36000,0,100,0.01,180
262,2.8,1,0.96,0.93,54,180,360,3,53,36000,270,36000,0,100,0.01,180
263,2.8,1,0.96,0.93,54,180,360,3,53,36000,270,36000,0,100,0.01,180
264,2.8,1,0.96,0.93,54,180,360,3,53,36000,270,36000,0,100,0.01,180
265,2.8,1,0.96,0.93,54,180,360,3,53,36000,270,36000,0,100,0.01,180
266,2.8,1,0.96,0.93,54,180,360,3,53,36000,270,36000,0,100,0.01,180
267,2.8,1,0.96,0.93,54,180,360,3,53,36000,270,36000,0,100,0.01,180
268,2.8,1,0.96,0.93,54,180,360,3,53,36000,270,36000,0,100,0.01,180
269,2.8,1,0.96,0.93,54,180,360,3,53,36000,270,36000,0,100,0.01,180
270,2.8,1,0.96,0.93,54,180,360,3,53,36000,270,36000,0,100,0.01,180
271,2.8,1,0.96,0.93,54,180,360,3,53,36000,270,36000,0,100,0.01,180
272,2.8,1,0.96,0.93,54,180,360,3,53,36000,270,36000,0,100,0.01,180
273,2.8,1,0.96,0.93,54,180,360,3,53,36000,270,36000,0,100,0.01,180
274,2.8,1,0.96,0.93,54,180,360,3,53,36000,270,36000,0,100,0.01,180
275,2.8,1,0.96,0.93,54,180,360,3,53,36000,270,36000,0,100,0.01,180
276,2.8,1,0.96,0.93,54,180,360,3,53,36000,270,36000,0,100,0.01,180
277,2.8,1,0.96,0.93,54,180,360,3,53,36000,270,36000,0,100,0.01,180
278,2.8,1,0.96,0.93,54,180,360,3,53,36000,270,36000,0,100,0.01,180
279,2.8,1,0.96,0.93,54,180,360,3,53,36000,270,36000,0,100,0.01,180
280,2.8,1,0.96,0.93,54,180,360,3,53,36000,270,36000,0,100,0.01,180
281,2.8,1,0.96,0.93,54,180,360,3,53,36000,270,36000,0,100,0.01,180
282,2.8,1,0.96,0.93,54,180,360,3,53,36000,270,36000,0,100,0.01,180
283,2.8,1,0.96,0.93,54,180,360,3,53,36000,270,36000,0,100,0.01,180
284,2.8,1,0.96,0.93,54,180,360,3,53,36000,270,36000,0,100,0.01,180
285,2.8,1,0.96,0.93,54,180,360,3,53,36000,270,36000,0,100,0.01,180
286,2.8,1,0.96,0.93,54,180,360,3,53,36000,270,36000,0,100,0.01,180
287,2.8,1,0.96,0.93,54,180,360,3,53,36000,270,36000,0,100,0.01,180
288,2.8,1,0.96,0.93,54,180,360,3,53,36000,270,36000,0,100,0.01,180
289,2.8,1,0.96,0.93,54,180,360,3,53,36000,270,36000,0,100,0.01,180
290,2.8,1,0.96,0.93,54,180,360,3,53,36000,270,36000,0,100,0.01,180
291,2.8,1,0.96,0.93,54,180,360,3,53,36000,270,36000,0,100,0.01,180
292,2.8,1,0.96,0.93,54,180,360,3,53,36000,270,36000,0,100,0.01,180
293,2.8,1,0.96,0.93,54,180,360,3,53,36000,270,36000,0,100,0.01,180
294,2.8,1,0.96,0.93,54,180,360,3,53,36000,270,36000,0,100,0.01,180
295,2.8,1,0.96,0.93,54,180,360,3,53,36000,270,36000,0,100,0.01,180
296,2.8,1,0.96,0.93,54,180,360,3,53,36000,270,36000,0,100,0.01,180
297,2.8,1,0.96,0.93,54,180,360,3,53,36000,270,36000,0,100,0.01,180
298,2.8,1,0.96,0.93,54,180,360,3,53,36000,270,36000,0,100,0.01,180
299,2.8,1,0.96,0.93,54,180,360,3,53,36000,270,36000,0,100,0.01,180
300,2.8,1,0.96,0.93,54,180,360,3,53,36000,270,36000,0,100,0.01,180
301,2.8,1,0.96,0.93,54,180,360,3,53,36000,270,36000,0,100,0.01,180
302,2.8,1,0.96,0.93,54,180,360,3,53,36000,270,36000,0,100,0.01,180
303,2.8,1,0.96,0.93,54,180,360,3,53,36000,270,36000,0,100,0.01,180
304,2.8,1,0.96,0.93,54,180,360,3,53,36000,270,36000,0,100,0.01,180
305,2.8,1,0.96,0.93,54,180,360,3,53,36000,270,36000,0,100,0.01,180
306,2.8,1,0.96,0.93,54,180,360,3,53,36000,270,36000,0,100,0.01,180
307,2.8,1,0.96,0.93,54,180,360,3,53,36000,270,36000,0,100,0.01,180
308,2.8,1,0.96,0.93,54,180,360,3,53,36000,270,36000,0,100,0.01,180
309,2.8,1,0.96,0.93,54,180,360,3,53,36000,270,36000,0,100,0.01,180
310,2.8,1,0.96,0.93,54,180,360,3,53,36000,270,36000,0,100,0.01,180
311,2.8,1,0.96,0.93,54,180,360,3,53,36000,270,36000,0,100,0.01,180
312,2.8,1,0.96,0.93,54,180,360,3,53,36000,270,36000,0,100,0.01,180
313,2.8,1,0.96,0.93,54,180,360,3,53,36000,270,36000,0,100,0.01,180
314,2.8,1,0.96,0.93,54,180,360,3,53,36000,270,36000,0,100,0.01,180
315,2.8,1,0.96,0.93,54,180,360,3,53,36000,270,36000,0,100,0.01,180
316,2.8,1,0.96,0.93,54,180,360,3,53,36000,270,36000,0,100,0.01,180
317,2.8,1,0.96,0.93,54,180,360,3,53,36000,270,36000,0,100,0.01,180
318,2.8,1,0.96,0.93,54,180,360,3,53,36000,270,36000,0,100,0.01,180
319,2.8,1,0.96,0.93,54,180,360,3,53,36000,270,36000,0,100,0.01,180
320,2.8,1,0.96,0.93,54,180,360,3,53,36000,270,36000,0,100,0.01,180
321,2.8,1,0.96,0.93,54,180,360,3,53,36000,270,36000,0,100,0.01,180
322,2.8,1,0.96,0.93,54,180,360,3,53,36000,270,36000,0,100,0.01,180
323,2.8,1,0.96,0.93,54,180,360,3,53,36000,270,36000,0,100,0.01,180
324,2.8,1,0.96,0.93,54,180,360,3,53,36000,270,36000,0,100,0.01,180
325,2.8,1,0.96,0.93,54,180,360,3,53,36000,270,36000,0,100,0.01,180
326,2.8,1,0.96,0.93,54,180,360,3,53,36000,270,36000,0,100,0.01,180
327,2.8,1,0.96,0.93,54,180,360,3,53,36000,270,36000,0,100,0.01,180
328,2.8,1,0.96,0.93,54,180,360,3,53,36000,270,36000,0,100,0.01,180
329,2.8,1,0.96,0.93,54,180,360,3,53,36000,270,36000,0,100,0.01,180
330,2.8,1,0.96,0.93,54,180,360,3,53,36000,270,36000,0,100,0.01,180
331,2.8,1,0.96,0.93,54,180,360,3,53,36000,270,36000,0,100,0.01,180
332,2.8,1,0.96,0.93,54,180,360,3,53,36000,270,36000,0,100,0.01,180
333,2.8,1,0.96,0.93,54,180,360,3,53,36000,270,36000,0,100,0.01,180
334,2.8,1,0.96,0.93,54,180,360,3,53,36000,270,36000,0,100,0.01,180
335,2.8,1,0.96,0.93,54,180,360,3,53,36000,270,36000,0,100,0.01,180
336,2.8,1,0.96,0.93,54,180,360,3,53,36000,270,36000,0,100,0.01,180
337,2.8,1,0.96,0.93,54,180,360,3,53,36000,270,36000,0,100,0.01,180
338,2.8,1,0.96,0.93,54,180,360,3,53,36000,270,36000,0,100,0.01,180
339,2.8,1,0.96,0.93,54,180,360,3,53,36000,270,36000,0,100,0.01,180
340,2.8,1,0.96,0.93,54,180,360,3,53,36000,270,36000,0,100,0.01,180
341,2.8,1,0.96,0.93,54,180,360,3,53,36000,270,36000,0,100,0.01,180
342,2.8,1,0.96,0.93,54,180,360,3,53,36000,270,36000,0,100,0.01,180
343,2.8,1,0.96,0.93,54,180,360,3,53,36000,270,36000,0,100,0.01,180
344,2.8,1,0.96,0.93,54,180,360,3,53,36000,270,36000,0,100,0.01,180
345,2.8,1,0.96,0.93,54,180,360,3,53,36000,270,36000,0,100,0.01,180
346,2.8,1,0.96,0.93,54,180,360,3,53,36000,270,36000,0,100,0.01,180
347,2.8,1,0.96,0.93,54,180,360,3,53,36000,270,36000,0,100,0.01,180
348,2.8,1,0.96,0.93,54,180,360,3,53,36000,270,36000,0,100,0.01,180
349,2.8,1,0.96,0.93,54,180,360,3,53,36000,270,36000,0,100,0.01,180
350,2.8,1,0.96,0.93,54,180,360,3,53,36000,270,36000,0,100,0.01,180
351,2.8,1,0.96,0.93,54,180,360,3,53,36000,270,36000,0,100,0.01,180
352,2.8,1,0.96,0.93,54,180,360,3,53,36000,270,36000,0,100,0.01,180
353,2.8,1,0.96,0.93,54,180,360,3,53,36000,270,36000,0,100,0.01,180
354,2.8,1,0.96,0.93,54,180,360,3,53,36000,270,36000,0,100,0.01,180
355,2.8,1,0.96,0.93,54,180,360,3,53,36000,270,36000,0,100,0.01,180
356,2.8,1,0.96,0.93,54,180,360,3,53,36000,270,36000,0,100,0.01,180
357,2.8,1,0.96,0.93,54,180,360,3,53,36000,270,36000,0,100,0.01,180
358,2.8,1,0.96,0.93,54,180,360,3,53,36000,270,36000,0,100,0.01,180
359,2.8,1,0.96,0.93,54,180,360,3,53,36000,270,36000,0,100,0.01,180
360,2.8,1,0.96,0.93,54,180,360,3,53,36000,270,36000,0,100,0.01,180
361,2.8,1,0.96,0.93,54,180,360,3,53,36000,270,36000,0,100,0.01,180
362,2.8,1,0.96,0.93,54,180,360,3,53,36000,270,36000,0,100,0.01,180
363,2.8,1,0.96,0.93,54,180,360,3,53,36000,270,36000,0,100,0.01,180
364,2.8,1,0.96,0.93,54,180,360,3,53,36000,270,36000,0,100,0.01,180
365,2.8,1,0.96,0.93,54,180,360,3,53,36000,270,36000,0,100,0.01,180
366,2.8,1,0.96,0.93,54,180,360,3,53,36000,270,36000,0,100,0.01,180
367,2.8,1,0.96,0.93,54,180,360,3,53,36000,270,36000,0,100,0.01,180
368,2.8,1,0.96,0.93,54,180,360,3,53,36000,270,36000,0,100,0.01,180
369,2.8,1,0.96,0.93,54,180,360,3,53,36000,270,36000,0,100,0.01,180
370,2.8,1,0.96,0.93,54,180,360,3,53,36000,270,36000,0,100,0.01,180
371,2.8,1,0.96,0.93,54,180,360,3,53,36000,270,36000,0,100,0.01,180
372,2.8,1,0.96,0.93,54,180,360,3,53,36000,270,36000,0,100,0.01,180
373,2.8,1,0.96,0.93,54,180,360,3,53,36000,270,36000,0,100,0.01,180
374,2.8,1,0.96,0.93,54,180,360,3,53,36000,270,36000,0,100,0.01,180
375,2.8,1,0.96,0.93,54,180,360,3,53,36000,270,36000,0,100,0.01,180
376,2.8,1,0.96,0.93,54,180,360,3,53,36000,270,36000,0,100,0.01,180
377,2.8,1,0.96,0.93,54,180,360,3,53,36000,270,36000,0,100,0.01,180
378,2.8,1,0.96,0.93,54,180,360,3,53,36000,270,36000,0,100,0.01,180
379,2.8,1,0.96,0.93,54,180,360,3,53,36000,270,36000,0,100,0.01,180
380,2.8,1,0.96,0.93,54,180,360,3,53,36000,270,36000,0,100,0.01,180
381,2.8,1,0.96,0.93,54,180,360,3,53,36000,270,36000,0,100,0.01,180
382,2.8,1,0.96,0.93,54,180,360,3,53,36000,270,36000,0,100,0.01,180
383,2.8,1,0.96,0.93,54,180,360,3,53,36000,270,36000,0,100,0.01,180
384,2.8,1,0.96,0.93,54,180,360,3,53,36000,270,36000,0,100,0.01,180
385,2.8,1,0.96,0.93,54,180,360,3,53,36000,270,36000,0,100,0.01,180
386,2.8,1,0.96,0.93,54,180,360,3,53,36000,270,36000,0,100,0.01,180
387,2.8,1,0.96,0.93,54,180,360,3,53,36000,270,36000,0,100,0.01,180
388,2.8,1,0.96,0.93,54,180,360,3,53,36000,270,36000,0,100,0.01,180
389,2.8,1,0.96,0.93,54,180,360,3,53,36000,270,36000,0,100,0.01,180
390,2.8,1,0.96,0.93,54,180,360,3,53,36000,270,36000,0,100,0.01,180
391,2.8,1,0.96,0.93,54,180,360,3,53,36000,270,36000,0,100,0.01,180
392,2.8,1,0.96,0.93,54,180,360,3,53,36000,270,36000,0,100,0.01,180
393,2.8,1,0.96,0.93,54,180,360,3,53,36000,270,36000,0,100,0.01,180
394,2.8,1,0.96,0.93,54,180,360,3,53,36000,270,36000,0,100,0.01,180
395,2.8,1,0.96,0.93,54,180,360,3,53,36000,270,36000,0,100,0.01,180
396,2.8,1,0.96,0.93,54,180,360,3,53,36000,270,36000,0,100,0.01,180
397,2.8,1,0.96,0.93,54,180,360,3,53,36000,270,36000,0,100,0.01,180
398,2.8,1,0.96,0.93,54,180,360,3,53,36000,270,36000,0,100,0.01,180
399,2.8,1,0.96,0.93,54,180,360,3,53,36000,270,36000,0,100,0.01,180
400,2.8,1,0.96,0.93,54,180,360,3,53,36000,270,36000,0,100,0.01,180
401,2.8,1,0.96,0.93,54,180,360,3,53,36000,270,36000,0,100,0.01,180
402,2.8,1,0.96,0.93,54,180,360,3,53,36000,270,36000,0,100,0.01,180
403,2.8,1,0.96,0.93,54,180,360,3,53,36000,270,36000,0,100,0.01,180
404,2.8,1,0.96,0.93,54,180,360,3,53,36000,270,36000,0,100,0.01,180
405,2.8,1,0.96,0.93,54,180,360,3,53,36000,270,36000,0,100,0.01,180
406,2.8,1,0.96,0.93,54,180,360,3,53,36000,270,36000,0,100,0.01,180
407,2.8,1,0.96,0.93,54,180,360,3,53,36000,270,36000,0,100,0.01,180
408,2.8,1,0.96,0.93,54,180,360,3,53,36000,270,36000,0,100,0.01,180
409,2.8,1,0.96,0.93,54,180,360,3,53,36000,270,36000,0,100,0.01,180
410,2.8,1,0.96,0.93,54,180,360,3,53,36000,270,36000,0,100,0.01,180
411,2.8,1,0.96,0.93,54,180,360,3,53,36000,270,36000,0,100,0.01,180
412,2.8,1,0.96,0.93,54,180,360,3,53,36000,270,36000,0,100,0.01,180
413,2.8,1,0.96,0.93,54,180,360,3,53,36000,270,36000,0,100,0.01,180
414,2.8,1,0.96,0.93,54,180,360,3,53,36000,270,36000,0,100,0.01,180
415,2.8,1,0.96,0.93,54,180,360,3,53,36000,270,36000,0,100,0.01,180
416,2.8,1,0.96,0.93,54,180,360,3,53,36000,270,36000,0,100,0.01,180
417,2.8,1,0.96,0.93,54,180,360,3,53,36000,270,36000,0,100,0.01,180
418,2.8,1,0.96,0.93,54,180,360,3,53,36000,270,36000,0,100,0.01,180
419,2.8,1,0.96,0.93,54,180,360,3,53,36000,270,36000,0,100,0.01,180
420,2.8,1,0.96,0.93,54,180,360,3,53,36000,270,36000,0,100,0.01,180
421,2.8,1,0.96,0.93,54,180,360,3,53,36000,270,36000,0,100,0.01,180
422,2.8,1,0.96,0.93,54,180,360,3,53,36000,270,36000,0,100,0.01,180
423,2.8,1,0.96,0.93,54,180,360,3,53,36000,270,36000,0,100,0.01,180
424,2.8,1,0.96,0.93,54,180,360,3,53,36000,270,36000,0,100,0.01,180
425,2.8,1,0.96,0.93,54,180,360,3,53,36000,270,36000,0,100,0.01,180
426,2.8,1,0.96,0.93,54,180,360,3,53,36000,270,36000,0,100,0.01,180
427,2.8,1,0.96,0.93,54,180,360,3,53,36000,270,36000,0,100,0.01,180
428,2.8,1,0.96,0.93,54,180,360,3,53,36000,270,36000,0,100,0.01,180
429,2.8,1,0.96,0.93,54,180,360,3,53,36000,270,36000,0,100,0.01,180
430,2.8,1,0.96,0.93,54,180,360,3,53,36000,270,36000,0,100,0.01,180
431,2.8,1,0.96,0.93,54,180,360,3,53,36000,270,36000,0,100,0.01,180
432,2.8,1,0.96,0.93,54,180,360,3,53,36000,270,36000,0,100,0.01,180
433,2.8,1,0.96,0.93,54,180,360,3,53,36000,270,36000,0,100,0.01,180
434,2.8,1,0.96,0.93,54,180,360,3,53,36000,270,36000,0,100,0.01,180
435,2.8,1,0.96,0.93,54,180,360,3,53,36000,270,36000,0,100,0.01,180
436,2.8,1,0.96,0.93,54,180,360,3,53,36000,270,36000,0,100,0.01,180
437,2.8,1,0.96,0.93,54,180,360,3,53,36000,270,36000,0,100,0.01,180
438,2.8,1,0.96,0.93,54,180,360,3,53,36000,270,36000,0,100,0.01,180
439,2.8,1,0.96,0.93,54,180,360,3,53,36000,270,36000,0,100,0.01,180
440,2.8,1,0.96,0.93,54,180,360,3,53,36000,270,36000,0,100,0.01,180
441,2.8,1,0.96,0.93,54,180,360,3,53,36000,270,36000,0,100,0.01,180
442,2.8,1,0.96,0.93,54,180,360,3,53,36000,270,36000,0,100,0.01,180
443,2.8,1,0.96,0.93,54,180,360,3,53,36000,270,36000,0,100,0.01,180
444,2.8,1,0.96,0.93,54,180,360,3,53,36000,270,36000,0,100,0.01,180
445,2.8,1,0.96,0.93,54,180,360,3,53,36000,270,36000,0,100,0.01,180
446,2.8,1,0.96,0.93,54,180,360,3,53,36000,270,36000,0,100,0.01,180
447,2.8,1,0.96,0.93,54,180,360,3,53,36000,270,36000,0,100,0.01,180
448,2.8,1,0.96,0.93,54,180,360,3,53,36000,270,36000,0,100,0.01,180
449,2.8,1,0.96,0.93,54,180,360,3,53,36000,270,36000,0,100,0.01,180
450,2.8,1,0.96,0.93,54,180,360,3,53,36000,270,36000,0,100,0.01,180
451,2.8,1,0.96,0.93,54,180,360,3,53,36000,270,36000,0,100,0.01,180
452,2.8,1,0.96,0.93,54,180,360,3,53,36000,270,36000,0,100,0.01,180
453,2.8,1,0.96,0.93,54,180,360,3,53,36000,270,36000,0,100,0.01,180
454,2.8,1,0.96,0.93,54,180,360,3,53,36000,270,36000,0,100,0.01,180
455,2.8,1,0.96,0.93,54,180,360,3,53,36000,270,36000,0,100,0.01,180
456,2.8,1,0.96,0.93,54,180,360,3,53,36000,270,36000,0,100,0.01,180
457,2.8,1,0.96,0.93,54,180,360,3,53,36000,270,36000,0,100,0.01,180
458,2.8,1,0.96,0.93,54,180,360,3,53,36000,270,36000,0,100,0.01,180
459,2.8,1,0.96,0.93,54,180,360,3,53,36000,270,36000,0,100,0.01,180
460,2.8,1,0.96,0.93,54,180,360,3,53,36000,270,36000,0,100,0.01,180
461,2.8,1,0.96,0.93,54,180,360,3,53,36000,270,36000,0,100,0.01,180
462,2.8,1,0.96,0.93,54,180,360,3,53,36000,270,36000,0,100,0.01,180
463,2.8,1,0.96,0.93,54,180,360,3,53,36000,270,36000,0,100,0.01,180
464,2.8,1,0.96,0.93,54,180,360,3,53,36000,270,36000,0,100,0.01,180
465,2.8,1,0.96,0.93,54,180,360,3,53,36000,270,36000,0,100,0.01,180
466,2.8,1,0.96,0.93,54,180,360,3,53,36000,270,36000,0,100,0.01,180
467,2.8,1,0.96,0.93,54,180,360,3,53,36000,270,36000,0,100,0.01,180
468,2.8,1,0.96,0.93,54,180,360,3,53,36000,270,36000,0,100,0.01,180
469,2.8,1,0.96,0.93,54,180,360,3,53,36000,270,36000,0,100,0.01,180
470,2.8,1,0.96,0.93,54,180,360,3,53,36000,270,36000,0,100,0.01,180
471,2.8,1,0.96,0.93,54,180,360,3,53,36000,270,36000,0,100,0.01,180
472,2.8,1,0.96,0.93,54,180,360,3,53,36000,270,36000,0,100,0.01,180
473,2.8,1,0.96,0.93,54,180,360,3,53,36000,270,36000,0,100,0.01,180
474,2.8,1,0.96,0.93,54,180,360,3,53,36000,270,36000,0,100,0.01,180
475,2.8,1,0.96,0.93,54,180,360,3,53,36000,270,36000,0,100,0.01,180
476,2.8,1,0.96,0.93,54,180,360,3,53,36000,270,36000,0,100,0.01,180
477,2.8,1,0.96,0.93,54,180,360,3,53,36000,270,36000,0,100,0.01,180
478,2.8,1,0.96,0.93,54,180,360,3,53,36000,270,36000,0,100,0.01,180
479,2.8,1,0.96,0.93,54,180,360,3,53,36000,270,36000,0,100,0.01,180
480,2.8,1,0.96,0.93,54,180,360,3,53,36000,270,36000,0,100,0.01,180
481,2.8,1,0.96,0.93,54,180,360,3,53,36000,270,36000,0,100,0.01,180
482,2.8,1,0.96,0.93,54,180,360,3,53,36000,270,36000,0,100,0.01,180
483,2.8,1,0.96,0.93,54,180,360,3,53,36000,270,36000,0,100,0.01,180
484,2.8,1,0.96,0.93,54,180,360,3,53,36000,270,36000,0,100,0.01,180
485,2.8,1,0.96,0.93,54,180,360,3,53,36000,270,36000,0,100,0.01,180
486,2.8,1,0.96,0.93,54,180,360,3,53,36000,270,36000,0,100,0.01,180
487,2.8,1,0.96,0.93,54,180,360,3,53,36000,270,36000,0,100,0.01,180
488,2.8,1,0.96,0.93,54,180,360,3,53,36000,270,36000,0,100,0.01,180
489,2.8,1,0.96,0.93,54,180,360,3,53,36000,270,36000,0,100,0.01,180
490,2.8,1,0.96,0.93,54,180,360,3,53,36000,270,36000,0,100,0.01,180
491,2.8,1,0.96,0.93,54,180,360,3,53,36000,270,36000,0,100,0.01,180
492,2.8,1,0.96,0.93,54,180,360,3,53,36000,270,36000,0,100,0.01,180
493,2.8,1,0.96,0.93,54,180,360,3,53,36000,270,36000,0,100,0.01,180
494,2.8,1,0.96,0.93,54,180,360,3,53,36000,270,36000,0,100,0.01,180
495,2.8,1,0.96,0.93,54,180,360,3,53,36000,270,36000,0,100,0.01,180
496,2.8,1,0.96,0.93,54,180,360,3,53,36000,270,36000,0,100,0.01,180
497,2.8,1,0.96,0.93,54,180,360,3,53,36000,270,36000,0,100,0.01,180
498,2.8,1,0.96,0.93,54,180,360,3,53,36000,270,36000,0,100,0.01,180
499,2.8,1,0.96,0.93,54,180,360,3,53,36000,270,36000,0,100,0.01,180
500,2.8,1,0.96,0.93,54,180,360,3,53,36000,270,36000,0,100,0.01,180
