,RR PA impact on MSI,,,,,,,
Iteration,M<=59,M60-300,M301-600,M>=601,F<=59,F60-300,F301-600,F>=601
1,1,1.79,2.55,3.2,1,2.26,3.31,4.81
2,1,1.79,2.55,3.2,1,2.26,3.31,4.81
3,1,1.79,2.55,3.2,1,2.26,3.31,4.81
4,1,1.79,2.55,3.2,1,2.26,3.31,4.81
5,1,1.79,2.55,3.2,1,2.26,3.31,4.81
6,1,1.79,2.55,3.2,1,2.26,3.31,4.81
7,1,1.79,2.55,3.2,1,2.26,3.31,4.81
8,1,1.79,2.55,3.2,1,2.26,3.31,4.81
9,1,1.79,2.55,3.2,1,2.26,3.31,4.81
10,1,1.79,2.55,3.2,1,2.26,3.31,4.81
11,1,1.79,2.55,3.2,1,2.26,3.31,4.81
12,1,1.79,2.55,3.2,1,2.26,3.31,4.81
13,1,1.79,2.55,3.2,1,2.26,3.31,4.81
14,1,1.79,2.55,3.2,1,2.26,3.31,4.81
15,1,1.79,2.55,3.2,1,2.26,3.31,4.81
16,1,1.79,2.55,3.2,1,2.26,3.31,4.81
17,1,1.79,2.55,3.2,1,2.26,3.31,4.81
18,1,1.79,2.55,3.2,1,2.26,3.31,4.81
19,1,1.79,2.55,3.2,1,2.26,3.31,4.81
20,1,1.79,2.55,3.2,1,2.26,3.31,4.81
21,1,1.79,2.55,3.2,1,2.26,3.31,4.81
22,1,1.79,2.55,3.2,1,2.26,3.31,4.81
23,1,1.79,2.55,3.2,1,2.26,3.31,4.81
24,1,1.79,2.55,3.2,1,2.26,3.31,4.81
25,1,1.79,2.55,3.2,1,2.26,3.31,4.81
26,1,1.79,2.55,3.2,1,2.26,3.31,4.81
27,1,1.79,2.55,3.2,1,2.26,3.31,4.81
28,1,1.79,2.55,3.2,1,2.26,3.31,4.81
29,1,1.79,2.55,3.2,1,2.26,3.31,4.81
30,1,1.79,2.55,3.2,1,2.26,3.31,4.81
31,1,1.79,2.55,3.2,1,2.26,3.31,4.81
32,1,1.79,2.55,3.2,1,2.26,3.31,4.81
33,1,1.79,2.55,3.2,1,2.26,3.31,4.81
34,1,1.79,2.55,3.2,1,2.26,3.31,4.81
35,1,1.79,2.55,3.2,1,2.26,3.31,4.81
36,1,1.79,2.55,3.2,1,2.26,3.31,4.81
37,1,1.79,2.55,3.2,1,2.26,3.31,4.81
38,1,1.79,2.55,3.2,1,2.26,3.31,4.81
39,1,1.79,2.55,3.2,1,2.26,3.31,4.81
40,1,1.79,2.55,3.2,1,2.26,3.31,4.81
41,1,1.79,2.55,3.2,1,2.26,3.31,4.81
42,1,1.79,2.55,3.2,1,2.26,3.31,4.81
43,1,1.79,2.55,3.2,1,2.26,3.31,4.81
44,1,1.79,2.55,3.2,1,2.26,3.31,4.81
45,1,1.79,2.55,3.2,1,2.26,3.31,4.81
46,1,1.79,2.55,3.2,1,2.26,3.31,4.81
47,1,1.79,2.55,3.2,1,2.26,3.31,4.81
48,1,1.79,2.55,3.2,1,2.26,3.31,4.81
49,1,1.79,2.55,3.2,1,2.26,3.31,4.81
50,1,1.79,2.55,3.2,1,2.26,3.31,4.81
51,1,1.79,2.55,3.2,1,2.26,3.31,4.81
52,1,1.79,2.55,3.2,1,2.26,3.31,4.81
53,1,1.79,2.55,3.2,1,2.26,3.31,4.81
54,1,1.79,2.55,3.2,1,2.26,3.31,4.81
55,1,1.79,2.55,3.2,1,2.26,3.31,4.81
56,1,1.79,2.55,3.2,1,2.26,3.31,4.81
57,1,1.79,2.55,3.2,1,2.26,3.31,4.81
58,1,1.79,2.55,3.2,1,2.26,3.31,4.81
59,1,1.79,2.55,3.2,1,2.26,3.31,4.81
60,1,1.79,2.55,3.2,1,2.26,3.31,4.81
61,1,1.79,2.55,3.2,1,2.26,3.31,4.81
62,1,1.79,2.55,3.2,1,2.26,3.31,4.81
63,1,1.79,2.55,3.2,1,2.26,3.31,4.81
64,1,1.79,2.55,3.2,1,2.26,3.31,4.81
65,1,1.79,2.55,3.2,1,2.26,3.31,4.81
66,1,1.79,2.55,3.2,1,2.26,3.31,4.81
67,1,1.79,2.55,3.2,1,2.26,3.31,4.81
68,1,1.79,2.55,3.2,1,2.26,3.31,4.81
69,1,1.79,2.55,3.2,1,2.26,3.31,4.81
70,1,1.79,2.55,3.2,1,2.26,3.31,4.81
71,1,1.79,2.55,3.2,1,2.26,3.31,4.81
72,1,1.79,2.55,3.2,1,2.26,3.31,4.81
73,1,1.79,2.55,3.2,1,2.26,3.31,4.81
74,1,1.79,2.55,3.2,1,2.26,3.31,4.81
75,1,1.79,2.55,3.2,1,2.26,3.31,4.81
76,1,1.79,2.55,3.2,1,2.26,3.31,4.81
77,1,1.79,2.55,3.2,1,2.26,3.31,4.81
78,1,1.79,2.55,3.2,1,2.26,3.31,4.81
79,1,1.79,2.55,3.2,1,2.26,3.31,4.81
80,1,1.79,2.55,3.2,1,2.26,3.31,4.81
81,1,1.79,2.55,3.2,1,2.26,3.31,4.81
82,1,1.79,2.55,3.2,1,2.26,3.31,4.81
83,1,1.79,2.55,3.2,1,2.26,3.31,4.81
84,1,1.79,2.55,3.2,1,2.26,3.31,4.81
85,1,1.79,2.55,3.2,1,2.26,3.31,4.81
86,1,1.79,2.55,3.2,1,2.26,3.31,4.81
87,1,1.79,2.55,3.2,1,2.26,3.31,4.81
88,1,1.79,2.55,3.2,1,2.26,3.31,4.81
89,1,1.79,2.55,3.2,1,2.26,3.31,4.81
90,1,1.79,2.55,3.2,1,2.26,3.31,4.81
91,1,1.79,2.55,3.2,1,2.26,3.31,4.81
92,1,1.79,2.55,3.2,1,2.26,3.31,4.81
93,1,1.79,2.55,3.2,1,2.26,3.31,4.81
94,1,1.79,2.55,3.2,1,2.26,3.31,4.81
95,1,1.79,2.55,3.2,1,2.26,3.31,4.81
96,1,1.79,2.55,3.2,1,2.26,3.31,4.81
97,1,1.79,2.55,3.2,1,2.26,3.31,4.81
98,1,1.79,2.55,3.2,1,2.26,3.31,4.81
99,1,1.79,2.55,3.2,1,2.26,3.31,4.81
100,1,1.79,2.55,3.2,1,2.26,3.31,4.81
101,1,1.79,2.55,3.2,1,2.26,3.31,4.81
102,1,1.79,2.55,3.2,1,2.26,3.31,4.81
103,1,1.79,2.55,3.2,1,2.26,3.31,4.81
104,1,1.79,2.55,3.2,1,2.26,3.31,4.81
105,1,1.79,2.55,3.2,1,2.26,3.31,4.81
106,1,1.79,2.55,3.2,1,2.26,3.31,4.81
107,1,1.79,2.55,3.2,1,2.26,3.31,4.81
108,1,1.79,2.55,3.2,1,2.26,3.31,4.81
109,1,1.79,2.55,3.2,1,2.26,3.31,4.81
110,1,1.79,2.55,3.2,1,2.26,3.31,4.81
111,1,1.79,2.55,3.2,1,2.26,3.31,4.81
112,1,1.79,2.55,3.2,1,2.26,3.31,4.81
113,1,1.79,2.55,3.2,1,2.26,3.31,4.81
114,1,1.79,2.55,3.2,1,2.26,3.31,4.81
115,1,1.79,2.55,3.2,1,2.26,3.31,4.81
116,1,1.79,2.55,3.2,1,2.26,3.31,4.81
117,1,1.79,2.55,3.2,1,2.26,3.31,4.81
118,1,1.79,2.55,3.2,1,2.26,3.31,4.81
119,1,1.79,2.55,3.2,1,2.26,3.31,4.81
120,1,1.79,2.55,3.2,1,2.26,3.31,4.81
121,1,1.79,2.55,3.2,1,2.26,3.31,4.81
122,1,1.79,2.55,3.2,1,2.26,3.31,4.81
123,1,1.79,2.55,3.2,1,2.26,3.31,4.81
124,1,1.79,2.55,3.2,1,2.26,3.31,4.81
125,1,1.79,2.55,3.2,1,2.26,3.31,4.81
126,1,1.79,2.55,3.2,1,2.26,3.31,4.81
127,1,1.79,2.55,3.2,1,2.26,3.31,4.81
128,1,1.79,2.55,3.2,1,2.26,3.31,4.81
129,1,1.79,2.55,3.2,1,2.26,3.31,4.81
130,1,1.79,2.55,3.2,1,2.26,3.31,4.81
131,1,1.79,2.55,3.2,1,2.26,3.31,4.81
132,1,1.79,2.55,3.2,1,2.26,3.31,4.81
133,1,1.79,2.55,3.2,1,2.26,3.31,4.81
134,1,1.79,2.55,3.2,1,2.26,3.31,4.81
135,1,1.79,2.55,3.2,1,2.26,3.31,4.81
136,1,1.79,2.55,3.2,1,2.26,3.31,4.81
137,1,1.79,2.55,3.2,1,2.26,3.31,4.81
138,1,1.79,2.55,3.2,1,2.26,3.31,4.81
139,1,1.79,2.55,3.2,1,2.26,3.31,4.81
140,1,1.79,2.55,3.2,1,2.26,3.31,4.81
141,1,1.79,2.55,3.2,1,2.26,3.31,4.81
142,1,1.79,2.55,3.2,1,2.26,3.31,4.81
143,1,1.79,2.55,3.2,1,2.26,3.31,4.81
144,1,1.79,2.55,3.2,1,2.26,3.31,4.81
145,1,1.79,2.55,3.2,1,2.26,3.31,4.81
146,1,1.79,2.55,3.2,1,2.26,3.31,4.81
147,1,1.79,2.55,3.2,1,2.26,3.31,4.81
148,1,1.79,2.55,3.2,1,2.26,3.31,4.81
149,1,1.79,2.55,3.2,1,2.26,3.31,4.81
150,1,1.79,2.55,3.2,1,2.26,3.31,4.81
151,1,1.79,2.55,3.2,1,2.26,3.31,4.81
152,1,1.79,2.55,3.2,1,2.26,3.31,4.81
153,1,1.79,2.55,3.2,1,2.26,3.31,4.81
154,1,1.79,2.55,3.2,1,2.26,3.31,4.81
155,1,1.79,2.55,3.2,1,2.26,3.31,4.81
156,1,1.79,2.55,3.2,1,2.26,3.31,4.81
157,1,1.79,2.55,3.2,1,2.26,3.31,4.81
158,1,1.79,2.55,3.2,1,2.26,3.31,4.81
159,1,1.79,2.55,3.2,1,2.26,3.31,4.81
160,1,1.79,2.55,3.2,1,2.26,3.31,4.81
161,1,1.79,2.55,3.2,1,2.26,3.31,4.81
162,1,1.79,2.55,3.2,1,2.26,3.31,4.81
163,1,1.79,2.55,3.2,1,2.26,3.31,4.81
164,1,1.79,2.55,3.2,1,2.26,3.31,4.81
165,1,1.79,2.55,3.2,1,2.26,3.31,4.81
166,1,1.79,2.55,3.2,1,2.26,3.31,4.81
167,1,1.79,2.55,3.2,1,2.26,3.31,4.81
168,1,1.79,2.55,3.2,1,2.26,3.31,4.81
169,1,1.79,2.55,3.2,1,2.26,3.31,4.81
170,1,1.79,2.55,3.2,1,2.26,3.31,4.81
171,1,1.79,2.55,3.2,1,2.26,3.31,4.81
172,1,1.79,2.55,3.2,1,2.26,3.31,4.81
173,1,1.79,2.55,3.2,1,2.26,3.31,4.81
174,1,1.79,2.55,3.2,1,2.26,3.31,4.81
175,1,1.79,2.55,3.2,1,2.26,3.31,4.81
176,1,1.79,2.55,3.2,1,2.26,3.31,4.81
177,1,1.79,2.55,3.2,1,2.26,3.31,4.81
178,1,1.79,2.55,3.2,1,2.26,3.31,4.81
179,1,1.79,2.55,3.2,1,2.26,3.31,4.81
180,1,1.79,2.55,3.2,1,2.26,3.31,4.81
181,1,1.79,2.55,3.2,1,2.26,3.31,4.81
182,1,1.79,2.55,3.2,1,2.26,3.31,4.81
183,1,1.79,2.55,3.2,1,2.26,3.31,4.81
184,1,1.79,2.55,3.2,1,2.26,3.31,4.81
185,1,1.79,2.55,3.2,1,2.26,3.31,4.81
186,1,1.79,2.55,3.2,1,2.26,3.31,4.81
187,1,1.79,2.55,3.2,1,2.26,3.31,4.81
188,1,1.79,2.55,3.2,1,2.26,3.31,4.81
189,1,1.79,2.55,3.2,1,2.26,3.31,4.81
190,1,1.79,2.55,3.2,1,2.26,3.31,4.81
191,1,1.79,2.55,3.2,1,2.26,3.31,4.81
192,1,1.79,2.55,3.2,1,2.26,3.31,4.81
193,1,1.79,2.55,3.2,1,2.26,3.31,4.81
194,1,1.79,2.55,3.2,1,2.26,3.31,4.81
195,1,1.79,2.55,3.2,1,2.26,3.31,4.81
196,1,1.79,2.55,3.2,1,2.26,3.31,4.81
197,1,1.79,2.55,3.2,1,2.26,3.31,4.81
198,1,1.79,2.55,3.2,1,2.26,3.31,4.81
199,1,1.79,2.55,3.2,1,2.26,3.31,4.81
200,1,1.79,2.55,3.2,1,2.26,3.31,4.81
201,1,1.79,2.55,3.2,1,2.26,3.31,4.81
202,1,1.79,2.55,3.2,1,2.26,3.31,4.81
203,1,1.79,2.55,3.2,1,2.26,3.31,4.81
204,1,1.79,2.55,3.2,1,2.26,3.31,4.81
205,1,1.79,2.55,3.2,1,2.26,3.31,4.81
206,1,1.79,2.55,3.2,1,2.26,3.31,4.81
207,1,1.79,2.55,3.2,1,2.26,3.31,4.81
208,1,1.79,2.55,3.2,1,2.26,3.31,4.81
209,1,1.79,2.55,3.2,1,2.26,3.31,4.81
210,1,1.79,2.55,3.2,1,2.26,3.31,4.81
211,1,1.79,2.55,3.2,1,2.26,3.31,4.81
212,1,1.79,2.55,3.2,1,2.26,3.31,4.81
213,1,1.79,2.55,3.2,1,2.26,3.31,4.81
214,1,1.79,2.55,3.2,1,2.26,3.31,4.81
215,1,1.79,2.55,3.2,1,2.26,3.31,4.81
216,1,1.79,2.55,3.2,1,2.26,3.31,4.81
217,1,1.79,2.55,3.2,1,2.26,3.31,4.81
218,1,1.79,2.55,3.2,1,2.26,3.31,4.81
219,1,1.79,2.55,3.2,1,2.26,3.31,4.81
220,1,1.79,2.55,3.2,1,2.26,3.31,4.81
221,1,1.79,2.55,3.2,1,2.26,3.31,4.81
222,1,1.79,2.55,3.2,1,2.26,3.31,4.81
223,1,1.79,2.55,3.2,1,2.26,3.31,4.81
224,1,1.79,2.55,3.2,1,2.26,3.31,4.81
225,1,1.79,2.55,3.2,1,2.26,3.31,4.81
226,1,1.79,2.55,3.2,1,2.26,3.31,4.81
227,1,1.79,2.55,3.2,1,2.26,3.31,4.81
228,1,1.79,2.55,3.2,1,2.26,3.31,4.81
229,1,1.79,2.55,3.2,1,2.26,3.31,4.81
230,1,1.79,2.55,3.2,1,2.26,3.31,4.81
231,1,1.79,2.55,3.2,1,2.26,3.31,4.81
232,1,1.79,2.55,3.2,1,2.26,3.31,4.81
233,1,1.79,2.55,3.2,1,2.26,3.31,4.81
234,1,1.79,2.55,3.2,1,2.26,3.31,4.81
235,1,1.79,2.55,3.2,1,2.26,3.31,4.81
236,1,1.79,2.55,3.2,1,2.26,3.31,4.81
237,1,1.79,2.55,3.2,1,2.26,3.31,4.81
238,1,1.79,2.55,3.2,1,2.26,3.31,4.81
239,1,1.79,2.55,3.2,1,2.26,3.31,4.81
240,1,1.79,2.55,3.2,1,2.26,3.31,4.81
241,1,1.79,2.55,3.2,1,2.26,3.31,4.81
242,1,1.79,2.55,3.2,1,2.26,3.31,4.81
243,1,1.79,2.55,3.2,1,2.26,3.31,4.81
244,1,1.79,2.55,3.2,1,2.26,3.31,4.81
245,1,1.79,2.55,3.2,1,2.26,3.31,4.81
246,1,1.79,2.55,3.2,1,2.26,3.31,4.81
247,1,1.79,2.55,3.2,1,2.26,3.31,4.81
248,1,1.79,2.55,3.2,1,2.26,3.31,4.81
249,1,1.79,2.55,3.2,1,2.26,3.31,4.81
250,1,1.79,2.55,3.2,1,2.26,3.31,4.81
251,1,1.79,2.55,3.2,1,2.26,3.31,4.81
252,1,1.79,2.55,3.2,1,2.26,3.31,4.81
253,1,1.79,2.55,3.2,1,2.26,3.31,4.81
254,1,1.79,2.55,3.2,1,2.26,3.31,4.81
255,1,1.79,2.55,3.2,1,2.26,3.31,4.81
256,1,1.79,2.55,3.2,1,2.26,3.31,4.81
257,1,1.79,2.55,3.2,1,2.26,3.31,4.81
258,1,1.79,2.55,3.2,1,2.26,3.31,4.81
259,1,1.79,2.55,3.2,1,2.26,3.31,4.81
260,1,1.79,2.55,3.2,1,2.26,3.31,4.81
261,1,1.79,2.55,3.2,1,2.26,3.31,4.81
262,1,1.79,2.55,3.2,1,2.26,3.31,4.81
263,1,1.79,2.55,3.2,1,2.26,3.31,4.81
264,1,1.79,2.55,3.2,1,2.26,3.31,4.81
265,1,1.79,2.55,3.2,1,2.26,3.31,4.81
266,1,1.79,2.55,3.2,1,2.26,3.31,4.81
267,1,1.79,2.55,3.2,1,2.26,3.31,4.81
268,1,1.79,2.55,3.2,1,2.26,3.31,4.81
269,1,1.79,2.55,3.2,1,2.26,3.31,4.81
270,1,1.79,2.55,3.2,1,2.26,3.31,4.81
271,1,1.79,2.55,3.2,1,2.26,3.31,4.81
272,1,1.79,2.55,3.2,1,2.26,3.31,4.81
273,1,1.79,2.55,3.2,1,2.26,3.31,4.81
274,1,1.79,2.55,3.2,1,2.26,3.31,4.81
275,1,1.79,2.55,3.2,1,2.26,3.31,4.81
276,1,1.79,2.55,3.2,1,2.26,3.31,4.81
277,1,1.79,2.55,3.2,1,2.26,3.31,4.81
278,1,1.79,2.55,3.2,1,2.26,3.31,4.81
279,1,1.79,2.55,3.2,1,2.26,3.31,4.81
280,1,1.79,2.55,3.2,1,2.26,3.31,4.81
281,1,1.79,2.55,3.2,1,2.26,3.31,4.81
282,1,1.79,2.55,3.2,1,2.26,3.31,4.81
283,1,1.79,2.55,3.2,1,2.26,3.31,4.81
284,1,1.79,2.55,3.2,1,2.26,3.31,4.81
285,1,1.79,2.55,3.2,1,2.26,3.31,4.81
286,1,1.79,2.55,3.2,1,2.26,3.31,4.81
287,1,1.79,2.55,3.2,1,2.26,3.31,4.81
288,1,1.79,2.55,3.2,1,2.26,3.31,4.81
289,1,1.79,2.55,3.2,1,2.26,3.31,4.81
290,1,1.79,2.55,3.2,1,2.26,3.31,4.81
291,1,1.79,2.55,3.2,1,2.26,3.31,4.81
292,1,1.79,2.55,3.2,1,2.26,3.31,4.81
293,1,1.79,2.55,3.2,1,2.26,3.31,4.81
294,1,1.79,2.55,3.2,1,2.26,3.31,4.81
295,1,1.79,2.55,3.2,1,2.26,3.31,4.81
296,1,1.79,2.55,3.2,1,2.26,3.31,4.81
297,1,1.79,2.55,3.2,1,2.26,3.31,4.81
298,1,1.79,2.55,3.2,1,2.26,3.31,4.81
299,1,1.79,2.55,3.2,1,2.26,3.31,4.81
300,1,1.79,2.55,3.2,1,2.26,3.31,4.81
301,1,1.79,2.55,3.2,1,2.26,3.31,4.81
302,1,1.79,2.55,3.2,1,2.26,3.31,4.81
303,1,1.79,2.55,3.2,1,2.26,3.31,4.81
304,1,1.79,2.55,3.2,1,2.26,3.31,4.81
305,1,1.79,2.55,3.2,1,2.26,3.31,4.81
306,1,1.79,2.55,3.2,1,2.26,3.31,4.81
307,1,1.79,2.55,3.2,1,2.26,3.31,4.81
308,1,1.79,2.55,3.2,1,2.26,3.31,4.81
309,1,1.79,2.55,3.2,1,2.26,3.31,4.81
310,1,1.79,2.55,3.2,1,2.26,3.31,4.81
311,1,1.79,2.55,3.2,1,2.26,3.31,4.81
312,1,1.79,2.55,3.2,1,2.26,3.31,4.81
313,1,1.79,2.55,3.2,1,2.26,3.31,4.81
314,1,1.79,2.55,3.2,1,2.26,3.31,4.81
315,1,1.79,2.55,3.2,1,2.26,3.31,4.81
316,1,1.79,2.55,3.2,1,2.26,3.31,4.81
317,1,1.79,2.55,3.2,1,2.26,3.31,4.81
318,1,1.79,2.55,3.2,1,2.26,3.31,4.81
319,1,1.79,2.55,3.2,1,2.26,3.31,4.81
320,1,1.79,2.55,3.2,1,2.26,3.31,4.81
321,1,1.79,2.55,3.2,1,2.26,3.31,4.81
322,1,1.79,2.55,3.2,1,2.26,3.31,4.81
323,1,1.79,2.55,3.2,1,2.26,3.31,4.81
324,1,1.79,2.55,3.2,1,2.26,3.31,4.81
325,1,1.79,2.55,3.2,1,2.26,3.31,4.81
326,1,1.79,2.55,3.2,1,2.26,3.31,4.81
327,1,1.79,2.55,3.2,1,2.26,3.31,4.81
328,1,1.79,2.55,3.2,1,2.26,3.31,4.81
329,1,1.79,2.55,3.2,1,2.26,3.31,4.81
330,1,1.79,2.55,3.2,1,2.26,3.31,4.81
331,1,1.79,2.55,3.2,1,2.26,3.31,4.81
332,1,1.79,2.55,3.2,1,2.26,3.31,4.81
333,1,1.79,2.55,3.2,1,2.26,3.31,4.81
334,1,1.79,2.55,3.2,1,2.26,3.31,4.81
335,1,1.79,2.55,3.2,1,2.26,3.31,4.81
336,1,1.79,2.55,3.2,1,2.26,3.31,4.81
337,1,1.79,2.55,3.2,1,2.26,3.31,4.81
338,1,1.79,2.55,3.2,1,2.26,3.31,4.81
339,1,1.79,2.55,3.2,1,2.26,3.31,4.81
340,1,1.79,2.55,3.2,1,2.26,3.31,4.81
341,1,1.79,2.55,3.2,1,2.26,3.31,4.81
342,1,1.79,2.55,3.2,1,2.26,3.31,4.81
343,1,1.79,2.55,3.2,1,2.26,3.31,4.81
344,1,1.79,2.55,3.2,1,2.26,3.31,4.81
345,1,1.79,2.55,3.2,1,2.26,3.31,4.81
346,1,1.79,2.55,3.2,1,2.26,3.31,4.81
347,1,1.79,2.55,3.2,1,2.26,3.31,4.81
348,1,1.79,2.55,3.2,1,2.26,3.31,4.81
349,1,1.79,2.55,3.2,1,2.26,3.31,4.81
350,1,1.79,2.55,3.2,1,2.26,3.31,4.81
351,1,1.79,2.55,3.2,1,2.26,3.31,4.81
352,1,1.79,2.55,3.2,1,2.26,3.31,4.81
353,1,1.79,2.55,3.2,1,2.26,3.31,4.81
354,1,1.79,2.55,3.2,1,2.26,3.31,4.81
355,1,1.79,2.55,3.2,1,2.26,3.31,4.81
356,1,1.79,2.55,3.2,1,2.26,3.31,4.81
357,1,1.79,2.55,3.2,1,2.26,3.31,4.81
358,1,1.79,2.55,3.2,1,2.26,3.31,4.81
359,1,1.79,2.55,3.2,1,2.26,3.31,4.81
360,1,1.79,2.55,3.2,1,2.26,3.31,4.81
361,1,1.79,2.55,3.2,1,2.26,3.31,4.81
362,1,1.79,2.55,3.2,1,2.26,3.31,4.81
363,1,1.79,2.55,3.2,1,2.26,3.31,4.81
364,1,1.79,2.55,3.2,1,2.26,3.31,4.81
365,1,1.79,2.55,3.2,1,2.26,3.31,4.81
366,1,1.79,2.55,3.2,1,2.26,3.31,4.81
367,1,1.79,2.55,3.2,1,2.26,3.31,4.81
368,1,1.79,2.55,3.2,1,2.26,3.31,4.81
369,1,1.79,2.55,3.2,1,2.26,3.31,4.81
370,1,1.79,2.55,3.2,1,2.26,3.31,4.81
371,1,1.79,2.55,3.2,1,2.26,3.31,4.81
372,1,1.79,2.55,3.2,1,2.26,3.31,4.81
373,1,1.79,2.55,3.2,1,2.26,3.31,4.81
374,1,1.79,2.55,3.2,1,2.26,3.31,4.81
375,1,1.79,2.55,3.2,1,2.26,3.31,4.81
376,1,1.79,2.55,3.2,1,2.26,3.31,4.81
377,1,1.79,2.55,3.2,1,2.26,3.31,4.81
378,1,1.79,2.55,3.2,1,2.26,3.31,4.81
379,1,1.79,2.55,3.2,1,2.26,3.31,4.81
380,1,1.79,2.55,3.2,1,2.26,3.31,4.81
381,1,1.79,2.55,3.2,1,2.26,3.31,4.81
382,1,1.79,2.55,3.2,1,2.26,3.31,4.81
383,1,1.79,2.55,3.2,1,2.26,3.31,4.81
384,1,1.79,2.55,3.2,1,2.26,3.31,4.81
385,1,1.79,2.55,3.2,1,2.26,3.31,4.81
386,1,1.79,2.55,3.2,1,2.26,3.31,4.81
387,1,1.79,2.55,3.2,1,2.26,3.31,4.81
388,1,1.79,2.55,3.2,1,2.26,3.31,4.81
389,1,1.79,2.55,3.2,1,2.26,3.31,4.81
390,1,1.79,2.55,3.2,1,2.26,3.31,4.81
391,1,1.79,2.55,3.2,1,2.26,3.31,4.81
392,1,1.79,2.55,3.2,1,2.26,3.31,4.81
393,1,1.79,2.55,3.2,1,2.26,3.31,4.81
394,1,1.79,2.55,3.2,1,2.26,3.31,4.81
395,1,1.79,2.55,3.2,1,2.26,3.31,4.81
396,1,1.79,2.55,3.2,1,2.26,3.31,4.81
397,1,1.79,2.55,3.2,1,2.26,3.31,4.81
398,1,1.79,2.55,3.2,1,2.26,3.31,4.81
399,1,1.79,2.55,3.2,1,2.26,3.31,4.81
400,1,1.79,2.55,3.2,1,2.26,3.31,4.81
401,1,1.79,2.55,3.2,1,2.26,3.31,4.81
402,1,1.79,2.55,3.2,1,2.26,3.31,4.81
403,1,1.79,2.55,3.2,1,2.26,3.31,4.81
404,1,1.79,2.55,3.2,1,2.26,3.31,4.81
405,1,1.79,2.55,3.2,1,2.26,3.31,4.81
406,1,1.79,2.55,3.2,1,2.26,3.31,4.81
407,1,1.79,2.55,3.2,1,2.26,3.31,4.81
408,1,1.79,2.55,3.2,1,2.26,3.31,4.81
409,1,1.79,2.55,3.2,1,2.26,3.31,4.81
410,1,1.79,2.55,3.2,1,2.26,3.31,4.81
411,1,1.79,2.55,3.2,1,2.26,3.31,4.81
412,1,1.79,2.55,3.2,1,2.26,3.31,4.81
413,1,1.79,2.55,3.2,1,2.26,3.31,4.81
414,1,1.79,2.55,3.2,1,2.26,3.31,4.81
415,1,1.79,2.55,3.2,1,2.26,3.31,4.81
416,1,1.79,2.55,3.2,1,2.26,3.31,4.81
417,1,1.79,2.55,3.2,1,2.26,3.31,4.81
418,1,1.79,2.55,3.2,1,2.26,3.31,4.81
419,1,1.79,2.55,3.2,1,2.26,3.31,4.81
420,1,1.79,2.55,3.2,1,2.26,3.31,4.81
421,1,1.79,2.55,3.2,1,2.26,3.31,4.81
422,1,1.79,2.55,3.2,1,2.26,3.31,4.81
423,1,1.79,2.55,3.2,1,2.26,3.31,4.81
424,1,1.79,2.55,3.2,1,2.26,3.31,4.81
425,1,1.79,2.55,3.2,1,2.26,3.31,4.81
426,1,1.79,2.55,3.2,1,2.26,3.31,4.81
427,1,1.79,2.55,3.2,1,2.26,3.31,4.81
428,1,1.79,2.55,3.2,1,2.26,3.31,4.81
429,1,1.79,2.55,3.2,1,2.26,3.31,4.81
430,1,1.79,2.55,3.2,1,2.26,3.31,4.81
431,1,1.79,2.55,3.2,1,2.26,3.31,4.81
432,1,1.79,2.55,3.2,1,2.26,3.31,4.81
433,1,1.79,2.55,3.2,1,2.26,3.31,4.81
434,1,1.79,2.55,3.2,1,2.26,3.31,4.81
435,1,1.79,2.55,3.2,1,2.26,3.31,4.81
436,1,1.79,2.55,3.2,1,2.26,3.31,4.81
437,1,1.79,2.55,3.2,1,2.26,3.31,4.81
438,1,1.79,2.55,3.2,1,2.26,3.31,4.81
439,1,1.79,2.55,3.2,1,2.26,3.31,4.81
440,1,1.79,2.55,3.2,1,2.26,3.31,4.81
441,1,1.79,2.55,3.2,1,2.26,3.31,4.81
442,1,1.79,2.55,3.2,1,2.26,3.31,4.81
443,1,1.79,2.55,3.2,1,2.26,3.31,4.81
444,1,1.79,2.55,3.2,1,2.26,3.31,4.81
445,1,1.79,2.55,3.2,1,2.26,3.31,4.81
446,1,1.79,2.55,3.2,1,2.26,3.31,4.81
447,1,1.79,2.55,3.2,1,2.26,3.31,4.81
448,1,1.79,2.55,3.2,1,2.26,3.31,4.81
449,1,1.79,2.55,3.2,1,2.26,3.31,4.81
450,1,1.79,2.55,3.2,1,2.26,3.31,4.81
451,1,1.79,2.55,3.2,1,2.26,3.31,4.81
452,1,1.79,2.55,3.2,1,2.26,3.31,4.81
453,1,1.79,2.55,3.2,1,2.26,3.31,4.81
454,1,1.79,2.55,3.2,1,2.26,3.31,4.81
455,1,1.79,2.55,3.2,1,2.26,3.31,4.81
456,1,1.79,2.55,3.2,1,2.26,3.31,4.81
457,1,1.79,2.55,3.2,1,2.26,3.31,4.81
458,1,1.79,2.55,3.2,1,2.26,3.31,4.81
459,1,1.79,2.55,3.2,1,2.26,3.31,4.81
460,1,1.79,2.55,3.2,1,2.26,3.31,4.81
461,1,1.79,2.55,3.2,1,2.26,3.31,4.81
462,1,1.79,2.55,3.2,1,2.26,3.31,4.81
463,1,1.79,2.55,3.2,1,2.26,3.31,4.81
464,1,1.79,2.55,3.2,1,2.26,3.31,4.81
465,1,1.79,2.55,3.2,1,2.26,3.31,4.81
466,1,1.79,2.55,3.2,1,2.26,3.31,4.81
467,1,1.79,2.55,3.2,1,2.26,3.31,4.81
468,1,1.79,2.55,3.2,1,2.26,3.31,4.81
469,1,1.79,2.55,3.2,1,2.26,3.31,4.81
470,1,1.79,2.55,3.2,1,2.26,3.31,4.81
471,1,1.79,2.55,3.2,1,2.26,3.31,4.81
472,1,1.79,2.55,3.2,1,2.26,3.31,4.81
473,1,1.79,2.55,3.2,1,2.26,3.31,4.81
474,1,1.79,2.55,3.2,1,2.26,3.31,4.81
475,1,1.79,2.55,3.2,1,2.26,3.31,4.81
476,1,1.79,2.55,3.2,1,2.26,3.31,4.81
477,1,1.79,2.55,3.2,1,2.26,3.31,4.81
478,1,1.79,2.55,3.2,1,2.26,3.31,4.81
479,1,1.79,2.55,3.2,1,2.26,3.31,4.81
480,1,1.79,2.55,3.2,1,2.26,3.31,4.81
481,1,1.79,2.55,3.2,1,2.26,3.31,4.81
482,1,1.79,2.55,3.2,1,2.26,3.31,4.81
483,1,1.79,2.55,3.2,1,2.26,3.31,4.81
484,1,1.79,2.55,3.2,1,2.26,3.31,4.81
485,1,1.79,2.55,3.2,1,2.26,3.31,4.81
486,1,1.79,2.55,3.2,1,2.26,3.31,4.81
487,1,1.79,2.55,3.2,1,2.26,3.31,4.81
488,1,1.79,2.55,3.2,1,2.26,3.31,4.81
489,1,1.79,2.55,3.2,1,2.26,3.31,4.81
490,1,1.79,2.55,3.2,1,2.26,3.31,4.81
491,1,1.79,2.55,3.2,1,2.26,3.31,4.81
492,1,1.79,2.55,3.2,1,2.26,3.31,4.81
493,1,1.79,2.55,3.2,1,2.26,3.31,4.81
494,1,1.79,2.55,3.2,1,2.26,3.31,4.81
495,1,1.79,2.55,3.2,1,2.26,3.31,4.81
496,1,1.79,2.55,3.2,1,2.26,3.31,4.81
497,1,1.79,2.55,3.2,1,2.26,3.31,4.81
498,1,1.79,2.55,3.2,1,2.26,3.31,4.81
499,1,1.79,2.55,3.2,1,2.26,3.31,4.81
500,1,1.79,2.55,3.2,1,2.26,3.31,4.81
